Lab8/inlab/2bits/1kHz/InputOutputPart2.csv

#Digilent WaveForms Oscilloscope Acquisition
#Device Name: Discovery2
#Serial Number: SN:210321B2E135
#Date Time: 2023-11-01 14:48:55.050
#Sample rate: 800000Hz
#Samples: 8192
#Trigger: Source: Channel 2 Type: Edge Condition: Rising Level: 1.83125 V Hyst.: Auto HoldOff: 100 ns
#Channel 1: Range: 2 V/div Offset: 0 V Attenuation: 1 X
#Channel 2: Range: 2 V/div Offset: 0 V Attenuation: 1 X
#Wavegen Channel 1: Running
#Mode: Simple
#Type: Sine
#Frequency: 1 kHz
#Period: 1 ms
#Amplitude: 2.5 V
#Offset: 2.5 V
#Symmetry: 50 %
#Phase: 0 °
#Wavegen Channel 2: Running
#Mode: Simple
#Type: DC
#Offset: 5 V

Time (s),Channel 1 (V),Channel 2 (V)
0.09488014025590552,0.2337150615526211,0.2295454215211929
0.09488139025590552,0.2337150615526211,0.2148175108810942
0.09488264025590552,0.2337150615526044,0.2111355332209841
0.09488389025590552,0.2263813565463618,0.2074535555609594
0.09488514025590553,0.2300482090494998,0.2074535555609845
0.09488639025590552,0.2337150615526211,0.2148175108810339
0.09488764025590551,0.2190476515401358,0.2111355332210092
0.09488889025590552,0.2337150615526011,0.2148175108810272
0.09489014025590552,0.2227145040432371,0.2111355332210025
0.09489139025590553,0.2373819140557325,0.2148175108810339
0.09489264025590552,0.2300482090494898,0.2148175108810339
0.09489389025590553,0.2373819140557158,0.207453555560951
0.09489514025590552,0.2300482090494731,0.207453555560956
0.09489639025590552,0.2227145040432304,0.2111355332209807
0.09489764025590552,0.2263813565463568,0.2148175108810222
0.09489889025590552,0.2300482090494781,0.2111355332209975
0.09490014025590551,0.2227145040432504,0.2221814662010514
0.09490139025590552,0.2410487665588938,0.2074535555609544
0.09490264025590552,0.2373819140557725,0.2111355332209791
0.09490389025590552,0.2337150615526111,0.2111355332209925
0.09490514025590552,0.2300482090494898,0.2111355332209925
0.09490639025590553,0.2263813565463618,0.2074535555609845
0.09490764025590552,0.2300482090494831,0.2148175108810339
0.09490889025590551,0.2227145040432404,0.2221814662010833
0.09491014025590552,0.2263813565463534,0.2111355332210092
0.09491139025590552,0.2300482090494748,0.2184994885410586
0.09491264025590553,0.2447156190619902,0.2184994885410602
0.09491389025590552,0.2337150615526261,0.2148175108810356
0.09491514025590551,0.2227145040432621,0.2111355332210109
0.09491639025590552,0.2263813565463651,0.2074535555609644
0.09491764025590552,0.2373819140557291,0.2148175108810138
0.09491889025590552,0.2337150615526211,0.2037715779009766
0.09492014025590552,0.2337150615526211,0.2221814662011
0.09492139025590551,0.2227145040432671,0.2148175108810741
0.09492264025590552,0.2300482090494831,0.218499488541072
0.09492389025590552,0.2300482090494831,0.2148175108810473
0.09492514025590552,0.2190476515399873,0.1927256449207267
0.09492639025590552,0.1933796840181379,0.1743157566206032
0.09492764025590553,0.2007133890243973,0.1853616896006287
0.09492889025590552,0.2043802415275103,0.1706337789605433
0.09493014025590552,0.1897128315150249,0.1853616896006421
0.09493139025590552,0.1970465365212309,0.1779977342806497
0.09493264025590552,0.1933796840181096,0.1890436672607237
0.09493389025590553,0.1970465365212242,0.1779977342806028
0.09493514025590552,0.1933796840181029,0.1743157566205781
0.09493639025590551,0.1823791265087389,0.1853616896006521
0.09493764025590552,0.1970465365212543,0.1779977342806195
0.09493889025590552,0.204380241527497,0.1779977342806195
0.09494014025590553,0.1970465365211959,0.1743157566206082
0.09494139025590552,0.1860459790118318,0.1816797119406576
0.09494264025590551,0.1933796840180662,0.1853616896006839
0.09494389025590552,0.2007133890243789,0.1816797119406459
0.09494514025590552,0.2007133890243789,0.1706337789605718
0.09494639025590552,0.1897128315149649,0.1816797119406726
0.09494764025590552,0.1897128315149649,0.1853616896006973
0.09494889025590553,0.1933796840181029,0.1853616896006622
0.09495014025590552,0.1933796840181029,0.1779977342806162
0.09495139025590552,0.1933796840181029,0.1743157566205915
0.09495264025590552,0.1933796840181029,0.181679711940671
0.09495389025590552,0.1933796840181029,0.1853616896006957
0.09495514025590553,0.1933796840181029,0.1743157566206149
0.09495639025590552,0.1933796840181046,0.1816797119406559
0.09495764025590551,0.1970465365212259,0.1706337789605819
0.09495889025590552,0.1933796840180946,0.1706337789605618
0.09496014025590552,0.1897128315149732,0.1816797119406358
0.09496139025590553,0.1933796840181029,0.1816797119406609
0.09496264025590552,0.1933796840181029,0.1816797119406609
0.09496389025590551,0.2007133890243422,0.1816797119406609
0.09496514025590552,0.2007133890243789,0.1779977342806329
0.09496639025590552,0.2007133890243789,0.1853616896006823
0.09496764025590552,0.1970465365212276,0.1779977342806329
0.09496889025590552,0.1933796840181062,0.1816797119406576
0.09497014025590553,0.1860459790118919,0.1743157566205563
0.09497139025590552,0.1970465365212409,0.1706337789605417
0.09497264025590552,0.1970465365212409,0.1743157566205664
0.09497389025590552,0.2007133890243673,0.1743157566205898
0.09497514025590552,0.1970465365212459,0.1779977342806145
0.09497639025590553,0.2080470940305999,0.1816797119406425
0.09497764025590552,0.1970465365212409,0.1779977342806229
0.09497889025590552,0.1970465365212409,0.1853616896006722
0.09498014025590552,0.2007133890243589,0.1816797119406509
0.09498139025590552,0.1933796840181163,0.1779977342806262
0.09498264025590553,0.1933796840181196,0.1816797119406777
0.09498389025590552,0.1970465365212409,0.1853616896007024
0.09498514025590551,0.1970465365212409,0.1743157566206283
0.09498639025590552,0.1860459790118519,0.1816797119406609
0.09498764025590552,0.1970465365212159,0.1816797119406609
0.09498889025590553,0.1970465365212559,0.1816797119406308
0.09499014025590552,0.2007133890243773,0.1743157566205814
0.09499139025590551,0.1933796840181396,0.1927256449206932
0.09499264025590552,0.1970465365212309,0.1816797119406509
0.09499389025590552,0.1897128315149882,0.1743157566206015
0.09499514025590552,0.1933796840181429,0.1743157566205915
0.09499639025590552,0.204380241527507,0.1779977342806162
0.09499764025590551,0.2007133890243989,0.1706337789605768
0.09499889025590552,0.1933796840180862,0.1816797119422282
0.09500014025590552,0.1750454215024795,1.904845256833785
0.09500139025590552,0.164044863992987,4.732604099751938
0.09500264025590552,0.1603780114898657,4.751013988052061
0.09500389025590553,0.1677117164960817,4.743650032732058
0.09500514025590552,0.1567111589867244,4.754695965712125
0.09500639025590552,0.1603780114898457,4.751013988052101
0.09500764025590552,0.1640448639929904,4.77310585401231
0.09500889025590552,0.160378011489869,4.762059921032235
0.09501014025590553,0.1713785689992581,4.765741898692252
0.09501139025590552,0.1677117164961368,4.765741898692252
0.09501264025590551,0.1677117164961368,4.762059921032227
0.09501389025590552,0.1567111589867093,4.769423876352286
0.09501514025590552,0.1493774539804667,4.765741898692261
0.09501639025590553,0.1677117164961217,4.765741898692236
0.09501764025590552,0.1640448639930004,4.762059921032212
0.09501889025590551,0.1640448639929987,4.76205992103221
0.09502014025590552,0.1713785689992698,4.758377943372179
0.09502139025590552,0.1677117164961484,4.765741898692228
0.09502264025590552,0.156711158986711,4.762059921032233
0.09502389025590552,0.1530443064835897,4.769423876352283
0.09502514025590553,0.1567111589867627,4.754695965712147
0.09502639025590552,0.1640448639929954,4.758377943372169
0.09502764025590552,0.1603780114898741,4.758377943372169
0.09502889025590552,0.1677117164961268,4.758377943372179
0.09503014025590552,0.1640448639930054,4.762059921032203
0.09503139025590553,0.1640448639930171,4.751013988052105
0.09503264025590552,0.1677117164961334,4.754695965712125
0.09503389025590551,0.1603780114898907,4.751013988052101
0.09503514025590552,0.1530443064836097,4.743650032732036
0.09503639025590552,0.1640448639929737,4.758377943372135
0.09503764025590553,0.1713785689992448,4.754695965712097
0.09503889025590552,0.1640448639930021,4.747332010392048
0.09504014025590551,0.1603780114898791,4.747332010392045
0.09504139025590552,0.1603780114898541,4.747332010392038
0.09504264025590552,0.1567111589867327,4.743650032732012
0.09504389025590552,0.1567111589867627,4.743650032732016
0.09504514025590552,0.1677117164961268,4.747332010392041
0.09504639025590553,0.1567111589866793,4.743650032732003
0.09504764025590552,0.1493774539804717,4.743650032731997
0.09504889025590552,0.1677117164960784,4.739968055071973
0.09505014025590552,0.1677117164961251,4.743650032731967
0.09505139025590552,0.1640448639930037,4.732604099751894
0.09505264025590553,0.1713785689992381,4.725240144431851
0.09505389025590552,0.1640448639929954,4.736286077411918
0.09505514025590552,0.1567111589867527,4.732604099751894
0.09505639025590552,0.1530443064835947,4.739968055071941
0.09505764025590552,0.156711158986716,4.732604099751892
0.09505889025590553,0.1530443064836347,4.732604099751862
0.09506014025590552,0.1640448639929987,4.728922122091837
0.09506139025590551,0.1640448639929987,4.721558166771788
0.09506264025590552,0.1677117164961368,4.72892212209183
0.09506389025590552,0.1677117164961368,4.725240144431806
0.09506514025590553,0.1640448639929837,4.728922122091792
0.09506639025590552,0.1603780114898624,4.717876189111719
0.09506764025590551,0.1530443064836214,4.725240144431759
0.09506889025590552,0.1677117164961167,4.725240144431801
0.09507014025590552,0.1530443064836313,4.728922122091825
0.09507139025590552,0.1603780114898607,4.725240144431782
0.09507264025590552,0.1603780114898607,4.721558166771758
0.09507389025590551,0.1567111589867427,4.725240144431775
0.09507514025590552,0.1567111589867427,4.71787618911171
0.09507639025590552,0.1787122740054708,4.714194211451685
0.09507764025590552,0.5270632618037329,4.710512233791681
0.09507889025590552,0.5527312293255822,4.728922122091803
0.09508014025590553,0.5013952942836776,4.743650032731892
0.09508139025590552,0.8974153646207913,4.721558166771745
0.09508264025590552,1.311769697473503,4.699466300811596
0.09508389025590552,3.93356923722086,4.839381451892888
0.09508514025590552,4.802613280460619,4.75469596571232
0.09508639025590553,4.809946985468821,4.769423876352276
0.09508764025590552,4.798946427959457,4.765741898692252
0.09508889025590551,4.813613837971943,4.765741898692252
0.09509014025590552,4.806280132965734,4.754695965712127
0.09509139025590552,4.806280132965734,4.754695965712127
0.09509264025590553,4.809946985468871,4.751013988052113
0.09509389025590552,4.809946985468871,4.758377943372162
0.09509514025590551,4.817280690475108,4.758377943372169
0.09509639025590552,4.813613837972009,4.758377943372174
0.09509764025590552,4.813613837972009,4.762059921032199
0.09509889025590552,4.813613837972032,4.76205992103221
0.09510014025590552,4.820947542978276,4.76205992103221
0.09510139025590553,4.806280132965854,4.758377943372169
0.09510264025590552,4.828281247984552,4.758377943372166
0.09510389025590552,4.817280690475187,4.75469596571214
0.09510514025590552,4.820947542978276,4.751013988052086
0.09510639025590552,4.817280690475155,4.751013988052086
0.09510764025590553,4.820947542978286,4.758377943372186
0.09510889025590552,4.820947542978286,4.76205992103221
0.09511014025590551,4.809946985468921,4.754695965712161
0.09511139025590552,4.813613837972001,4.758377943372152
0.09511264025590552,4.809946985468879,4.751013988052103
0.09511389025590553,4.809946985468886,4.762059921032165
0.09511514025590552,4.813613837972007,4.751013988052091
0.09511639025590551,4.80994698546889,4.754695965712108
0.09511764025590552,4.809946985468858,4.751013988052099
0.09511889025590552,4.802613280462616,4.758377943372149
0.09512014025590552,4.802613280462609,4.758377943372142
0.09512139025590552,4.80628013296573,4.751013988052093
0.09512264025590553,4.802613280462616,4.751013988052146
0.09512389025590552,4.806280132965727,4.762059921032201
0.09512514025590552,4.798946427959484,4.751013988052126
0.09512639025590552,4.798946427959434,4.758377943372146
0.09512764025590552,4.791612722953191,4.751013988052096
0.09512889025590553,4.802613280462632,4.762059921032118
0.09513014025590552,4.809946985468864,4.743650032732001
0.09513139025590552,4.795279575456379,4.739968055071976
0.09513264025590552,4.806280132965713,4.754695965712117
0.09513389025590552,4.79894642795947,4.751013988052093
0.09513514025590553,4.795279575456336,4.747332010392062
0.09513639025590552,4.798946427959457,4.751013988052086
0.09513764025590551,4.791612722953215,4.758377943372135
0.09513889025590552,4.787945870450057,4.758377943372162
0.09514014025590552,4.795279575456298,4.754695965712137
0.09514139025590553,4.787945870450043,4.758377943372154
0.09514264025590552,4.787945870450043,4.754695965712129
0.09514389025590551,4.787945870450043,4.743650032732058
0.09514514025590552,4.787945870450043,4.739968055071976
0.09514639025590552,4.787945870450043,4.75101398805205
0.09514764025590552,4.791612722953115,4.758377943372142
0.09514889025590552,4.773278460437508,4.751013988052093
0.09515014025590551,4.787945870449963,4.751013988052086
0.09515139025590552,4.776945312940639,4.751013988052086
0.09515264025590552,4.787945870450003,4.751013988052086
0.09515389025590552,4.780612165443788,4.754695965712107
0.09515514025590552,4.78794587045003,4.747332010392058
0.09515639025590553,4.78427901794685,4.747332010392045
0.09515764025590552,4.773278460437489,4.747332010392043
0.09515889025590551,4.769611607934368,4.743650032732018
0.09516014025590552,4.769611607934378,4.751013988052078
0.09516139025590552,4.780612165443743,4.747332010392053
0.09516264025590553,4.780612165443751,4.751013988052103
0.09516389025590552,4.776945312940629,4.754695965712127
0.09516514025590551,4.773278460437508,4.751013988052103
0.09516639025590552,4.776945312940622,4.751013988052099
0.09516764025590552,4.773278460437501,4.758377943372149
0.09516889025590552,4.773278460437531,4.747332010392045
0.09517014025590552,4.784279017946895,4.747332010392045
0.09517139025590551,4.762277902928197,4.747332010392045
0.09517264025590552,4.769611607934353,4.751013988052086
0.09517389025590552,4.769611607934353,4.751013988052086
0.09517514025590552,4.780612165443745,4.747332010392033
0.09517639025590552,4.773278460437501,4.743650032732008
0.09517764025590553,4.773278460437491,4.754695965712107
0.09517889025590552,4.773278460437488,4.751013988052082
0.09518014025590552,4.769611607934368,4.74733201039206
0.09518139025590552,4.769611607934403,4.754695965712117
0.09518264025590552,4.78794587045001,4.751013988052093
0.09518389025590553,4.762277902928111,4.747332010392062
0.09518514025590552,4.769611607934353,4.751013988052086
0.09518639025590551,4.776945312940596,4.751013988052086
0.09518764025590552,4.769611607934328,4.75469596571211
0.09518889025590552,4.758611050424964,4.747332010392062
0.09519014025590553,4.765944755431276,4.743650032732078
0.09519139025590552,4.780612165443761,4.762059921032202
0.09519264025590551,4.776945312940648,4.743650032732095
0.09519389025590552,4.769611607934338,4.74733201039205
0.09519514025590552,4.758611050424974,4.751013988052074
0.09519639025590552,4.769611607934313,4.751013988052113
0.09519764025590552,4.758611050424949,4.758377943372162
0.09519889025590553,4.769611607934332,4.751013988052065
0.09520014025590552,4.765944755431216,4.747332010392035
0.09520139025590552,4.765944755431216,4.73628607741196
0.09520264025590552,4.769611607934353,4.758377943372158
0.09520389025590552,4.769611607934353,4.754695965712132
0.09520514025590553,4.780612165443676,4.751013988052049
0.09520639025590552,4.762277902928081,4.743650032732006
0.09520764025590552,4.769611607934323,4.751013988052056
0.09520889025590552,4.776945312940596,4.751013988052103
0.09521014025590552,4.762277902928111,4.758377943372152
0.09521139025590553,4.762277902928077,4.751013988052069
0.09521264025590552,4.762277902928077,4.747332010392045
0.09521389025590551,4.773278460437441,4.743650032732019
0.09521514025590552,4.765944755431202,4.747332010392045
0.09521639025590552,4.758611050424959,4.747332010392045
0.09521764025590553,4.754944197921861,4.754695965712097
0.09521889025590552,4.769611607934346,4.747332010392048
0.09522014025590551,4.769611607934353,4.751013988052067
0.09522139025590552,4.776945312940614,4.743650032732008
0.09522264025590552,4.76594475543125,4.747332010392033
0.09522389025590552,4.769611607934318,4.74365003273205
0.09522514025590552,4.758611050424954,4.758377943372149
0.09522639025590551,4.765944755431172,4.751013988052129
0.09522764025590552,4.762277902928084,4.739968055071971
0.09522889025590552,4.769611607934326,4.751013988052046
0.09523014025590552,4.765944755431206,4.743650032732033
0.09523139025590552,4.762277902928084,4.754695965712107
0.09523264025590553,4.765944755431197,4.751013988052067
0.09523389025590552,4.762277902928079,4.747332010392048
0.09523514025590551,4.7659447554312,4.754695965712097
0.09523639025590552,4.769611607934336,4.743650032732011
0.09523764025590552,4.762277902928094,4.747332010392037
0.09523889025590553,4.769611607934293,4.74733201039206
0.09524014025590552,4.754944197921808,4.751013988052084
0.09524139025590551,4.76594475543116,4.747332010392063
0.09524264025590552,4.769611607934353,4.747332010392052
0.09524389025590552,4.769611607934353,4.751013988052076
0.09524514025590552,4.75127734541873,4.751013988052073
0.09524639025590552,4.769611607934336,4.747332010392048
0.09524764025590551,4.758611050424999,4.758377943372109
0.09524889025590552,4.769611607934343,4.751013988052086
0.09525014025590552,4.7622779029281,4.751013988052086
0.09525139025590552,4.758611050424962,4.747332010392045
0.09525264025590552,4.765944755431206,4.747332010392045
0.09525389025590553,4.762277902928114,4.751013988052105
0.09525514025590552,4.769611607934349,4.754695965712123
0.09525639025590552,4.762277902928107,4.747332010392075
0.09525764025590552,4.758611050424939,4.747332010392045
0.09525889025590552,4.758611050424939,4.747332010392045
0.09526014025590553,4.773278460437441,4.743650032732036
0.09526139025590552,4.762277902928077,4.751013988052086
0.09526264025590551,4.762277902928077,4.747332010392062
0.09526389025590552,4.758611050424964,4.751013988052111
0.09526514025590552,4.769611607934328,4.762059921032185
0.09526639025590553,4.758611050424939,4.747332010392045
0.09526764025590552,4.758611050424939,4.747332010392045
0.09526889025590551,4.758611050424939,4.747332010392045
0.09527014025590552,4.758611050424954,4.747332010392065
0.09527139025590552,4.769611607934318,4.762059921032163
0.09527264025590552,4.754944197921841,4.754695965712127
0.09527389025590552,4.765944755431206,4.754695965712127
0.09527514025590553,4.769611607934393,4.754695965712047
0.09527639025590552,4.776945312940616,4.739968055071971
0.09527764025590552,4.762277902928131,4.751013988052046
0.09527889025590552,4.754944197921835,4.743650032732014
0.09528014025590552,4.7659447554312,4.747332010392039
0.09528139025590553,4.765944755431216,4.747332010392081
0.09528264025590552,4.765944755431214,4.754695965712123
0.09528389025590552,4.762277902928092,4.747332010392075
0.09528514025590552,4.762277902928085,4.762059921032169
0.09528639025590552,4.765944755431208,4.743650032732044
0.09528764025590553,4.762277902928077,4.743650032732003
0.09528889025590552,4.762277902928077,4.743650032732003
0.09529014025590551,4.758611050424956,4.751013988052052
0.09529139025590552,4.758611050424952,4.747332010392045
0.09529264025590552,4.765944755431195,4.747332010392045
0.09529389025590553,4.773278460437476,4.754695965712112
0.09529514025590552,4.769611607934355,4.751013988052088
0.09529639025590553,4.762277902928077,4.747332010392022
0.09529764025590552,4.762277902928077,4.743650032732012
0.09529889025590552,4.762277902928077,4.751013988052063
0.09530014025590552,4.765944755431216,4.747332010392022
0.09530139025590552,4.765944755431216,4.739968055071971
0.09530264025590551,4.765944755431216,4.75469596571204
0.09530389025590552,4.758611050424932,4.747332010392038
0.09530514025590552,4.75127734541869,4.739968055071988
