Lab8/inlab/2bits/1kHz/InputOutputPart1.csv

#Digilent WaveForms Oscilloscope Acquisition
#Device Name: Discovery2
#Serial Number: SN:210321B2E135
#Date Time: 2023-11-01 14:48:19.620
#Sample rate: 800000Hz
#Samples: 8192
#Trigger: Source: Channel 2 Type: Edge Condition: Rising Level: 1.83125 V Hyst.: Auto HoldOff: 100 ns
#Channel 1: Range: 2 V/div Offset: 0 V Attenuation: 1 X
#Channel 2: Range: 2 V/div Offset: 0 V Attenuation: 1 X
#Wavegen Channel 1: Enabled
#Mode: Simple
#Type: Sine
#Frequency: 1 kHz
#Period: 1 ms
#Amplitude: 2.5 V
#Offset: 2.5 V
#Symmetry: 50 %
#Phase: 0 °
#Wavegen Channel 2: Enabled
#Mode: Simple
#Type: DC
#Offset: 5 V

Time (s),Channel 1 (V),Channel 2 (V)
0.09488050000000001,0.1310431914647565,0.3547326619626203
0.09488175,0.1310431914647565,0.3805065055827932
0.09488300000000001,0.1310431914647565,0.3805065055829321
0.09488425,0.1310431914647565,0.3952344162230308
0.09488550000000001,0.1310431914647399,0.4025983715432812
0.09488675000000001,0.1273763389616185,0.4320541928234788
0.094888,0.1310431914647399,0.4320541928234788
0.09488925000000001,0.1347100439678746,0.4431001258036164
0.0948905,0.1237094864585105,0.4504640811236659
0.09489175000000001,0.1420437489741439,0.4615100141038371
0.09489300000000001,0.1347100439679012,0.4688739694238864
0.09489425000000001,0.1347100439679162,0.483601880064146
0.09489550000000001,0.1383768964710226,0.4983297907042347
0.09489675,0.1310431914647799,0.5056937460242841
0.09489800000000001,0.1273763389616536,0.5241036343245264
0.09489925,0.1383768964710176,0.5277856119845511
0.0949005,0.1347100439679162,0.5461955002846546
0.09490175000000001,0.1273763389616319,0.5535594556048529
0.094903,0.1420437489741173,0.5609234109249023
0.09490425000000001,0.1420437489741506,0.5830152768852279
0.0949055,0.1347100439679079,0.6014251651853514
0.09490675000000001,0.1273763389616185,0.6014251651854351
0.09490800000000001,0.1273763389616185,0.6124710981655093
0.09490925,0.1273763389616185,0.6308809864656327
0.09491050000000001,0.1237094864585138,0.6492908747659571
0.09491175,0.1383768964709992,0.6640187854060559
0.09491300000000001,0.1347100439678345,0.6713827407262325
0.09491425000000001,0.1200426339553492,0.6861106513663313
0.0949155,0.1273763389615818,0.697156584346407
0.09491675000000001,0.1347100439678946,0.7118844949866683
0.094918,0.1347100439678946,0.7339763609468164
0.09491925000000001,0.1347100439678679,0.7413403162670132
0.0949205,0.1273763389616252,0.7560682269071118
0.09492175,0.1200426339553825,0.7744781152072321
0.09492300000000001,0.1347100439679012,0.7818420705274322
0.09492425,0.1420437489741439,0.8002519588275556
0.09492550000000001,0.1273763389616419,0.8076159141477758
0.09492675,0.1347100439678846,0.829707780107924
0.09492800000000001,0.1237094864584805,0.8481176684081981
0.09492925000000001,0.1237094864584888,0.8554816237282509
0.0949305,0.1420437489740956,0.8702095343683496
0.09493175000000001,0.1310431914647766,0.8849374450086057
0.094933,0.1383768964710192,0.8959833779886799
0.09493425000000001,0.1383768964709992,0.9180752439490323
0.09493550000000001,0.1310431914647565,0.9364851322491559
0.09493675,0.1347100439678779,0.9475310652292299
0.09493800000000001,0.1347100439678879,0.965940953529514
0.09493925,0.1310431914647665,0.9806688641696129
0.09494050000000001,0.1200426339554175,0.9990787524699356
0.09494175000000001,0.1383768964710242,1.017488640770059
0.094943,0.1273763389616736,1.024852596090113
0.09494425000000001,0.1310431914647515,1.043262484390377
0.0949455,0.1273763389616302,1.057990395030477
0.09494675000000001,0.1273763389616652,1.072718305670759
0.094948,0.1420437489741506,1.094810171630908
0.09494925000000001,0.1310431914647766,1.105856104611183
0.09495050000000001,0.1347100439678879,1.127947970571321
0.09495175,0.1273763389616452,1.138993903551395
0.09495300000000001,0.1310431914647565,1.153721814191651
0.09495425,0.1310431914647565,1.172131702491774
0.09495550000000001,0.1310431914647382,1.194223568452149
0.09495675000000001,0.1273763389628208,1.212633456752267
0.094958,2.771176993713311,1.219997412072316
0.09495925000000001,4.725609377896705,1.238407300372612
0.0949605,4.729276230399827,1.264181143992785
0.09496175000000001,4.729276230399865,1.271545099313047
0.09496300000000001,4.736609935406108,1.301000920593245
0.09496425,4.729276230399871,1.312046853573327
0.09496550000000001,4.732943082902973,1.337820697193673
0.09496675,4.732943082902973,1.337820697193673
0.09496800000000001,4.732943082903013,1.363594540814003
0.09496925000000001,4.743943640412377,1.374640473794077
0.09497050000000001,4.743943640412366,1.396732339754423
0.09497175000000001,4.740276787909254,1.411460250394536
0.094973,4.743943640412375,1.437234094014709
0.09497425000000001,4.75127734541864,1.459325959975075
0.0949755,4.743943640412397,1.470371892955149
0.09497675000000001,4.736609935406203,1.481417825935399
0.09497800000000001,4.754944197921795,1.503509691895544
0.09497925,4.743943640412432,1.518237602535643
0.09498050000000001,4.740276787909249,1.544011446156023
0.09498175,4.740276787909249,1.555057379136098
0.09498300000000001,4.747610492915525,1.577149245096466
0.09498425000000001,4.747610492915525,1.599241111056615
0.0949855,4.736609935406161,1.610287044036689
0.09498675000000001,4.73294308290299,1.639742865317087
0.094988,4.740276787909232,1.647106820637137
0.09498925000000001,4.736609935406111,1.665516708937436
0.09499050000000001,4.736609935406111,1.683926597237559
0.09499175,4.74027678790923,1.713382418517752
0.09499300000000001,4.740276787909234,1.724428351498039
0.09499425,4.729276230399869,1.735474284478113
0.09499550000000001,4.736609935406111,1.761248128098532
0.09499675,4.736609935406111,1.787021971718705
0.094998,4.736609935406111,1.794385927038771
0.09499925000000001,4.732943082902966,1.820159770659118
0.0950005,4.725609377896723,1.838569658959241
0.09500175000000001,4.73294308290295,1.856979547259586
0.095003,4.725609377896706,1.879071413219734
0.09500425000000001,4.718275672890457,1.897481301520063
0.09500550000000001,4.725609377896697,1.915891189820187
0.09500675,4.725609377896697,1.93430107812031
0.09500800000000001,4.721942525393559,1.94902898876061
0.09500925,4.721942525393559,1.974802832380783
0.09501050000000001,4.729276230399801,1.996894698341157
0.09501175000000001,4.721942525393559,2.011622608981256
0.095013,4.718275672890438,2.026350519621355
0.09501425000000001,4.714608820387296,2.044760407921649
0.0950155,4.721942525393539,2.055806340901723
0.09501675000000001,4.714608820387328,2.085262162182145
0.09501800000000001,4.725609377896691,2.099990072822244
0.09501925,4.718275672890457,2.122081938782389
0.09502050000000001,4.714608820387277,2.147855782402815
0.09502175,4.710941967884156,2.166265670702938
0.09502300000000001,4.71460882038726,2.18835753666328
0.09502425,4.707275115381017,2.199403469643354
0.09502550000000001,4.707275115381007,2.217813357943737
0.09502675000000001,4.707275115381014,2.247269179223925
0.095028,4.714608820387256,2.265679067524048
0.09502925000000001,4.710941967884144,2.280406978164342
0.0950305,4.710941967884144,2.30249884412449
0.09503175000000001,4.707275115380971,2.313544777104783
0.09503300000000001,4.699941410374731,2.339318620724951
0.09503425,4.699941410374731,2.35404653136505
0.09503550000000001,4.732943082902956,2.372456419665401
0.09503675,4.725609377896713,2.409276196265647
0.09503800000000001,4.725609377896712,2.420322129245931
0.09503925000000001,4.729276230399833,2.438732017546054
0.0950405,4.732943082902954,2.457141905846178
0.09504175000000001,4.725609377896697,2.48291574946658
0.095043,4.725609377896697,2.493961682446654
0.09504425000000001,4.732943082902946,2.512371570746999
0.0950455,4.725609377896704,2.541827392027197
0.09504675000000001,4.732943082902908,2.560237280327518
0.09504800000000001,4.721942525393559,2.574965190967621
0.09504925,4.721942525393559,2.593375079267745
0.09505050000000001,4.725609377896673,2.615466945228122
0.09505175,4.718275672890431,2.637558811188271
0.09505300000000001,4.718275672890457,2.6559686994886
0.09505425000000001,4.725609377896697,2.674378587788728
0.0950555,4.725609377896697,2.703834409068926
0.09505675000000001,4.725609377896727,2.714880342049211
0.095058,4.736609935406091,2.72960825268931
0.09505925000000001,4.721942525393559,2.748018140989678
0.09506050000000001,4.721942525393559,2.777473962269875
0.09506175,4.729276230399801,2.784837917589925
0.09506300000000001,4.721942525393539,2.825339671850407
0.09506425,4.710941967884175,2.821657694190383
0.09506550000000001,4.714608820387283,2.843749560150727
0.09506675000000001,4.714608820387283,2.8695234037709
0.095068,4.721942525393523,2.895297247391073
0.09506925000000001,4.732943082902963,2.910025158031397
0.0950705,4.72560937789672,2.932117023991546
0.09507175000000001,4.718275672890408,2.946844934631888
0.095073,4.714608820387286,2.976300755912086
0.09507425,4.721942525393519,2.987346688892177
0.09507550000000001,4.721942525393559,2.998392621872385
0.09507675,4.721942525393559,3.024166465492558
0.09507800000000001,4.710941967884154,3.038894376132887
0.09507925,4.714608820387276,3.06466821975306
0.09508050000000001,4.714608820387356,3.072032175073338
0.09508175000000001,4.729276230399833,3.101487996353534
0.095083,4.725609377896712,3.127261839973706
0.09508425000000001,4.714608820387291,3.145671728274052
0.0950855,4.718275672890413,3.160399638914152
0.09508675000000001,4.718275672890438,3.171445571894426
0.09508800000000001,4.721942525393559,3.197219415514599
0.09508925,4.721942525393559,3.215629303814723
0.09509050000000001,4.714608820387283,3.245085125095171
0.09509175,4.714608820387283,3.263495013395295
0.09509300000000001,4.72560937789667,3.267176991055454
0.09509425000000001,4.718275672890428,3.285586879355577
0.0950955,4.718275672890421,3.307678745315722
0.09509675000000001,4.721942525393549,3.329770611276116
0.095098,4.714608820387306,3.34818049957624
0.09509925000000001,4.714608820387306,3.366590387876541
0.0951005,4.721942525393549,3.377636320856614
0.09510175000000001,4.718275672890421,3.399728186816939
0.09510300000000001,4.718275672890417,3.410774119797036
0.09510425,4.714608820387296,3.447593896397283
0.09510550000000001,4.721942525393559,3.45495785171756
0.09510675,4.721942525393559,3.477049717677708
0.09510800000000001,4.721942525393542,3.491777628317998
0.09510925000000001,4.718275672890421,3.510187516618121
0.0951105,4.718275672890421,3.521233449598196
0.09511175000000001,4.714608820387275,3.543325315558528
0.095113,4.710941967884152,3.558053226198627
0.09511425000000001,4.725609377896681,3.580145092158984
0.09511550000000001,4.721942525393561,3.598554980459108
0.09511675,4.71827567289044,3.620646846419254
0.09511800000000001,4.718275672890434,3.635374757059544
0.09511925,4.725609377896676,3.642738712379594
0.09512050000000001,4.73294308290308,3.679558488980041
0.09512175,4.762277902928051,3.683240466640066
0.09512300000000001,4.769611607934332,3.709014310260399
0.09512425000000001,4.765944755431225,3.716378265580456
0.0951255,4.776945312940589,3.731106176220554
0.09512675000000001,4.765944755431216,3.753198042180915
0.095128,4.765944755431216,3.771607930481038
0.09512925000000001,4.762277902928096,3.78265386346128
0.09513050000000001,4.765944755431221,3.801063751761407
0.09513175,4.776945312940584,3.826837595381579
0.09513300000000001,4.758611050424959,3.83788352836186
0.09513425,4.765944755431202,3.856293416661984
0.09513550000000001,4.77694531294058,3.874703304962257
0.09513675000000001,4.765944755431216,3.882067260282307
0.095138,4.758611050424973,3.90047714858243
0.09513925000000001,4.762277902928077,3.918887036882761
0.0951405,4.762277902928077,3.94097890284291
0.09514175000000001,4.7659447554312,3.955706813483181
0.09514300000000001,4.762277902928079,3.966752746463255
0.09514425,4.765944755431197,3.981480657103352
0.09514550000000001,4.762277902928077,3.999890545403648
0.09514675,4.762277902928077,4.010936478383721
0.09514800000000001,4.758611050424992,4.029346366684043
0.09514925,4.773278460437478,4.051438232644192
0.0951505,4.765944755431256,4.06984812094432
0.09515175000000001,4.769611607934349,4.066166143284399
0.095153,4.765944755431229,4.088258009244547
0.09515425000000001,4.758611050424949,4.102985919884843
0.0951555,4.76227790292807,4.121395808184966
0.09515675000000001,4.762277902928187,4.132441741165198
0.09515800000000001,4.784279017946897,4.147169651805301
0.09515925,4.76594475543129,4.172943495425474
0.09516050000000001,4.769611607934336,4.191353383725787
0.09516175,4.762277902928094,4.191353383725787
0.09516300000000001,4.765944755431182,4.202399316705995
0.09516425000000001,4.758611050424939,4.220809205006119
0.0951655,4.76227790292806,4.242901070966267
0.09516675000000001,4.765944755431216,4.261310959266567
0.095168,4.765944755431216,4.257628981606543
0.09516925000000001,4.758611050424979,4.272356892246752
0.09517050000000001,4.769611607934343,4.287084802886851
0.09517175,4.765944755431236,4.309176668846993
0.09517300000000001,4.758611050424949,4.323904579487289
0.09517425,4.765944755431192,4.331268534807339
0.09517550000000001,4.754944197921824,4.349678423107605
0.09517675,4.762277902928068,4.360724356087679
0.09517800000000001,4.758611050424919,4.37545226672788
0.09517925000000001,4.754944197921811,4.379134244387914
0.0951805,4.76594475543117,4.393862155028006
0.09518175000000001,4.762277902928098,4.408590065668262
0.095183,4.76961160793434,4.419635998648336
0.09518425000000001,4.762277902928077,4.430681931628564
0.09518550000000001,4.762277902928077,4.449091819928688
0.09518675,4.754944197921835,4.452773797588712
0.09518800000000001,4.762277902928085,4.489593574189144
0.09518925,4.765944755431208,4.489593574189144
0.09519050000000001,4.762277902928092,4.504321484829294
0.09519175000000001,4.765944755431214,4.50063950716927
0.095193,4.754944197921856,4.511685440149337
0.09519425000000001,4.754944197921821,4.530095328449614
0.0951955,4.769611607934306,4.541141261429688
0.09519675000000001,4.762277902928091,4.54850521674986
0.095198,4.765944755431212,4.563233127389959
0.09519925000000001,4.773278460437391,4.577961038030239
0.09520050000000001,4.754944197921808,4.596370926330349
0.09520175,4.762277902928051,4.600052903990374
0.09520300000000001,4.762277902928054,4.614780814630576
0.09520425,4.754944197921811,4.622144769950626
0.09520550000000001,4.762277902928114,4.625826747610751
0.09520675000000001,4.769611607934351,4.640554658250843
0.095208,4.765944755431231,4.640554658250843
0.09520925000000001,4.762277902928085,4.662646524211091
0.0952105,4.765944755431208,4.662646524211091
0.09521175000000001,4.758611050424973,4.681056412511349
0.09521300000000001,4.765944755431216,4.692102345491423
0.09521425,4.765944755431216,4.699466300811472
0.09521550000000001,4.758611050424946,4.699466300811539
0.09521675,4.762277902928068,4.717876189111663
0.09521800000000001,4.769611607934323,4.728922122091882
0.09521925000000001,4.762277902928081,4.739968055071956
0.0952205,4.765944755431197,4.736286077411939
0.09522175000000001,4.765944755431206,4.739968055071982
0.095223,4.758611050424962,4.75469596571208
0.09522425000000001,4.765944755431204,4.773105854012346
0.0952255,4.762277902928083,4.776787831672371
0.09522675,4.769611607934309,4.776787831672376
0.09522800000000001,4.765944755431216,4.791515742312545
0.09522925,4.765944755431216,4.795197719972569
0.09523050000000001,4.765944755431195,4.8136076082728
0.09523175,4.758611050424952,4.817289585932825
0.09523300000000001,4.762277902928151,4.824653541252934
0.09523425000000001,4.776945312940626,4.828335518912958
0.0952355,4.769611607934383,4.832017496572982
0.09523675000000001,4.75127734541868,4.835699474233047
0.095238,4.758611050424922,4.839381451893073
0.09523925000000001,4.769611607934398,4.854109362533277
0.09524050000000001,4.780612165443762,4.861473317853325
0.09524175,4.758611050425049,4.865155295513352
0.09524300000000001,4.758611050424946,4.87251925083346
0.09524425,4.762277902928068,4.876201228493485
0.09524550000000001,4.758611050424966,4.890929139133674
0.09524675000000001,4.765944755431208,4.894611116793699
0.095248,4.758611050424979,4.894611116793702
0.09524925000000001,4.765944755431216,4.90197507211379
0.0952505,4.765944755431216,4.905657049773815
0.09525175000000001,4.758611050424916,4.909339027433856
0.095253,4.751277345418673,4.905657049773832
0.09525425000000001,4.765944755431234,4.924066938074015
0.09525550000000001,4.769611607934349,4.920384960413994
0.09525675,4.762277902928107,4.924066938074018
0.09525800000000001,4.762277902928087,4.938794848714219
0.09525925,4.765944755431208,4.946158804034269
0.09526050000000001,4.765944755431232,4.949840781694307
0.09526175000000001,4.769611607934353,4.946158804034282
0.095263,4.762277902928111,4.949840781694307
0.09526425000000001,4.751277345418688,4.957204737014407
0.0952655,4.762277902928052,4.957204737014407
0.09526675000000001,4.7659447554312,4.964568692334489
0.09526800000000001,4.762277902928079,4.964568692334489
0.09526925,4.754944197921837,4.960886714674467
0.09527050000000001,4.758611050424949,4.971932647654567
0.09527175,4.765944755431192,4.968250669994542
0.09527300000000001,4.769611607934353,4.975614625314627
0.09527425,4.769611607934353,4.979296602974651
0.09527550000000001,4.758611050424939,4.979296602974715
0.09527675000000001,4.758611050424935,4.99034253595477
0.095278,4.754944197921814,4.979296602974695
0.09527925000000001,4.758611050424951,4.979296602974666
0.0952805,4.762277902928072,4.982978580634692
0.09528175000000001,4.773278460437345,4.990342535954761
0.09528300000000001,4.743943640412397,4.986660558294738
0.09528425,4.765944755431126,4.986660558294738
0.09528550000000001,4.762277902928085,4.990342535954787
0.09528675,4.765944755431208,4.994024513614812
0.09528800000000001,4.765944755431166,4.997706491274846
0.09528925000000001,4.754944197921801,4.99402451361482
0.0952905,4.758611050424922,4.990342535954796
0.09529175000000001,4.762277902928091,5.001388468934897
0.095293,4.769611607934332,4.997706491274872
0.09529425000000001,4.765944755431231,4.986660558294783
0.09529550000000001,4.769611607934351,4.997706491274857
0.09529675000000001,4.754944197921844,4.990342535954823
0.09529800000000001,4.762277902928077,4.997706491274847
0.09529925,4.762277902928077,4.986660558294774
0.09530050000000001,4.762277902928089,4.990342535954779
0.09530175,4.76594475543121,4.990342535954779
0.095303,4.754944197921866,4.994024513614798
0.09530425000000001,4.754944197921804,4.990342535954779
0.0953055,4.758611050424926,4.990342535954779
0.09530675000000001,4.769611607934353,4.982978580634707
0.095308,4.769611607934353,4.986660558294731
0.09530925000000001,4.754944197921851,4.979296602974621
0.09531050000000001,4.765944755431216,4.971932647654572
0.09531175,4.754944197921851,4.968250669994547
0.09531300000000001,4.765944755431216,4.97929660297463
0.09531425,4.765944755431216,4.968250669994555
0.09531550000000001,4.769611607934308,4.96825066999453
0.09531675000000001,4.758611050424944,4.96825066999453
0.095318,4.762277902928059,4.960886714674484
0.09531925000000001,4.758611050424946,4.968250669994523
0.0953205,4.762277902928068,4.964568692334499
0.09532175000000001,4.758611050424952,4.953522759354325
0.095323,4.762277902928074,4.942476826374251
0.09532425,4.758611050424959,4.946158804034262
0.09532550000000001,4.762277902928091,4.946158804034279
0.09532675,4.776945312940576,4.942476826374254
0.09532800000000001,4.758611050424939,4.942476826374171
0.09532925,4.758611050424939,4.920384960414022
0.09533050000000001,4.762277902928077,4.91670298275397
0.09533175000000001,4.762277902928079,4.92038496041399
0.095333,4.7659447554312,4.916702982753966
0.09533425000000001,4.758611050424949,4.909339027433868
0.0953355,4.76227790292807,4.909339027433868
0.09533675000000001,4.76227790292806,4.905657049773793
0.09533800000000001,4.758611050424939,4.898293094453743
0.09533925,4.769611607934303,4.894611116793719
0.09534050000000001,4.765944755431216,4.879883206153544
0.09534175,4.765944755431216,4.883565183813568
0.09534300000000001,4.754944197921786,4.872519250833408
0.09534425000000001,4.751277345418665,4.861473317853334
