Lab7/inlab/differential/sine/differential1k.csv

#Digilent WaveForms Oscilloscope Acquisition
#Device Name: Discovery2
#Serial Number: SN:210321B0E782
#Date Time: 2023-10-25 14:39:53.209
#Sample rate: 1.5873e+06Hz
#Samples: 8192
#Trigger: Source: Channel 1 Type: Edge Condition: Rising Level: -2.41 mV Hyst.: Auto HoldOff: 100 ns
#Channel 1: Range: 500 mV/div Offset: 1 V Attenuation: 1 X
#Channel 2: Range: 500 mV/div Offset: -200 mV Attenuation: 1 X
#Wavegen Channel 1: Enabled
#Mode: Simple
#Type: Sine
#Frequency: 1 kHz
#Period: 1 ms
#Amplitude: 1 V
#Offset: 0 V
#Symmetry: 50 %
#Phase: 0 °

Time (s),Channel 1 (V),Channel 2 (V)
-0.0025803,0.4810517046888432,0.08848900144460167
-0.00257967,0.47807842108549,0.07195447322137738
-0.00257904,0.4741140429476829,0.04153094129062335
-0.00257841,0.4688282054306066,0.0273112470186479
-0.00257778,0.4655245569824367,0.03590920169472453
-0.00257715,0.4615601788446306,0.0511209676600978
-0.002576520000000001,0.4579261655516434,0.06600204306099963
-0.00257589,0.4559439764827389,0.07360792604369304
-0.00257526,0.4516492335001159,0.0613723751585015
-0.00257463,0.4493366795863966,0.04880613370885106
-0.002574,0.448015220207127,0.02863400927650253
-0.00257337,0.4397560990866971,0.03094884322776972
-0.00257274,0.4377739100177951,0.06335651854528931
-0.00257211,0.4364524506385263,0.07559206943048086
-0.00257148,0.4331488021903515,0.07096240152797084
-0.00257085,0.4262111404491944,0.05971892233617832
-0.00257022,0.4229074920010227,0.05872685064278443
-0.002569590000000001,0.4199342083976696,0.05508925443367509
-0.00256896,0.4159698302598622,0.05608132612706734
-0.00256833,0.4126661818116895,0.05905754120724727
-0.0025677,0.4096928982083363,0.05508925443367343
-0.00256707,0.4057285200705303,0.04847544314438071
-0.00256644,0.4027552364671739,0.04913682427331059
-0.00256581,0.3984604934845528,0.05045958653116853
-0.00256518,0.3938353856571124,0.06203375628743077
-0.002564550000000001,0.3911924668985763,0.05905754120725042
-0.00256392,0.3875584536055865,0.05310511104688562
-0.00256329,0.3849155348470471,0.04847544314438026
-0.00256266,0.3802904270196088,0.0474833714509868
-0.00256203,0.3756653191921686,0.05409718274027953
-0.0025614,0.3730224004336296,0.07129309209244195
-0.00256077,0.3690580222958253,0.07426930717262231
-0.00256014,0.3657543738476536,0.06467928080314786
-0.002559510000000001,0.3624507253994837,0.05112096766010396
-0.00255888,0.358155982416859,0.03822403564597698
-0.00255825,0.3545219691238704,0.0474833714509868
-0.00255762,0.3502272261412471,0.0650099713676125
-0.00255699,0.3469235776930755,0.07625345055941013
-0.00255636,0.3436199292449023,0.07063171096350124
-0.00255573,0.3403162807967324,0.04847544314438071
-0.0025551,0.335691172969292,0.03921610733937089
-0.002554470000000001,0.3317267948314879,0.04450715637080267
-0.00255384,0.3290838760729489,0.05079027709563316
-0.00255321,0.3251194979351428,0.06236444685189541
-0.00255258,0.3228069440214227,0.06997032983458204
-0.00255195,0.3188425658836167,0.06666342418993568
-0.00255132,0.3152085525906261,0.05905754120724351
-0.00255069,0.3109138096080049,0.04682199032205753
-0.00255006,0.3066190666253819,0.05178234878902707
-0.002549430000000001,0.3019939587979436,0.0666634241899289
-0.0025488,0.299020675194587,0.07823759394619795
-0.00254817,0.294725932211964,0.06401789967421859
-0.00254754,0.2904311892293429,0.05839616007832235
-0.00254691,0.2867971759363521,0.0511209676600978
-0.00254628,0.2834935274881785,0.04318439411294984
-0.00254565,0.2791987845055575,0.05045958653116853
-0.00254502,0.276225500902203,0.06269513741636004
-0.002544390000000001,0.2749040415229348,0.05806546951385726
-0.00254376,0.2699485688506769,0.05343580161135025
-0.00254313,0.2659841907128708,0.05641201669153198
-0.0025425,0.2620198125750668,0.05707339782046095
-0.00254187,0.2583857992820762,0.06302582798082468
-0.00254124,0.2530999617650004,0.0696396392701174
-0.00254061,0.2504570430064643,0.0696396392701174
-0.00253998,0.2468230297134755,0.05641201669153198
-0.002539350000000001,0.2428586515756715,0.04814475257991983
-0.00253872,0.2365817195241435,0.05707339782046125
-0.00253809,0.2336084359207891,0.07625345055941013
-0.00253746,0.2299744226278019,0.07757621281726808
-0.00253683,0.2263404093348116,0.07096240152797595
-0.0025362,0.223036760886638,0.04252301298401139
-0.00253557,0.2187420179040167,0.02962608096989644
-0.00253494,0.2167598288351138,0.03359436774347208
-0.00253431,0.2101525319387685,0.05541994499815236
-0.00253368,0.2058577889561475,0.08683554862227849
-0.00253305,0.2035452350424274,0.09444143160496513
-0.002532420000000001,0.2018934108183422,0.06467928080316139
-0.00253179,0.1972683029909013,0.02598848476078544
-0.00253116,0.1919824654738247,0.02036674516490136
-0.00253053,0.1876877224912035,0.05277442048242098
-0.0025299,0.184384074043032,0.09311866934710658
-0.00252927,0.1804196959052245,0.1040314579744299
-0.00252864,0.1771160474570543,0.08286726184870286
-0.00252801,0.1724909396296141,0.04913682427330998
-0.002527380000000001,0.168856926336627,0.01871329234257728
-0.00252675,0.1658836427332708,0.02135881685828053
-0.00252612,0.1599370755265619,0.05674270725599662
-0.00252549,0.1563030622335733,0.08948107313799558
-0.00252486,0.1529994137854016,0.09807902781407613
-0.00252423,0.1500261301820449,0.08385933354208489
-0.0025236,0.1450706575097898,0.05773477894939053
-0.00252297,0.1417670090616181,0.03888541677490626
-0.002522340000000001,0.1378026309238139,0.03161022435668757
-0.00252171,0.1331775230963719,0.04847544314438071
-0.00252108,0.1302042394930174,0.06930894870565277
-0.00252045,0.1269005910448457,0.07922966563959186
-0.00251982,0.1226058480622227,0.06567135249654177
-0.00251919,0.1179807402347807,0.05178234878902511
-0.00251856,0.1143467269417937,0.0474833714509868
-0.00251793,0.1093912542695363,0.05641201669153198
-0.002517300000000001,0.1060876058213662,0.07360792604368521
-0.00251667,0.1017928628387414,0.0769148316883394
-0.00251604,0.09848921439056979,0.0660020430610064
-0.00251541,0.09221228233904674,0.06368720910975501
-0.00251478,0.0895693635805066,0.0613723751585015
-0.00251415,0.0872568096667841,0.0474833714509871
-0.00251352,0.08197097214971172,0.04814475257991607
-0.00251289,0.07899768854635725,0.05674270725599662
-0.002512260000000001,0.07503331040855324,0.06236444685189285
-0.00251163,0.07172966196037978,0.0696396392701174
-0.002511,0.06908674320184249,0.06567135249654177
-0.00251037,0.06347054083995329,0.06699411475439972
-0.00250974,0.05884543301251055,0.06236444685189541
-0.00250911,0.05388996034025235,0.06467928080314185
-0.00250848,0.05256850096098442,0.05145165822456244
-0.00250785,0.04827375797836142,0.04285370354848189
-0.002507220000000001,0.04298792046128903,0.05112096766009404
-0.00250659,0.03737171809939488,0.07559206943048086
-0.00250596,0.03439843449604041,0.09444143160496513
-0.00250533,0.03076442120305344,0.08220588071977915
-0.0025047,0.02713040791006294,0.05376649217581489
-0.00250407,0.02481785399634074,0.02532710363185692
-0.00250344,0.02019274616890265,0.02698055645417935
-0.00250281,0.01424617896219371,0.06004961290064295
-0.00250218,0.0109425305140207,0.09477212216943232
-0.00250155,0.007969246910667582,0.1003938617653286
-0.00250092,0.006317422686581864,0.06831687701225886
-0.00250029,0.0007012203246926649,0.03227160548562992
-0.00249966,-0.002272063278664471,0.01309155274666463
-0.00249903,-0.007227535950924553,0.03359436774349057
-0.0024984,-0.01317410315763079,0.07426930717262231
-0.00249777,-0.01713848129543671,0.1205659861976714
-0.00249714,-0.01779921098507319,0.1106452692637081
-0.00249651,-0.02242431881251128,0.05740408838492589
-0.00249588,-0.02804052117440303,0.01705983952024026
-0.002495250000000001,-0.03200489931220715,0.01342224331113092
-0.00249462,-0.03596927745001488,0.04417646580634044
-0.00249399,-0.03993365558782257,0.07592275999495753
-0.00249336,-0.04356766888080965,0.1023780051521164
-0.00249273,-0.04753204701861558,0.1017166240231871
-0.0024921,-0.05083569546678874,0.07493068830153218
-0.00249147,-0.05413934391495878,0.03227160548561353
-0.00249084,-0.05942518143203346,0.01276086218219999
-0.002490210000000001,-0.06305919472502054,0.03491713000132055
-0.00248958,-0.06735393770764531,0.06798618644779422
-0.00248895,-0.07098795100063404,0.1040314579744396
-0.00248832,-0.07363086975917132,0.09609488442728831
-0.00248769,-0.07792561274179444,0.06765549588332959
-0.00248706,-0.08288108541405448,0.03557851113025749
-0.00248643,-0.08849728777594368,0.03028746209882571
-0.0024858,-0.0924616659137496,0.04682199032205753
-0.002485170000000001,-0.09477421982746864,0.07426930717260982
-0.00248454,-0.09642604405155553,0.07922966563959186
-0.00248391,-0.1020422464134473,0.06401789967421859
-0.00248328,-0.1046851651719846,0.05178234878902707
-0.00248265,-0.1089799081546077,0.05277442048242098
-0.00248202,-0.1142657456716842,0.06071099402958034
-0.00248139,-0.1185604886543054,0.07856828451066258
-0.00248076,-0.1208730425680254,0.07856828451066258
-0.002480130000000001,-0.1258285152402807,0.06864756757672801
-0.0024795,-0.128141069154003,0.05045958653116853
-0.00247887,-0.1327661769814433,0.03359436774347208
-0.00247824,-0.1387127441881496,0.0425230129840132
-0.00247761,-0.1433378520155925,0.07195447322136986
-0.00247698,-0.1466415004637655,0.09444143160496211
-0.00247635,-0.1496147840671186,0.0878276203156724
-0.00247572,-0.1558917161186446,0.06269513741636004
-0.002475090000000001,-0.1578739051875467,0.04417646580634886
-0.00247446,-0.1615079184805364,0.03789334508151235
-0.00247383,-0.1661330263079767,0.03987748846830017
-0.0024732,-0.1697670396009637,0.04913682427330577
-0.00247257,-0.1724099583595027,0.06269513741636004
-0.00247194,-0.1743921474284079,0.06732480531886946
-0.00247131,-0.1793476201006631,0.07724552225280404
-0.00247068,-0.1843030927729206,0.07360792604369304
-0.002470050000000001,-0.1892585654451757,0.06930894870565472
-0.00246942,-0.191240754514081,0.05938823177171368
-0.00246879,-0.1965265920311555,0.0474833714509868
-0.00246816,-0.2008213350137767,0.04781406201545128
-0.00246753,-0.2028035240826817,0.04450715637080507
-0.0024669,-0.2077589967549411,0.05872685064279345
-0.00246627,-0.2123841045823793,0.07856828451066258
-0.00246564,-0.2153573881857338,0.0878276203156724
-0.00246501,-0.2193217663235417,0.06633273362546563
-0.00246438,-0.2236165093061628,0.05442787330474416
-0.00246375,-0.2255986983750657,0.04285370354848189
-0.002463120000000001,-0.2302238062025039,0.04252301298401741
-0.00246249,-0.2355096437195806,0.04880613370884535
-0.00246186,-0.2381525624781191,0.05839616007832416
-0.00246123,-0.2407954812366552,0.06798618644779422
-0.0024606,-0.2457509539089127,0.07360792604369304
-0.00245997,-0.2500456968915368,0.08055242789744334
-0.00245934,-0.2523582508052559,0.0650099713676125
-0.00245871,-0.2579744531671476,0.04781406201545144
-0.002458080000000001,-0.2622691961497688,0.04417646580634209
-0.00245745,-0.2652424797531252,0.05178234878902707
-0.00245682,-0.2685461282012968,0.05541994499813807
-0.00245619,-0.2728408711839199,0.06335651854528931
-0.00245556,-0.2764748844769087,0.06765549588332959
-0.00245493,-0.2817607219939845,0.06963963927011199
-0.0024543,-0.2844036407525206,0.05773477894939053
-0.00245367,-0.2880376540455093,0.05277442048242098
-0.002453040000000001,-0.2913413024936795,0.03723196395259014
-0.00245241,-0.2956360454763041,0.04847544314438071
-0.00245178,-0.29960042361411,0.0696396392701174
-0.00245115,-0.3045558962863675,0.0841900241065614
-0.00245052,-0.3062077205104532,0.07922966563959186
-0.00244989,-0.3111631931827115,0.0726158543502865
-0.00244926,-0.3128150174067965,0.04483784693526971
-0.00244863,-0.3181008549238711,0.02334296024506835
-0.002448000000000001,-0.3217348682168581,0.03491713000132536
-0.00244737,-0.3256992463546657,0.06104168459403686
-0.00244674,-0.330324354182106,0.09047314483138949
-0.00244611,-0.3323065432510082,0.09113452596031846
-0.00244548,-0.3366012862336322,0.06534066193207713
-0.00244485,-0.338913840147355,0.02202019798720635
-0.00244422,-0.3448604073540612,0.01441431500452317
-0.00244359,-0.3478336909574156,0.04351508467741116
-0.002442960000000001,-0.3521284339400367,0.07658414112385972
-0.00244233,-0.356753541767479,0.09973248063639931
-0.0024417,-0.3600571902156506,0.09642557499175294
-0.00244107,-0.3623697441293697,0.06500997136762679
-0.00244044,-0.365012662887908,0.02367365080953299
-0.00243981,-0.3699681355601676,0.001848073554878749
-0.00243918,-0.3745932433876057,0.02764193758310862
-0.00243855,-0.3788879863702288,0.0805524278974504
-0.002437920000000001,-0.3812005402839478,0.1116373409571121
-0.00243729,-0.3845041887321206,0.09278797878264194
-0.00243666,-0.389459661404378,0.05740408838492589
-0.00243603,-0.3917722153180971,0.01309155274668478
-0.0024354,-0.3957365934559041,0.004162907506119445
-0.00243477,-0.3990402419040783,0.0309488432277795
-0.00243414,-0.4046564442659675,0.08485140523549067
-0.00243351,-0.4066386333348704,0.1149442466017726
-0.00243288,-0.4099422817830441,0.09113452596030418
-0.00243225,-0.4145673896104823,0.05905754120724907
-0.00243162,-0.415888848989751,0.02003605460042199
-0.00243099,-0.4198532271275551,-0.0001360698319116255
-0.00243036,-0.4244783349549971,0.02036674516488662
-0.00242973,-0.429764172472073,0.07592275999496129
-0.0024291,-0.4324070912306091,0.1106452692637323
-0.00242847,-0.4353803748339635,0.1073383636190859
-0.00242784,-0.439675117816588,0.07063171096349508
-0.00242721,-0.4429787662647582,0.03491713000133062
-0.00242658,-0.4459520498681127,0.01209948105327072
-0.002425950000000001,-0.4482646037818317,0.0124301716177352
-0.00242532,-0.4518986170748216,0.03260229605007817
-0.00242469,-0.4561933600574471,0.07129309209245427
-0.00242406,-0.4614791975745193,0.1013859334587225
-0.00242343,-0.4641221163330566,0.1043621485389042
-0.0024228,-0.4657739405571452,0.07063171096349161
-0.00242217,-0.4720508726086684,0.02731124701864399
-0.00242154,-0.4723812374534856,0.0028401452482609
-0.002420910000000001,-0.4756848859016558,0.004824288635047816
-0.00242028,-0.4799796288842804,0.03822403564597698
-0.00241965,-0.4849351015565377,0.08022173733298577
-0.00241902,-0.4882387500047094,0.1070076730546213
-0.00241839,-0.4922031281425153,0.102708695716581
-0.00241776,-0.4945156820562363,0.06567135249651636
-0.00241713,-0.4964978711251384,0.009784647102018262
-0.0024165,-0.5031051680214816,-0.005096428298890343
-0.002415870000000001,-0.5057480867800177,0.02698055645416476
-0.00241524,-0.5093821000730077,0.06666342418993568
-0.00241461,-0.5120250188315449,0.09940179007193467
-0.00241398,-0.514007207900448,0.09047314483138949
-0.00241335,-0.5166501266589852,0.05971892233617832
-0.00241272,-0.5212752344864275,0.02400434137399627
-0.00241209,-0.5255699774690487,0.0210281262938159
-0.00241146,-0.528543261072403,0.03921610733937089
-0.002410830000000001,-0.5321772743653902,0.05740408838491762
-0.0024102,-0.5368023821928321,0.08286726184870286
-0.00240957,-0.538454206416918,0.08187519015530895
-0.00240894,-0.542748949399539,0.05641201669154356
-0.00240831,-0.5460525978477127,0.02863400927650253
-0.00240768,-0.5483651517614341,0.02135881685828504
-0.00240705,-0.5513384353647872,0.03127953379221962
-0.00240642,-0.5566242728818618,0.05575063556260271
-0.002405790000000001,-0.5592671916403978,0.07989104676851015
-0.00240516,-0.5632315697782051,0.0769148316883394
-0.00240453,-0.5662048533815596,0.0660020430610064
-0.0024039,-0.5685174072952787,0.04880613370885317
-0.00240327,-0.5711603260538169,0.02995677153436108
-0.00240264,-0.5741336096571727,0.0200360546004274
-0.00240201,-0.5771068932605259,0.03194091492114889
-0.00240138,-0.5820623659327833,0.05541994499813807
-0.002400750000000001,-0.5840445550016854,0.06997032983457542
-0.00240012,-0.5880089331394922,0.07526137886601622
-0.00239949,-0.5919733112772981,0.05971892233617832
-0.00239886,-0.5946162300358342,0.04450715637081199
-0.00239823,-0.5979198784840071,0.03194091492114889
-0.0023976,-0.6002324323977282,0.03359436774347493
-0.00239697,-0.6025449863114474,0.03987748846830017
-0.00239634,-0.6078308238285219,0.0438457752418758
-0.00239571,-0.6101433777422434,0.05872685064278518
-0.00239508,-0.6131166613455965,0.06038030346510759
-0.00239445,-0.6177417691730367,0.0696396392701174
-0.00239382,-0.6187328637074878,0.06600204306100806
-0.00239319,-0.622366877000477,0.04351508467741116
-0.00239256,-0.6253401606038328,0.02995677153435912
-0.00239193,-0.6283134442071859,0.0256577941963208
-0.0023913,-0.6309563629657232,0.03888541677490626
-0.00239067,-0.6355814707931648,0.05872685064279165
-0.00239004,-0.638554754396518,0.07459999773708695
-0.00238941,-0.6415280379998725,0.06633273362547104
-0.002388780000000001,-0.6445013216032256,0.0468219903220664
-0.00238815,-0.646813875516947,0.0329329866145428
-0.00238752,-0.6504478888099378,0.02334296024507361
-0.00238689,-0.6547426317925589,0.03491713000133062
-0.00238626,-0.6554033614821932,0.05872685064278443
-0.00238563,-0.6590373747751829,0.0613723751585003
-0.002385,-0.661019563844085,0.05872685064278443
-0.00238437,-0.6646535771370737,0.04582991862866362
-0.002383740000000001,-0.6669661310507928,0.03590920169472904
-0.00238311,-0.6715912388782341,0.03987748846830017
-0.00238248,-0.673573427947137,0.04450715637080507
-0.00238185,-0.6765467115504915,0.04351508467741116
-0.00238122,-0.6798503599986632,0.04285370354848189
-0.00238059,-0.6818325490675677,0.04351508467741432
-0.00237996,-0.6854665623605549,0.05045958653116853
-0.00237933,-0.6891005756535438,0.05244372991795634
-0.002378700000000001,-0.6920738592568968,0.05872685064278158
-0.00237807,-0.6924042241017153,0.05045958653116853
-0.00237744,-0.6966989670843384,0.02797262814757326
-0.00237681,-0.6990115209980575,0.01904398290703214
-0.00237618,-0.701984804601413,0.02532710363185617
-0.00237555,-0.7059491827392211,0.04781406201546588
-0.00237492,-0.7109046554114764,0.07956035620405649
-0.00237429,-0.7105742905666592,0.08352864297763213
-0.002373660000000001,-0.7132172093251953,0.04351508467742936
-0.00237303,-0.716190492928551,0.01408362444005853
-0.0023724,-0.7201548710663569,0.003501526377190173
-0.00237177,-0.722797789824893,0.02268157911613036
-0.00237114,-0.7257710734282486,0.05244372991795634
-0.00237051,-0.7294050867212382,0.08121380902638163
-0.00236988,-0.7310569109453232,0.08551278636441995
-0.00236925,-0.732708735169409,0.05012889596670389
-0.002368620000000001,-0.7353516539279451,0.007800503715249693
-0.00236799,-0.7379945726864836,0.003170835812725536
-0.00236736,-0.7419589508242896,0.02664986588971471
-0.00236673,-0.7439411398931917,0.05012889596669322
-0.0023661,-0.7472447883413642,0.07294654491476377
-0.00236547,-0.748235882875817,0.0706317109635044
-0.00236484,-0.7512091664791701,0.05541994499813807
-0.00236421,-0.7545128149273417,0.02995677153436108
-0.00236358,-0.7564950039962467,0.00746981315076641
-0.00236295,-0.7607897469788678,0.008792575408624353
-0.00236232,-0.7631023008925879,0.03690127338811844
-0.00236169,-0.765745219651124,0.06368720910974177
-0.00236106,-0.7683881384096625,0.0732772354792284
-0.00236043,-0.7690488680992988,0.06004961290062987
-0.0023598,-0.77334361108192,0.03127953379221962
-0.00235917,-0.7753258001508229,0.01507569613345244
-0.00235854,-0.7779687189093603,0.02433503193846542
-0.00235791,-0.7779687189093603,0.03127953379221962
-0.00235728,-0.779620543133446,0.02698055645417935
-0.00235665,-0.7829241915816161,0.02764193758310832
-0.00235602,-0.7865582048746064,0.04351508467741116
-0.00235539,-0.7915136775468647,0.06567135249654583
-0.00235476,-0.7934958666157668,0.07459999773708695
-0.00235413,-0.793826231460584,0.04814475257991607
-0.0023535,-0.7971298799087565,0.01011533766647809
-0.00235287,-0.7991120689776585,-0.000466760396385435
-0.00235224,-0.8027460822706474,0.01408362444005853
-0.002351610000000001,-0.8047282713395494,0.0501288959666875
-0.00235098,-0.8060497307188189,0.06401789967421859
-0.00235035,-0.8093533791669906,0.06434859023868322
-0.00234972,-0.8113355682358936,0.04120025072615871
-0.00234909,-0.8129873924599793,0.02631917532525008
-0.00234846,-0.8166214057529699,0.0236736508095378
