Lab7/inlab/differential/sine/differential10k.csv

#Digilent WaveForms Oscilloscope Acquisition
#Device Name: Discovery2
#Serial Number: SN:210321B0E782
#Date Time: 2023-10-25 14:40:57.175
#Sample rate: 1.5873e+06Hz
#Samples: 8192
#Trigger: Source: Channel 1 Type: Edge Condition: Rising Level: -2.41 mV Hyst.: Auto HoldOff: 100 ns
#Channel 1: Range: 500 mV/div Offset: 1 V Attenuation: 1 X
#Channel 2: Range: 500 mV/div Offset: -200 mV Attenuation: 1 X
#Wavegen Channel 1: Enabled
#Mode: Simple
#Type: Sine
#Frequency: 10 kHz
#Period: 100 us
#Amplitude: 1 V
#Offset: 0 V
#Symmetry: 50 %
#Phase: 0 °

Time (s),Channel 1 (V),Channel 2 (V)
-0.002580052695652174,0.9495090546395786,-0.1873069293189049
-0.002579422695652174,0.9617325538978079,-0.1658120426287133
-0.002578792695652174,0.970982769552694,-0.160851684161734
-0.002578162695652174,0.9795722555179446,-0.1373726540847307
-0.002577532695652174,0.989152836017638,-0.106287741025069
-0.002576902695652174,0.993447579000261,-0.09074528449523109
-0.002576272695652174,0.9964208626036142,-0.05668415635538906
-0.002575642695652174,0.9997245110517872,-0.02725269611802097
-0.002575012695652174,1.001045970431056,-0.006088499992284252
-0.002574382695652174,0.9993941462069708,0.01243017161772693
-0.002573752695652174,0.9960904977587983,0.0329329866145428
-0.002573122695652174,0.9937779438450752,0.05145165822457492
-0.002572492695652174,0.9871706469487349,0.07889897507512722
-0.002571862695652174,0.981224079742026,0.1116373409571262
-0.002571232695652174,0.9713131343975067,0.1384232766787735
-0.002570602695652174,0.9614021890529965,0.1642171407070034
-0.002569972695652174,0.9508305140188471,0.1800902878013059
-0.002569342695652174,0.9376159202261667,0.1936486009443498
-0.002568712695652174,0.9224191373645714,0.2194424649725976
-0.002568082695652174,0.9075527193477909,0.2498659969033515
-0.002567452695652174,0.8897130177276722,0.2660698345621113
-0.002566822695652174,0.8715429512627284,0.2862419589944541
-0.002566192695652174,0.8490781418151522,0.3097209890714553
-0.002565562695652174,0.8289258862813145,0.3361762342286141
-0.002564932695652174,0.8067914416785646,0.3503959285005935
-0.002564302695652174,0.7813533486276547,0.371890815190785
-0.002563672695652174,0.7562456204215389,0.3933857018809962
-0.002563042695652174,0.7308075273706047,0.4009915848636881
-0.002562412695652174,0.7030568804059758,0.412565754619945
-0.002561782695652174,0.6753062334413342,0.4274468300208537
-0.002561152695652174,0.6445823028733244,0.4532406940491074
-0.002560522695652174,0.6141887371501593,0.4800266297707309
-0.002559892695652174,0.5801611581339916,0.5127649956527298
-0.002559262695652174,0.5504283221004607,0.5273153804891672
-0.002558632695652174,0.5167311079290966,0.5048284221055785
-0.002558002695652174,0.480721339844026,0.5117729239593359
-0.002557372695652174,0.4447115717589554,0.5302915955693556
-0.002556742695652174,0.4096928982083363,0.5491409577438398
-0.002556112695652174,0.3723616707439803,0.5673289387894062
-0.002555482695652174,0.335691172969292,0.5921307311242425
-0.002554852695652174,0.2996814048842213,0.587170372657273
-0.002554222695652174,0.261028718040631,0.5729506783853
-0.002553592695652174,0.2220456663521884,0.5746041312076168
-0.002552962695652174,0.1847144388878492,0.5749348217720814
-0.002552332695652174,0.1463921168890583,0.5918000405597779
-0.002551702695652174,0.1074090652006332,0.6027128291871109
-0.002551072695652174,0.06677418928810468,0.6149483800723073
-0.002550442695652174,0.02779113759969731,0.6258611686996354
-0.002549812695652174,-0.01218300862317934,0.6162711423301609
-0.002549182695652174,-0.05281788453567166,0.6073424970896198
-0.002548552695652174,-0.09180093622411523,0.5947762556399596
-0.002547922695652174,-0.132105447291809,0.5878317537862022
-0.002547292695652174,-0.1704277692905823,0.593122802817634
-0.002546662695652174,-0.209741185823842,0.5997366141069291
-0.002546032695652174,-0.2474027781330162,0.606681115960684
-0.002545402695652174,-0.2863858298214236,0.6010593763647877
-0.002544772695652174,-0.3233866924409456,0.5884931349151316
-0.002544142695652174,-0.3603875550604509,0.5626992708869016
-0.002543512695652174,-0.3987098770592585,0.5484795766149105
-0.002542882695652174,-0.4353803748339635,0.5527785539529508
-0.002542252695652174,-0.4697383186949327,0.5534399350818797
-0.002541622695652174,-0.501783708642213,0.5332678106495373
-0.002540992695652174,-0.5364720173480308,0.5078046371857556
-0.002540362695652174,-0.5714906908986341,0.4975532296873566
-0.002539732695652174,-0.6032057160010816,0.4906087278335992
-0.002539102695652174,-0.6359118356379658,0.484325607108774
-0.002538472695652174,-0.6663054013611596,0.4714286750946504
-0.002537842695652174,-0.6947167780154355,0.4512565506623075
-0.002537212695652174,-0.7221370601352475,0.4353834035680122
-0.002536582695652174,-0.7492269774102671,0.4115736829265512
-0.002535952695652174,-0.7753258001508344,0.3910708679297378
-0.002535322695652174,-0.8007638932017443,0.3778432453511583
-0.002534692695652174,-0.8222376081148599,0.3467583322914825
-0.002534062695652174,-0.8460238769417041,0.3269168984235997
-0.002533432695652174,-0.8651850379410909,0.3166654909252006
-0.002532802695652174,-0.8843461989404863,0.3001309627019688
-0.002532172695652174,-0.903176995095056,0.2792974571407062
-0.002531542695652174,-0.9200256021807397,0.2551570459347783
-0.002530912695652174,-0.9358831147319698,0.238622517711537
-0.002530282695652174,-0.9497584382142843,0.2177890121502744
-0.002529652695652174,-0.9623123023173364,0.1919951481220328
-0.002529022695652174,-0.9725536125066723,0.1625636878846679
-0.002528392695652174,-0.9808127336270975,0.13544706159858
-0.002527762695652174,-0.9894022195923438,0.1093225070058737
-0.002527132695652174,-0.996339881333501,0.08584347692889525
-0.002526502695652174,-1.001625718850579,0.07526137886601622
-0.002525872695652174,-1.003607907919482,0.05806546951385516
-0.002525242695652174,-1.004599002453933,0.02598848476078544
-0.002524612695652174,-1.006581191522836,-0.004104356605496434
-0.002523982695652174,-1.004599002453931,-0.03254374514946523
-0.002523352695652174,-0.9996435297816757,-0.05470001296858576
-0.002522722695652174,-0.9946880571094183,-0.07685628078771642
-0.002522092695652174,-0.988741489902712,-0.1019887636870173
-0.002521462695652174,-0.9794912742478289,-0.1330736767467045
-0.002520832695652174,-0.9702410585929483,-0.1539071823079766
-0.002520202695652174,-0.9590086538691648,-0.1704417105312084
-0.002519572695652174,-0.9461244249212956,-0.1863148576255109
-0.002518942695652174,-0.9335705608182366,-0.2031800764132164
-0.002518312695652174,-0.9187041428014711,-0.2230215102810855
-0.002517682695652174,-0.8985518872676242,-0.2597281629366601
-0.002517052695652174,-0.8817032801819567,-0.2990803401079341
-0.002516422695652174,-0.8622117543377364,-0.3285118003453045
-0.002515792695652174,-0.8417291339590725,-0.337109755021385
-0.002515162695652174,-0.8202554190459667,-0.3361176833279915
-0.002514532695652174,-0.795808420529487,-0.3437235663106777
-0.002513902695652174,-0.7713614220130051,-0.3632343096141006
-0.002513272695652174,-0.7452625992724612,-0.3837371246108987
-0.002512642695652174,-0.7181726819974539,-0.4148220376705745
-0.002512012695652174,-0.6881094811191059,-0.4502059280682744
-0.002511382695652174,-0.6606891989992678,-0.4769918637899261
-0.002510752695652174,-0.628643809052003,-0.4793066977411785
-0.002510122695652174,-0.596598419104753,-0.4763304826609982
-0.002509492695652174,-0.5658744885367424,-0.4766611732254614
-0.002508862695652174,-0.5325076392101937,-0.4895581052395911
-0.002508232695652174,-0.4988104250388585,-0.5090688485429958
-0.002507602695652174,-0.4641221163330566,-0.5378389276514192
-0.002506972695652174,-0.4271212537135512,-0.5623100294217911
-0.002506342695652174,-0.3924329450077324,-0.5778524859516401
-0.002505712695652174,-0.3534498933193073,-0.5765297236937815
-0.002505082695652174,-0.3171097603894362,-0.5712386746623498
-0.002504452695652174,-0.2781267087009945,-0.5702466029689535
-0.002503822695652174,-0.2414562109262715,-0.5685931501466348
-0.002503192695652174,-0.2018124295482301,-0.5785138670805694
-0.002502562695652174,-0.1615079184805364,-0.6092680895757805
-0.002501932695652174,-0.1225248667920937,-0.6350619536040205
-0.002501302695652174,-0.08387217994850338,-0.6314243573949112
-0.002500672695652174,-0.04521949310489548,-0.6036463499798818
-0.002500042695652174,-0.005906076571671082,-0.5808287010318322
-0.002499412695652174,0.03439843449604041,-0.5758683425648523
-0.002498782695652174,0.07338148618448367,-0.5890959651434498
-0.002498152695652174,0.1133556324073421,-0.6155512103006087
-0.002497522695652174,0.1516779544061329,-0.6224957121543659
-0.002496892695652174,0.1926431951634781,-0.6181967348163211
-0.002496262695652174,0.2299744226278002,-0.6079453273179219
-0.002495632695652174,0.2676360149369568,-0.582482153854145
-0.002495002695652174,0.305627972090913,-0.5527200030523413
-0.002494372695652174,0.343950294089721,-0.5500744785366106
-0.002493742695652174,0.3812815215540767,-0.5629714105507393
-0.002493112695652174,0.417291289639131,-0.5801673199028926
-0.002492482695652174,0.4529706928793844,-0.5788445576450341
-0.002491852695652174,0.4869982718955673,-0.5454448106340856
-0.002491222695652174,0.5203651212220854,-0.5011322749958446
-0.002490592695652174,0.5567052541519733,-0.4783146260477846
-0.002489962695652174,0.5880899144095894,-0.4832749845147519
-0.002489332695652174,0.6191442098224167,-0.4855898184660066
-0.002488702695652174,0.6492074107007786,-0.4898887958040469
-0.002488072695652174,0.6779491521998715,-0.4713701241940272
-0.002487442695652174,0.7086730827678676,-0.4462376412947149
-0.002486812695652174,0.7370844594221546,-0.4204437772664632
-0.002486182695652174,0.7615314579386134,-0.3982875094473427
-0.002485552695652174,0.7863088212999005,-0.372493645419101
-0.002484922695652174,0.8107558198163596,-0.3490146153421225
-0.002484292695652174,0.8332206292639377,-0.3344642305056679
-0.002483662695652174,0.8537032496426016,-0.3228900607494056
-0.002483032695652174,0.8741858700212657,-0.3109852004286787
-0.002482402695652174,0.893347031020661,-0.2957734344633055
-0.002481772695652174,0.910856367795978,-0.2762626911598768
-0.002481142695652174,0.9270442451920116,-0.2428629441489637
-0.002480512695652174,0.9405892038295152,-0.2187225329430453
-0.002479882695652174,0.9521519733981106,-0.1780475935139136
-0.002479252695652174,0.9637147429667166,-0.1539071823079766
-0.002478622695652174,0.9729649586215969,-0.131750914488846
-0.002477992695652174,0.9822151742764733,-0.1224915786838404
-0.002477362695652174,0.9884921063280037,-0.1221608881193716
-0.002476732695652174,0.9947690383795303,-0.1062877410250504
-0.002476102695652174,0.9960904977587983,-0.06528211103145412
-0.002475472695652174,1.000385240741421,-0.01667059805515261
-0.002474842695652174,0.9997245110517875,0.01540638669790249
-0.002474212695652174,0.99939414620697,0.03392505830793671
-0.002473582695652174,0.9954297680691639,0.05211303935349171
-0.002472952695652174,0.9901439305520918,0.06567135249653561
-0.002472322695652174,0.9855188227246492,0.08617416749334922
-0.002471692695652174,0.9782507961386675,0.09973248063640773
-0.002471062695652174,0.9690005804837911,0.1182511522464189
-0.002470432695652174,0.9597503648289105,0.1503281369994886
-0.002469802695652174,0.9488483249499492,0.1867040990905821
-0.002469172695652174,0.934312271777989,0.2224186800527793
-0.002468542695652174,0.9187851240715825,0.2548263553703136
-0.002467912695652174,0.9012757872962809,0.2654084534331771
-0.002467282695652174,0.8834360856761463,0.2697074307712223
-0.002466652695652174,0.8646052895215582,0.2859112684299968
-0.002466022695652174,0.8434619394532696,0.3021151060887566
-0.002465392695652174,0.8209971300057026,0.3269168984236043
-0.002464762695652174,0.7982019557133074,0.3566790492254341
-0.002464132695652174,0.7740853220416657,0.3841263660759864
-0.002463502695652174,0.7496383235251958,0.4023143471215413
-0.002462872695652174,0.7228787710950177,0.4132271357488694
-0.002462242695652174,0.6944673944407296,0.4241399243762073
-0.002461612695652174,0.6657256529416227,0.4439813582440936
-0.002460982695652174,0.6350017223736406,0.4618386487251759
-0.002460352695652174,0.607251075408999,0.4684524600144686
-0.002459722695652174,0.575205685461718,0.4730821279169846
-0.002459092695652174,0.5395262822214808,0.4975532296873566
-0.002458462695652174,0.5051683383604959,0.5322757389561433
-0.002457832695652174,0.4704800296547098,0.5514557916950835
-0.002457202695652174,0.4341398967248062,0.5673289387893948
-0.002456572695652174,0.4007730473982729,0.5501330294372337
-0.002455942695652174,0.3627810902442994,0.5408736936322239
-0.002455312695652174,0.3267713221592285,0.5541013162108094
-0.002454682695652174,0.2914222837637744,0.562699270886898
-0.002454052695652174,0.25210886723055,0.5805565613679803
-0.002453422695652174,0.2134561803869421,0.6080038782185451
-0.002452792695652174,0.1738123990089007,0.6195780479748021
-0.002452162695652174,0.1341686176308234,0.6172632140235549
-0.002451532695652174,0.0961766604768497,0.6056890442672925
-0.002450902695652174,0.05653287909879046,0.5911386594308486
-0.002450272695652174,0.01556763834146224,0.5812179424969095
-0.002449642695652174,-0.02341541334698076,0.5964297084622942
-0.002449012695652174,-0.06305919472502219,0.6215621913615951
-0.002448382695652174,-0.1013815167238129,0.6258611686996354
-0.002447752695652174,-0.1420163926363053,0.6166018328946298
-0.002447122695652174,-0.1813298091695661,0.5974217801556767
-0.002446492695652174,-0.2206432257028084,0.5835327764481619
-0.002445862695652174,-0.2576440883223136,0.5759268934654788
-0.002445232695652174,-0.2953056806314869,0.5769189651588692
-0.002444602695652174,-0.3346190971647458,0.5845248481415575
-0.002443972695652174,-0.3712895949394341,0.5878317537862022
-0.002443342695652174,-0.4069689981796876,0.5736120595142229
-0.002442712695652174,-0.4436394959543759,0.5514557916951024
-0.002442082695652174,-0.4786581695050116,0.5339291917784665
-0.002441452695652174,-0.5133464782108137,0.5134263767816591
-0.002440822695652174,-0.5473740572269659,0.5041670409766535
-0.002440192695652174,-0.5797498120190632,0.4975532296873566
-0.002439562695652174,-0.6124559316559761,0.4968918485584249
-0.002438932695652174,-0.6431798622239582,0.4916007995269931
-0.002438302695652174,-0.6742341576367714,0.4777117958194784
-0.002437672695652174,-0.7029758991358515,0.4502644789689261
-0.002437042695652174,-0.7294050867212374,0.409920230104228
-0.002436412695652174,-0.757155733685879,0.3867718905917035
-0.002435782695652174,-0.7825938267367889,0.3728828868841951
-0.002435152695652174,-0.8050586361843675,0.3665997661593606
-0.002434522695652174,-0.8285145401663969,0.3527107624518431
-0.002433892695652174,-0.8526311738380388,0.3464276417270178
-0.002433262695652174,-0.8721226996822513,0.3355148530996849
-0.002432632695652174,-0.8912838606816552,0.307406155120173
-0.002432002695652174,-0.9101146568362248,0.2683846685133637
-0.002431372695652174,-0.9239899803185457,0.2300245630354659
-0.002430742695652174,-0.9401778577145793,0.2019158650559846
-0.002430112695652174,-0.9527317218176388,0.1873654802195279
-0.002429482695652174,-0.9646248562310612,0.1913337669931014
-0.002428852695652174,-0.9748661664203886,0.1867040990905986
-0.002428222695652174,-0.9827949226960004,0.1493360653060947
-0.002427592695652174,-0.9910540438164321,0.1043621485388886
-0.002426962695652174,-0.9970006110231384,0.06997032983458204
-0.002426332695652174,-1.000634624316127,0.03855472621044162
-0.002425702695652174,-1.002286448540212,0.01739053008471452
-0.002425072695652174,-1.004268637609116,0.0101153376664829
-0.002424442695652174,-1.00492936729875,0.009784647102014201
-0.002423812695652174,-1.003607907919482,0.0008560018614731102
-0.002423182695652174,-0.9983220704024071,-0.03320512627838443
-0.002422552695652174,-0.9940273274197814,-0.07586420909434294
-0.002421922695652174,-0.9884111250578922,-0.120838125861513
-0.002421292695652174,-0.9781698148685603,-0.152584420050118
-0.002420662695652174,-0.9672677749895989,-0.1803624274651349
-0.002420032695652174,-0.9563657351106275,-0.1916059066569451
-0.002419402695652174,-0.9434815061627583,-0.1879683104478342
-0.002418772695652174,-0.9296061826804374,-0.1922672877858744
-0.002418142695652174,-0.9130879404395793,-0.2167383895562575
-0.002417512695652174,-0.8952482388194444,-0.2620429968879304
-0.002416882695652174,-0.8770781723545087,-0.3010644834947397
-0.002416252695652174,-0.8579170113551133,-0.3308266342965569
-0.002415622695652174,-0.8354522019075565,-0.3546363549379999
-0.002414992695652174,-0.8133177573047965,-0.3526522115512229
-0.002414362695652174,-0.7892011236331438,-0.351660139857829
-0.002413732695652174,-0.7657452196511252,-0.3615808567917681
-0.002413102695652174,-0.738655302376118,-0.3701788114678486
-0.002412472695652174,-0.7092528311873779,-0.4158141093639905
-0.002411842695652174,-0.681502184222749,-0.46442562234027
-0.002411212695652174,-0.6517693481892044,-0.4915422486263701
-0.002410582695652174,-0.6200543230867713,-0.492203629755299
-0.002409952695652174,-0.5886696628291266,-0.4885660335461883
-0.002409322695652174,-0.5549724486577761,-0.4875739618527944
-0.002408692695652174,-0.524248518089794,-0.4918729391908328
-0.002408062695652174,-0.4885691148495265,-0.5031164183826323
-0.002407432695652174,-0.4522289819196223,-0.5335399503133937
-0.002406802695652174,-0.4162192138345681,-0.5662783161953778
-0.002406172695652174,-0.3798790809046803,-0.5910801085302255
-0.002405542695652174,-0.345190772198894,-0.5881038934500452
-0.002404912695652174,-0.3068684502000876,-0.5705772935334181
-0.002404282695652174,-0.271189046959834,-0.5490824068432167
-0.002403652695652174,-0.2308845358921586,-0.5441220483762494
-0.002403022695652174,-0.1919014842037152,-0.575206961435923
-0.002402392695652174,-0.1515969731360042,-0.6208422593320531
-0.002401762695652174,-0.113605015982048,-0.6433292177156381
-0.002401132695652174,-0.07462196429362289,-0.633408500781699
-0.002400502695652174,-0.03398708838113045,-0.6026542782865018
-0.002399872695652174,0.003344139083227393,-0.5818207727252157
-0.002399242695652174,0.04232719077165248,-0.567931769017701
-0.002398612695652174,0.08428352606341295,-0.5900880368368215
-0.002397982695652174,0.1239273074414913,-0.6231570932832953
-0.002397352695652174,0.1632407239747516,-0.6426678365867031
-0.002396722695652174,0.202884505352793,-0.6301015951370527
-0.002396092695652174,0.2408764625067665,-0.5963711575616597
-0.002395462695652174,0.2791987845055747,-0.564294172808583
-0.002394832695652174,0.317190741659531,-0.5487517162787521
-0.002394202695652174,0.3532005097446016,-0.5484210257142875
-0.002393572695652174,0.3895406426744729,-0.5543734558746483
-0.002392942695652174,0.4265415052940116,-0.561648648292873
-0.002392312695652174,0.4615601788446457,-0.5685931501466247
-0.002391682695652174,0.4945966633263468,-0.5563575992614388
-0.002391052695652174,0.5309367962562346,-0.5299023541042679
-0.002390422695652174,0.5649643752724163,-0.5100609202363765
-0.002389792695652174,0.5956883058403983,-0.4809601505635017
-0.002389162695652174,0.6267426012532116,-0.4528514525840076
-0.002388532695652174,0.6591183560452786,-0.4478910941170404
-0.002387902695652174,0.6875297326995693,-0.4462376412947149
-0.002387272695652174,0.7149500148194059,-0.4482217846814948
-0.002386642695652174,0.7417095672495837,-0.430695184764877
-0.002386012695652174,0.7687994845245911,-0.4092002980746757
-0.002385382695652174,0.7942375775755225,-0.3718322642901611
-0.002384752695652174,0.8160416573334452,-0.3483532342131826
-0.002384122695652174,0.8381761019361951,-0.3192524645402947
-0.002383492695652174,0.8593194520044837,-0.3090010570418956
-0.002382862695652174,0.8791413426935231,-0.3066862230906385
-0.002382232695652174,0.897641774003284,-0.2911437665608007
-0.002381602695652174,0.9151511107785937,-0.2785775251111444
-0.002380972695652174,0.9293567991057317,-0.2441857064068223
-0.002380342695652174,0.9422410280536069,-0.1975583368172943
