Lab7/inlab/differential/sine/differential500.csv

#Digilent WaveForms Oscilloscope Acquisition
#Device Name: Discovery2
#Serial Number: SN:210321B0E782
#Date Time: 2023-10-25 14:38:57.854
#Sample rate: 1.5873e+06Hz
#Samples: 8192
#Trigger: Source: Channel 1 Type: Edge Condition: Rising Level: -2.41 mV Hyst.: Auto HoldOff: 100 ns
#Channel 1: Range: 500 mV/div Offset: 1 V Attenuation: 1 X
#Channel 2: Range: 500 mV/div Offset: -200 mV Attenuation: 1 X
#Wavegen Channel 1: Running
#Mode: Simple
#Type: Sine
#Frequency: 500 Hz
#Period: 2 ms
#Amplitude: 1 V
#Offset: 0 V
#Symmetry: 50 %
#Phase: 0 °

Time (s),Channel 1 (V),Channel 2 (V)
-0.002579955,-0.9709017882825827,-0.004435047169961071
-0.002579325,-0.9709017882825827,0.01143809992433422
-0.002578695,-0.9712321531273999,0.02202019798720981
-0.002578065,-0.9718928828170346,0.01937467347149091
-0.002577435,-0.9728839773514856,0.01540638669791708
-0.002576805,-0.9735447070411199,0.01044602823094753
-0.002576175,-0.9735447070411199,-0.001128141525309444
-0.002575545,-0.9735447070411199,-0.003112284912102525
-0.002574915,-0.9722232476618513,-0.008734024508001342
-0.002574285,-0.9728839773514852,-0.009064715072465828
-0.002573655,-0.9748661664203886,-0.0007974509608500713
-0.002573025,-0.9745358015755711,0.01309155274666838
-0.002572395,-0.9738750718859371,0.02135881685828053
-0.002571765,-0.9735447070411199,0.02036674516488662
-0.002571135,-0.9751965312652068,0.01209948105326951
-0.002570505,-0.9775090851789259,0.009453956537553626
-0.002569875,-0.9778394500237431,0.004493598070584082
-0.002569245,-0.9768483554892921,-0.002450903783170095
-0.002568615,-0.9771787203341087,0.002178764119331655
-0.002567985,-0.978500179713377,0.006477741457375509
-0.002567355,-0.9778394500237431,0.01441431500452317
-0.002566725,-0.9791609094030117,0.01672914895577562
-0.002566095,-0.9785001797133779,0.009784647102013601
-0.002565465,-0.979821639092646,-0.000466760396385435
-0.002564835,-0.9811430984719147,0.0005253112970084739
-0.002564205,-0.9808127336270976,-0.003773666041029843
-0.002563575,-0.9824645578511834,0.007139122586301172
-0.002562945,-0.9834556523856345,0.01739053008470685
-0.002562315,-0.9827949226960004,0.02168950742274517
-0.002561685,-0.9827949226960004,0.009784647102018262
-0.002561055,-0.9837860172304519,0.001186692425936393
-0.002560425,-0.9834556523856348,-0.00178952265424398
-0.002559795,-0.9841163820752691,0.001186692425937746
-0.002559165,-0.9844467469200862,0.005485669763976036
-0.002558535,-0.9834556523856348,0.006477741457371899
-0.002557905,-0.9844467469200863,-0.002120213218708616
-0.002557275,-0.9844467469200863,0.0005253112970084739
-0.002556645,-0.9854378414545377,0.003170835812725536
-0.002556015,-0.9864289359889892,0.01143809992434159
-0.002555385,-0.9860985711441721,0.01176879048880608
-0.002554755,-0.9851074766097206,0.01110740935987681
-0.002554125,-0.9880807602130738,0.001848073554871229
-0.002553495,-0.9877503953682579,0.01044602823094753
-0.002552865,-0.9860985711441721,0.008461884844159717
-0.002552235,-0.990062949281978,0.006147050892907263
-0.002551605,-0.9880807602130751,0.009453956537553626
-0.002550975,-0.987089665678624,-0.00807264337907177
-0.002550345,-0.9880807602130751,-0.007411262250142797
-0.002549715,-0.9903933141267952,0.004493598070584082
-0.002549085,-0.9897325844371612,0.01639845839130558
-0.002548455,-0.9913844086612467,0.01772122064916953
-0.002547825,-0.9917147735060639,0.01904398290702808
-0.002547195,-0.9917147735060639,0.009123265973093502
-0.002546565,-0.9907236789716124,-0.01336369241050625
-0.002545935,-0.9930362328853322,-0.0179933603130089
-0.002545305,-0.9923755031956981,-0.01303300184604161
-0.002544675,-0.9913844086612467,0.008792575408624353
-0.002544045,-0.9907236789716127,0.01408362444005613
-0.002543415,-0.9903933141267952,0.009784647102018262
-0.002542785,-0.9927058680405153,0.006147050892907263
-0.002542155,-0.9927058680405153,0.008131194279694179
-0.002541525,-0.9933665977301497,0.007469813150765808
-0.002540895,-0.9927058680405154,0.005816360328441123
-0.002540265,-0.9930362328853325,0.002509454683796292
-0.002539635,-0.9953487867990526,-0.003773666041031798
-0.002539005,-0.9943576922646016,0.009784647102012097
-0.002538375,-0.9940273274197839,0.006477741457371899
-0.002537745,-0.9943576922646011,0.007469813150765808
-0.002537115,-0.9950184219542352,0.0001946207325471457
-0.002536485,-0.9950184219542355,-0.005096428298890343
-0.002535855,-0.9943576922646015,-0.001458832089778291
-0.002535225,-0.9950184219542355,0.0008560018614731102
-0.002534595,-0.9946880571094183,0.005485669763977991
-0.002533965,-0.996009516488688,0.01573707726238773
-0.002533335,-0.9983220704024071,0.02896469984096717
-0.002532705,-0.996009516488687,0.02202019798720981
-0.002532075,-0.996009516488687,-0.005757809427806983
-0.002531445,-0.9970006110231384,-0.02526855273123316
-0.002530815,-0.9973309758679559,-0.02460717160229652
-0.002530185,-0.9979917055575899,-0.008403333943536706
-0.002529555,-0.9983220704024071,0.01342224331112926
-0.002528925,-0.9966702461783217,0.02664986588971246
-0.002528295,-0.9976613407127728,0.02168950742274517
-0.002527665,-0.9973309758679556,0.005485669763977991
-0.002527035,-0.9966702461783216,-0.01964681313532291
-0.002526405,-0.9989828000920414,-0.02196164708658679
-0.002525775,-0.9999738946264929,-0.000466760396385435
-0.002525145,-0.9986524352472242,0.02367365080953299
-0.002524515,-0.9986524352472242,0.02532710363185617
-0.002523885,-0.9983220704024074,0.00879257540861518
-0.002523255,-0.9989828000920414,-0.01137954902371843
-0.002522625,-0.9989828000920414,-0.02063888482872825
-0.002521995,-0.9993131649368584,-0.01071816789479367
-0.002521365,-0.9983220704024071,0.0005253112970084739
-0.002520735,-0.9979917055575899,0.00912326597308899
-0.002520105,-0.9976613407127728,0.01871329234256344
-0.002519475,-0.9993131649368585,0.01573707726238172
-0.002518845,-1.00030425947131,0.01606776782683823
-0.002518215,-0.9993131649368585,-0.00178952265424398
-0.002517585,-1.000634624316127,-0.01038747733032452
-0.002516955,-0.9996435297816761,-0.01038747733032452
-0.002516325,-0.9999738946264929,-0.01038747733032452
-0.002515695,-0.9999738946264929,-0.000466760396385435
-0.002515065,-1.001295354005761,0.012099481053265
-0.002514435,-1.001956083695396,0.0173905300847049
-0.002513805,-1.000634624316127,0.0167291489557675
-0.002513175,-1.000634624316127,-0.001128141525314708
-0.002512545,-1.000634624316127,-0.01534783579729407
-0.002511915,-1.000634624316127,-0.02063888482872584
-0.002511285,-1.00030425947131,-0.01501714523282943
-0.002510655,-1.000634624316127,-0.001458832089779344
-0.002510025,-1.001956083695395,0.01408362444005147
-0.002509395,-1.00261681338503,0.03028746209882571
-0.002508765,-1.000634624316128,0.02962608096988396
-0.002508135,-1.002286448540213,0.002178764119331655
-0.002507505,-1.002286448540213,-0.006088499992284252
-0.002506875,-1.000964989160945,-0.02526855273122443
-0.002506245,-1.002286448540213,-0.01964681313533434
-0.002505615,-1.002286448540213,-0.001458832089779344
-0.002504985,-0.9996435297816769,0.009453956537548663
-0.002504355,-1.001295354005762,0.004162907506119445
-0.002503725,-1.00261681338503,0.001186692425942859
-0.002503095,-1.00261681338503,0.01243017161773535
-0.002502465,-1.001956083695396,0.005154979199513354
-0.002501835,-1.000634624316128,0.0005253112970023083
-0.002501205,-1.001956083695396,-0.01303300184604161
-0.002500575,-1.001956083695396,-0.01270231128157698
-0.002499945,-1.000634624316128,-0.0001360698319265129
-0.002499315,-1.00030425947131,0.006477741457371899
-0.002498685,-1.000964989160945,0.0111074093598744
-0.002498055,-1.001956083695396,0.005816360328442627
-0.002497425,-1.00030425947131,-0.004765737734425707
-0.002496795,-1.000964989160944,-0.01501714523282883
-0.002496165,-1.000964989160944,-0.01369438297497089
-0.002495535,-1.000634624316127,-0.008403333943536706
-0.002494905,-1.001625718850578,0.01441431500451279
-0.002494275,-1.000964989160944,0.02598848476078544
-0.002493645,-1.002947178229847,0.02466572250292133
-0.002493015,-1.001956083695396,0.01243017161773535
-0.002492385,-1.001625718850579,-0.01633990749068798
-0.002491755,-1.001295354005762,-0.03551996022963794
-0.002491125,-1.001956083695396,-0.03783479418088934
-0.002490495,-1.001625718850579,-0.009395405636930615
-0.002489865,-1.002947178229847,0.02731124701862729
-0.002489235,-1.000964989160944,0.04814475257991607
-0.002488605,-1.00030425947131,0.02202019798720981
-0.002487975,-1.000964989160944,-0.01534783579729407
-0.002487345,-1.001295354005762,-0.03188236402052588
-0.002486715,-1.000304259471311,-0.03452788853623305
-0.002486085,-1.002286448540213,-0.01270231128157698
-0.002485455,-1.000964989160944,0.02003605460042199
-0.002484825,-0.9996435297816763,0.03657058282364628
-0.002484195,-0.9996435297816757,0.02036674516488662
-0.002483565,-1.000964989160944,-0.003442975476567162
-0.002482935,-1.001625718850579,-0.02030819426426361
-0.002482305,-0.9993131649368585,-0.03419719797177834
-0.002481675,-0.9996435297816754,-0.02659131498908403
-0.002481045,-0.9989828000920414,-0.009726096201395251
-0.002480415,-1.000964989160944,0.02003605460042199
-0.002479785,-0.9976613407127743,0.02929539040542759
-0.002479155,-0.9976613407127728,0.009784647102018262
-0.002478525,-0.9983220704024071,-0.01171023958818307
-0.002477895,-0.9989828000920411,-0.01964681313533073
-0.002477265,-1.000634624316127,-0.01336369241050625
-0.002476635,-0.9976613407127732,0.005816360328443229
-0.002476005,-0.9986524352472242,0.007139122586301172
-0.002475375,-0.9993131649368585,0.0008560018614731102
-0.002474745,-0.9976613407127736,-0.009726096201390439
-0.002474115,-0.9983220704024071,-0.0110488584592538
-0.002473485,-0.9970006110231384,-0.003773666041031798
-0.002472855,-0.9976613407127725,0.003501526377186865
-0.002472225,-0.9983220704024071,0.01507569613345244
-0.002471595,-0.9989828000920399,0.01937467347148429
-0.002470965,-0.9956791516438698,0.0008560018614731102
-0.002470335,-0.9970006110231384,-0.02394579047337461
-0.002469705,-0.9976613407127725,-0.02559924329569704
-0.002469075,-0.9973309758679556,-0.01501714523282943
-0.002468445,-0.9970006110231384,0.001517382990402383
-0.002467815,-0.9953487867990534,0.01243017161773039
-0.002467185,-0.9956791516438698,0.009784647102018262
-0.002466555,-0.9966702461783211,-0.0001360698319250094
-0.002465925,-0.9963398813335042,-0.009395405636930615
-0.002465295,-0.996009516488687,-0.007080571685678161
-0.002464665,-0.9953487867990527,-0.005096428298891546
-0.002464035,-0.9956791516438698,-0.007741952814607433
-0.002463405,-0.9950184219542355,-0.005757809427819616
-0.002462775,-0.9953487867990525,0.0001946207325411306
-0.002462145,-0.9946880571094183,0.004824288635048718
-0.002461515,-0.9927058680405156,0.001186692425931581
-0.002460885,-0.9933665977301497,-0.01237162071711234
-0.002460255,-0.9933665977301497,-0.009726096201395251
-0.002459625,-0.9946880571094178,-0.004435047169957912
-0.002458995,-0.9933665977301497,0.002509454683796292
-0.002458365,-0.9936969625749669,0.001186692425937746
-0.002457735,-0.9920451383508818,-0.00873402450799683
-0.002457105,-0.9927058680405153,-0.01501714523282943
-0.002456475,-0.9927058680405153,-0.0156785263617587
-0.002455845,-0.9923755031956981,0.003501526377190173
-0.002455215,-0.9913844086612467,0.01176879048880608
-0.002454585,-0.9910540438164295,0.005485669763971223
-0.002453955,-0.9910540438164295,-0.009395405636930615
-0.002453325,-0.9890718547475266,-0.02559924329569779
-0.002452695,-0.9907236789716116,-0.02659131498909125
-0.002452065,-0.9897325844371608,-0.002120213218708616
-0.002451435,-0.9894022195923438,0.01209948105327072
-0.002450805,-0.9894022195923438,0.01573707726238172
-0.002450175,-0.9884111250578922,0.008131194279695081
-0.002449545,-0.9880807602130751,-0.01633990749069144
-0.002448915,-0.9880807602130751,-0.02394579047337461
-0.002448285,-0.9884111250578922,-0.01336369241050625
-0.002447655,-0.9877503953682583,-0.002120213218713729
-0.002447025,-0.9877503953682579,0.004824288635048718
-0.002446395,-0.9854378414545377,0.005154979199513354
-0.002445765,-0.9851074766097208,0.001848073554868523
-0.002445135,-0.9867593008338065,-0.01005678676585989
-0.002444505,-0.9854378414545385,-0.01270231128157638
-0.002443875,-0.9870896656786236,-0.01137954902371843
-0.002443245,-0.9854378414545377,0.004162907506119445
-0.002442615,-0.9857682062993548,0.006477741457370846
-0.002441985,-0.9860985711441721,-0.002781594347637889
-0.002441355,-0.9867593008338065,-0.008734024508001342
-0.002440725,-0.9847771117649043,-0.008403333943536857
-0.002440095,-0.9841163820752691,-0.01171023958818307
-0.002439465,-0.9827949226960013,-0.01468645466836149
-0.002438835,-0.9847771117649035,-0.007411262250142797
-0.002438205,-0.9827949226960004,-0.004765737734425707
-0.002437575,-0.9808127336270984,-0.002781594347638792
-0.002436945,-0.9804823687822803,-0.008403333943536706
-0.002436315,-0.981803828161549,-0.01071816789478916
-0.002435685,-0.9811430984719151,-0.00674988112121533
-0.002435055,-0.9804823687822803,-0.005427118863354979
-0.002434425,-0.9811430984719142,0.003501526377190474
-0.002433795,-0.979821639092646,0.004162907506119445
-0.002433165,-0.9778394500237431,-0.008403333943536706
-0.002432535,-0.9788305445581944,-0.0133636924105076
-0.002431905,-0.9785001797133773,-0.01633990749068798
-0.002431275,-0.9768483554892916,-0.0146864546683648
-0.002430645,-0.9771787203341086,0.0005253112970015558
-0.002430015,-0.9768483554892916,-0.000466760396385435
-0.002429385,-0.9778394500237425,0.0001946207325409804
-0.002428755,-0.9765179906444744,-0.006088499992284252
-0.002428125,-0.9775090851789259,-0.01137954902371843
-0.002427495,-0.9765179906444736,0.0005253112970062182
-0.002426865,-0.9748661664203886,-0.004435047169961071
-0.002426235,-0.9735447070411199,-0.01171023958818307
-0.002425605,-0.9742054367307539,-0.01237162071711204
-0.002424975,-0.9728839773514856,-0.006088499992284252
-0.002424345,-0.9732143421963028,-0.0060884999922835
-0.002423715,-0.9732143421963028,-0.004435047169961071
-0.002423085,-0.9718928828170341,-0.005427118863354979
-0.002422455,-0.9732143421963011,-0.008072643379078086
-0.002421825,-0.969580328903314,-0.02130026595765752
-0.002421195,-0.9699106937481312,-0.02626062442462707
-0.002420565,-0.9682588695240462,-0.01435576410390557
-0.002419935,-0.9682588695240454,0.001848073554867019
-0.002419305,-0.9682588695240454,0.01077671879541217
-0.002418675,-0.9679285046792282,0.006477741457371899
-0.002418045,-0.9685892343688626,0.0005253112970084739
-0.002417415,-0.965946315610326,-0.0209695753931968
-0.002416785,-0.967598139834411,-0.02956753006927343
-0.002416155,-0.9679285046792282,-0.0146864546683648
-0.002415525,-0.9659463156103261,0.004824288635039847
-0.002414895,-0.9666070452999596,0.01044602823094753
-0.002414265,-0.9652855859206909,0.0028401452482609
-0.002413635,-0.9639641265414223,-0.01071816789478916
-0.002413005,-0.9636337616966051,-0.01501714523282943
-0.002412375,-0.9639641265414224,-0.01898543200639966
-0.002411745,-0.9642944913862395,-0.007080571685678161
-0.002411115,-0.9633033968517879,-0.002120213218708616
-0.002410485,-0.961651572627703,-0.0001360698319217012
-0.002409855,-0.9616515726277022,-0.01336369241050625
-0.002409225,-0.9619819374725193,-0.01534783579729407
-0.002408595,-0.9603301132484342,-0.01402507353943612
-0.002407965,-0.9603301132484334,-0.01171023958818307
-0.002407335,-0.9603301132484325,-0.004435047169963026
-0.002406705,-0.9583479241795305,-0.008734024508001342
-0.002406075,-0.9566960999554447,-0.01137954902371843
-0.002405445,-0.9573568296450787,-0.01832405087747264
-0.002404815,-0.9573568296450791,-0.01171023958818307
-0.002404185,-0.9570264648002619,-0.003442975476567162
-0.002403555,-0.9560353702658109,0.0005253112970066689
-0.002402925,-0.9557050054209932,-0.003112284912102525
-0.002402295,-0.9547139108865413,-0.009064715072467183
-0.002401665,-0.9540531811969074,-0.01171023958818307
-0.002401035,-0.953392451507273,-0.01137954902371843
-0.002400405,-0.952401356972822,-0.01104885845925395
-0.002399775,-0.953062086662456,-0.01137954902371843
-0.002399145,-0.9510798975935529,-0.009064715072465979
-0.002398515,-0.9500888030591019,-0.01104885845925289
-0.002397885,-0.9504191679039187,-0.004765737734425707
-0.002397255,-0.9514102624383698,-0.001458832089778291
-0.002396625,-0.9507495327487357,0.0008560018614731102
-0.002395995,-0.9487673436798328,-0.01137954902371843
-0.002395365,-0.9487673436798321,-0.0206388848287275
-0.002394735,-0.947115519455747,-0.01898543200640507
-0.002394105,-0.9474458843005642,-0.02493786216676852
-0.002393475,-0.9454636952316621,-0.01567852636176292
-0.002392845,-0.9454636952316612,-0.008734024508001342
-0.002392215,-0.9441422358523913,0.001517382990402834
-0.002391585,-0.9414993170938553,0.002509454683796292
-0.002390955,-0.9414993170938553,-0.009064715072465979
-0.002390325,-0.9411689522490377,-0.0219616470865877
-0.002389695,-0.9405082225594038,-0.02394579047337461
-0.002389065,-0.9401778577145866,-0.01700128861961725
-0.002388435,-0.9398474928697695,-0.01005678676586304
-0.002387805,-0.9391867631801352,0.005816360328442627
-0.002387175,-0.9398474928697693,0.01209948105326666
-0.002386545,-0.9395171280249522,0.003170835812725536
-0.002385915,-0.9381956686456836,-0.01865474144194043
-0.002385285,-0.9362134795767802,-0.02692200555355468
-0.002384655,-0.9352223850423291,-0.02328440934444534
-0.002384025,-0.9362134795767807,-0.006419190556748888
-0.002383395,-0.9365438444215978,0.008792575408617435
-0.002382765,-0.9342312905078777,0.004162907506119445
-0.002382135,-0.9345616553526949,-0.006419190556748888
-0.002381505,-0.9312580069045232,-0.02460717160230388
-0.002380875,-0.9325794662837918,-0.03915755643874788
-0.002380245,-0.9315883717493394,-0.03089029232712475
-0.002379615,-0.9292758178356203,-0.01501714523282943
-0.002378985,-0.9292758178356203,0.001517382990402383
-0.002378355,-0.9286150881459863,0.009784647102014503
-0.002377725,-0.9292758178356203,0.004162907506119445
-0.002377095,-0.9279543584563517,-0.01038747733032452
-0.002376465,-0.9282847233011687,-0.01997750369979462
-0.002375835,-0.9259721693874486,-0.01700128861961725
-0.002375205,-0.9256418045426306,-0.02427648103783489
-0.002374575,-0.9236596154737285,-0.0146864546683648
-0.002373945,-0.92465071000818,-0.01005678676585989
-0.002373315,-0.923659615473729,0.004493598070577465
-0.002372685,-0.9223381560944599,-0.002450903783173253
-0.002372055,-0.9210166967151913,-0.01171023958818307
-0.002371425,-0.9206863318703742,-0.02824476781140737
-0.002370795,-0.9196952373359226,-0.01964681313533434
-0.002370165,-0.91771304826702,-0.01402507353943357
-0.002369535,-0.9187041428014711,-0.009726096201395251
-0.002368905,-0.9173826834222024,-0.006088499992284252
-0.002368275,-0.9173826834222024,-0.001789522654245935
-0.002367645,-0.9157308591981166,0.006147050892907263
-0.002367015,-0.9147397646636651,-0.01336369241050625
-0.002366385,-0.9130879404395801,-0.02229233765104737
-0.002365755,-0.9147397646636651,-0.03254374514945516
-0.002365125,-0.9140790349740301,-0.01766266974854036
-0.002364495,-0.912427210749945,-0.004104356605496434
-0.002363865,-0.9101146568362248,-0.01038747733032452
-0.002363235,-0.9101146568362252,-0.01402507353943522
-0.002362605,-0.9107753865258592,-0.01336369241050625
-0.002361975,-0.9111057513706764,-0.0007974509608500713
-0.002361345,-0.9078021029225063,-0.01104885845924914
-0.002360715,-0.9058199138536018,-0.02791407724695025
-0.002360085,-0.9054895490087839,-0.03155167345605854
-0.002359455,-0.9038377247846988,-0.02559924329569779
-0.002358825,-0.9044984544743332,-0.001458832089779344
-0.002358195,-0.9035073599398816,0.006147050892909368
-0.002357565,-0.9035073599398816,0.01077671879541217
-0.002356935,-0.9011948060261615,-0.003442975476567162
-0.002356305,-0.9008644411813445,-0.02262302821550734
-0.002355675,-0.8995429818020757,-0.04577136772804061
-0.002355045,-0.8992126169572584,-0.04378722434124181
-0.002354415,-0.8988822521124414,-0.01964681313533434
-0.002353785,-0.8975607927331728,0.003170835812725536
