Lab7/inlab/differential/sine/differential5k.csv

#Digilent WaveForms Oscilloscope Acquisition
#Device Name: Discovery2
#Serial Number: SN:210321B0E782
#Date Time: 2023-10-25 14:40:13.100
#Sample rate: 1.5873e+06Hz
#Samples: 8192
#Trigger: Source: Channel 1 Type: Edge Condition: Rising Level: -2.41 mV Hyst.: Auto HoldOff: 100 ns
#Channel 1: Range: 500 mV/div Offset: 1 V Attenuation: 1 X
#Channel 2: Range: 500 mV/div Offset: -200 mV Attenuation: 1 X
#Wavegen Channel 1: Running
#Mode: Simple
#Type: Sine
#Frequency: 5 kHz
#Period: 200 us
#Amplitude: 1 V
#Offset: 0 V
#Symmetry: 50 %
#Phase: 0 °

Time (s),Channel 1 (V),Channel 2 (V)
-0.002580262363636363,0.5795004284443575,-0.2448470875357515
-0.002579632363636364,0.5946972113059399,-0.2329422272150301
-0.002579002363636364,0.6102243590123535,-0.2369105139886003
-0.002578372363636363,0.6257515067187663,-0.245508468664681
-0.002577742363636364,0.6396268302010808,-0.2458391592291455
-0.002577112363636364,0.6554843427523045,-0.2312887743927015
-0.002576482363636364,0.6716722201483383,-0.2246749631034118
-0.002575852363636364,0.6862082733203005,-0.2263284159257319
-0.002575222363636363,0.7010746913370729,-0.2302967026993075
-0.002574592363636364,0.7146196499745704,-0.2216987480232309
-0.002573962363636364,0.7278342437672629,-0.2048335292355306
-0.002573332363636363,0.7413792024047717,-0.199873170768557
-0.002572702363636364,0.7522812422837331,-0.1909445255280159
-0.002572072363636364,0.766486930610871,-0.1849920953676524
-0.002571442363636363,0.7787104298691115,-0.1922672877858774
-0.002570812363636364,0.7912642939721581,-0.1988810990751671
-0.002570182363636363,0.8031574283855758,-0.1988810990751671
-0.002569552363636364,0.8150505627989882,-0.1873069293189102
-0.002568922363636364,0.82595260267796,-0.1684575671444206
-0.002568292363636363,0.8371850074017486,-0.1502695860988679
-0.002567662363636364,0.848417412125527,-0.1552299445658351
-0.002567032363636364,0.8570068980907732,-0.1601903030328047
-0.002566402363636363,0.8675785731249267,-0.1658120426287031
-0.002565772363636364,0.8771591536246202,-0.1648199709353096
-0.002565142363636363,0.8887219231932209,-0.1618437558551279
-0.002564512363636364,0.895329220089561,-0.1400181786004718
-0.002563882363636364,0.9029276115203588,-0.1105867183631093
-0.002563252363636363,0.9101956381063404,-0.09405219013988075
-0.002562622363636364,0.9191154889163997,-0.1013273825580994
-0.002561992363636364,0.9270442451920116,-0.1234836503772301
-0.002561362363636363,0.9343122717779924,-0.1380340352136756
-0.002560732363636364,0.9415802983639667,-0.1413409408583204
-0.002560102363636364,0.9488483249499442,-0.1158777673945434
-0.002559472363636364,0.9541341624670163,-0.08644630715720422
-0.002558842363636364,0.9587592702944592,-0.0603217525644846
-0.002558212363636363,0.9650362023459851,-0.04973965450161624
-0.002557582363636364,0.9703220398630596,-0.05966037143555533
-0.002556952363636364,0.9749471476905001,-0.08413147320593836
-0.002556322363636363,0.9785811609834908,-0.09603633352666135
-0.002555692363636364,0.9832062688109291,-0.08743837885058472
-0.002555062363636364,0.9838669985005633,-0.05999106200001994
-0.002554432363636364,0.9875010117935504,-0.02427648103785549
-0.002553802363636364,0.9898135657072722,-0.01237162071711234
-0.002553172363636363,0.9917957547761753,-0.01237162071711234
-0.002552542363636364,0.9960904977587983,-0.03055960176266734
-0.002551912363636364,0.9964208626036155,-0.05073172619501012
-0.002551282363636363,0.9967512274484336,-0.03849617530981049
-0.002550652363636364,0.9987334165173356,-0.02063888482872825
-0.002550022363636364,0.99939414620697,0.0001946207325438376
-0.002549392363636364,0.997742321982885,0.01342224331112325
-0.002548762363636364,0.9964208626036155,0.02664986588971471
-0.002548132363636363,0.9960904977587983,0.03524782056579526
-0.002547502363636364,0.9944386735347134,0.03028746209882797
-0.002546872363636364,0.9937779438450782,0.007139122586301172
-0.002546242363636363,0.9891528360176373,-0.002450903783165283
-0.002545612363636364,0.9875010117935521,0.01507569613345244
-0.002544982363636364,0.9871706469487349,0.04120025072615871
-0.002544352363636364,0.9818848094316628,0.06500997136760167
-0.002543722363636364,0.9772597016042202,0.09807902781407613
-0.002543092363636363,0.9742864180008657,0.0914652165247834
-0.002542462363636364,0.9690005804837936,0.06269513741637313
-0.002541832363636364,0.9653665671908023,0.03756265451704771
-0.002541202363636363,0.9597503648289079,0.04649129975760402
-0.002540572363636364,0.9538037976222016,0.07096240152797595
-0.002539942363636364,0.9471965007258585,0.1007245523297932
-0.002539312363636364,0.9422410280536031,0.117589771117482
-0.002538682363636364,0.9362944608468922,0.1122987220860555
-0.002538052363636363,0.9280353397264631,0.1060156013612274
-0.002537422363636364,0.9201065834508546,0.1129601032149816
-0.002536792363636364,0.9128385568648736,0.1195739145042775
-0.002536162363636363,0.9049098005892584,0.1232115107133862
-0.002535532363636364,0.897641774003284,0.1182511522464189
-0.002534902363636364,0.8857486395898664,0.1301560125671458
-0.002534272363636363,0.8774895184694335,0.1420608728878766
-0.002533642363636364,0.8689000325041911,0.1506588275639533
-0.002533012363636363,0.8596498168493105,0.1562805671598521
-0.002532382363636364,0.847426317591081,0.1595874728044969
-0.002531752363636364,0.8375153722465607,0.1708309519962961
-0.002531122363636363,0.8266133323675888,0.1675240463516498
-0.002530492363636364,0.8143898331093593,0.1678547369161144
-0.002529862363636364,0.8031574283855758,0.1724844048186193
-0.002529232363636363,0.7902731994377016,0.1867040990906058
-0.002528602363636364,0.7793711595587403,0.2025772461849011
-0.002527972363636364,0.7687994845245911,0.1847199557038108
-0.002527342363636364,0.7559152555767276,0.1675240463516575
-0.002526712363636364,0.7417095672495837,0.175460619898801
-0.002526082363636363,0.7271735140776288,0.2052227707006182
-0.002525452363636364,0.7142892851297593,0.236307683760294
-0.002524822363636364,0.7020657858715245,0.2396145894049404
-0.002524192363636363,0.6858779084754769,0.2320087064222474
-0.002523562363636364,0.6713418553035284,0.218119702714739
-0.002522932363636364,0.6574665318212076,0.2078682952163353
-0.002522302363636364,0.6416090192699909,0.2105138197320512
-0.002521672363636364,0.6264122364083944,0.2234107517461732
-0.002521042363636363,0.6108850887019877,0.2445749478719099
-0.002520412363636364,0.5956883058403983,0.2558184270637076
-0.002519782363636364,0.5788396987547231,0.25813326101496
-0.002519152363636363,0.5646340104275779,0.2578025704504874
-0.002518522363636364,0.5487764978763614,0.2402759705338696
-0.002517892363636364,0.5299457017217832,0.2353156120669001
-0.002517262363636364,0.5137578243257495,0.2475511629520861
-0.002516632363636364,0.4955877578607983,0.2673925968199699
-0.002516002363636363,0.4774176913958543,0.2875647212523126
-0.002515372363636364,0.4602387194653699,0.2859112684299902
-0.002514742363636364,0.4423990178452353,0.2730143364158686
-0.002514112363636363,0.4262111404491863,0.2673925968199661
-0.002513482363636364,0.4083714388290676,0.2591253327083539
-0.002512852363636364,0.3902013723641238,0.2554877364992429
-0.002512222363636364,0.3726920355888221,0.2687153590778224
-0.002511592363636364,0.3532005097446016,0.287234030687848
-0.002510962363636363,0.3343697135900234,0.3130278947160896
-0.002510332363636364,0.3155389174354538,0.31600410979627
-0.002509702363636364,0.2963777564360497,0.29450922310607
-0.002509072363636363,0.2772165954366462,0.2769826231894417
-0.002508442363636364,0.2593768938165277,0.2713608835935454
-0.002507812363636364,0.2408764625067665,0.2710301930290808
-0.002507182363636364,0.222376031197014,0.2826043627853378
-0.002506552363636364,0.2032148701976102,0.2971547476217871
-0.002505922363636363,0.1807500607500432,0.3222872305210994
-0.002505292363636364,0.1629103591299245,0.3325386380194985
-0.002504662363636364,0.1434188332857038,0.3242713739078872
-0.002504032363636363,0.1232665777518484,0.3024457966532106
-0.002503402363636364,0.1041054167524615,0.2789667665762321
-0.002502772363636364,0.08362279637379766,0.2710301930290808
-0.002502142363636363,0.06545272990884374,0.2806202193985646
-0.002501512363636364,0.04364865015092101,0.3011230343953627
-0.002500882363636363,0.02481785399634284,0.3229486116500287
-0.002500252363636364,0.0056566929969562,0.3312158757616408
-0.002499622363636364,-0.01482592738171662,0.3259248267302104
-0.002498992363636363,-0.03398708838112114,0.3160041097962583
-0.002498362363636364,-0.05413934391495878,0.287234030687848
-0.002497732363636364,-0.07197904553508561,0.2673925968199699
-0.002497102363636363,-0.09411349013784415,0.2855805778655405
-0.002496472363636364,-0.1132746511372308,0.319972396569847
-0.002495842363636363,-0.1314447176021747,0.3292317323748568
-0.002495212363636364,-0.1512666082911954,0.3093902985069877
-0.002494582363636364,-0.170758134135417,0.2912023174614236
-0.002493952363636363,-0.1905800248244545,0.2839271250432006
-0.002493322363636364,-0.2080893615997562,0.2816122910919492
-0.002492692363636364,-0.2272505225991516,0.2852498873010602
-0.002492062363636363,-0.2487242375122757,0.3040992494755518
-0.002491432363636364,-0.2675550336668453,0.3203030871343116
-0.002490802363636364,-0.2867161946662407,0.319972396569847
-0.002490172363636364,-0.3068684502000784,0.306414083426803
-0.002489542363636364,-0.3250385166650315,0.2822736722208785
-0.002488912363636363,-0.3432085831299754,0.2607787855306771
-0.002488282363636364,-0.3620393792845535,0.2621015477885357
-0.002487652363636364,-0.3812005402839489,0.2680539779488991
-0.002487022363636363,-0.3990402419040842,0.2882261023812496
-0.002486392363636364,-0.4175406732138367,0.3050913211689383
-0.002485762363636364,-0.4337285506098777,0.305422011733403
-0.002485132363636364,-0.4505771576955453,0.2740064081092768
-0.002484502363636364,-0.4694079538501311,0.247220472387627
-0.002483872363636363,-0.4859261960909892,0.2445749478719099
-0.002483242363636364,-0.5054177219352017,0.2683846685133637
-0.002482612363636364,-0.5212752344864255,0.2915330080258883
-0.002481982363636363,-0.5377934767272914,0.2776440043183636
-0.002481352363636364,-0.5549724486577761,0.2558184270637076
-0.002480722363636364,-0.5714906908986341,0.2376304460181526
-0.002480092363636364,-0.5880089331394847,0.2369690648892236
-0.002479462363636364,-0.6041968105355331,0.2303552535999306
-0.002478832363636363,-0.6170810394834024,0.2270483479552842
-0.002478202363636364,-0.6326081871898019,0.2392838988404702
-0.002477572363636364,-0.6484656997410327,0.2425908044851221
-0.002476942363636363,-0.6653143068267147,0.247881853516559
-0.002476312363636364,-0.6798503599986632,0.2538342836769197
-0.002475682363636364,-0.6943864131706183,0.2343235403735062
-0.002475052363636364,-0.7079313718081158,0.2072069140874184
-0.002474422363636364,-0.7218066952904427,0.1814130500591644
-0.002473792363636363,-0.7343605593934949,0.1761220010277302
-0.002473162363636364,-0.7498877070998944,0.2019158650559601
-0.002472532363636364,-0.7617808415133193,0.2280404196486781
-0.002471902363636363,-0.7763168946852795,0.232670087551175
-0.002471272363636364,-0.7875492994090578,0.2151434876345573
-0.002470642363636364,-0.7997727986672929,0.196294125460073
-0.002470012363636364,-0.8110052033910713,0.162232997320231
-0.002469382363636364,-0.8242197971837628,0.1480133030482362
-0.002468752363636363,-0.8351218370627291,0.1476826124837715
-0.002468122363636364,-0.8470149714761416,0.1681854274805696
-0.002467492363636364,-0.8569259168206619,0.1903416952997096
-0.002466862363636363,-0.8658457676307293,0.1890189330418386
-0.002466232363636364,-0.8747656184407886,0.1615716161912863
-0.002465602363636364,-0.8859980231645721,0.1328015370828629
-0.002464972363636363,-0.8945875091298217,0.1212273673265957
-0.002464342363636364,-0.9018555357157958,0.1103145786992677
-0.002463712363636363,-0.9114361162154936,0.1242035824067824
-0.002463082363636364,-0.9187041428014677,0.1387539672432198
-0.002462452363636364,-0.9272936287667173,0.1351163710341154
-0.002461822363636363,-0.9348920201975152,0.1331322276473185
-0.002461192363636364,-0.9418296819386724,0.1132907937794494
-0.002460562363636364,-0.9484369788350157,0.09179590708924804
-0.002459932363636363,-0.9553746405761785,0.08419002410656186
-0.002459302363636364,-0.9606604780932506,0.08518209579995531
-0.002458672363636363,-0.9669374101447767,0.08881969200906631
-0.002458042363636364,-0.9715625179722148,0.08915038257353079
-0.002457412363636364,-0.9745358015755714,0.07625345055941013
-0.002456782363636363,-0.9801520039374632,0.06930894870565277
-0.002456152363636364,-0.9851074766097206,0.06170306572296613
-0.002455522363636364,-0.9890718547475266,0.06798618644779422
-0.002454892363636363,-0.9920451383508823,0.05839616007831092
-0.002454262363636364,-0.9946880571094183,0.03888541677490626
-0.002453632363636364,-0.9973309758679556,0.02863400927650253
-0.002453002363636364,-0.9986524352472237,0.02797262814757356
-0.002452372363636364,-0.9999738946264929,0.02433503193846226
-0.002451742363636363,-1.002286448540213,0.02069743572935126
-0.002451112363636364,-1.002286448540213,0.01672914895577562
-0.002450482363636364,-1.000964989160944,0.01176879048880608
-0.002449852363636363,-1.000964989160944,-0.008403333943539714
-0.002449222363636364,-1.000964989160944,-0.01501714523282943
-0.002448592363636364,-1.001956083695396,-0.01633990749068798
-0.002447962363636364,-1.001625718850579,-0.01005678676586274
-0.002447332363636364,-1.000634624316127,-0.002781594347637889
-0.002446702363636363,-0.9986524352472242,-0.005096428298890343
-0.002446072363636364,-0.9963398813335052,-0.01898543200639875
-0.002445442363636364,-0.9927058680405153,-0.04014962813214179
-0.002444812363636363,-0.991054043816427,-0.05833760917770024
-0.002444182363636364,-0.9857682062993549,-0.06594349216038339
-0.002443552363636364,-0.981803828161549,-0.07917111473896885
-0.002442922363636364,-0.9785001797133789,-0.0778483524811109
-0.002442292363636364,-0.9725536125066685,-0.06627418272484806
-0.002441662363636363,-0.9672677749895939,-0.0603217525644846
-0.002441032363636364,-0.9639641265414238,-0.06891970724056123
-0.002440402363636364,-0.9580175593347133,-0.07553351852985787
-0.002439772363636363,-0.9514102624383671,-0.08909183167291515
-0.002439142363636364,-0.9448029655420269,-0.1049649787672105
-0.002438512363636364,-0.938856398335318,-0.1162084579590081
-0.002437882363636364,-0.9319187365941607,-0.1115787900565053
-0.002437252363636364,-0.9220077912496427,-0.1162084579590081
-0.002436622363636363,-0.916391588887751,-0.1284440088441996
-0.002435992363636364,-0.9078021029225086,-0.1231529598127678
-0.002435362363636364,-0.8965696981987212,-0.1330736767467045
-0.002434732363636363,-0.8883105770782883,-0.1393567974715332
-0.002434102363636364,-0.879721091113046,-0.1406795597293911
-0.002433472363636364,-0.8704708754581655,-0.1423330125517143
-0.002432842363636363,-0.8612206598032803,-0.1459706087608244
-0.002432212363636364,-0.8509793496139529,-0.1439864653740375
-0.002431582363636363,-0.8407380394246209,-0.1558913256947644
-0.002430952363636364,-0.8281841753215745,-0.1797010463362074
-0.002430322363636364,-0.8166214057529682,-0.1909445255280159
-0.002429692363636363,-0.8053890010291791,-0.1935900500437284
-0.002429062363636364,-0.7931655017709496,-0.1836693331097939
-0.002428432363636364,-0.7812723673575318,-0.1770555218205011
-0.002427802363636363,-0.7664059493407545,-0.1823465708519398
-0.002427172363636364,-0.7551735446169761,-0.1922672877858744
-0.002426542363636363,-0.742950045358741,-0.1995424802040964
-0.002425912363636364,-0.7270925328075245,-0.2058256009289216
-0.002425282363636364,-0.7145386687044651,-0.2243442725389441
-0.002424652363636363,-0.7016544397565891,-0.2259977253612651
-0.002424022363636364,-0.6871183865846406,-0.2210373668942977
-0.002423392363636364,-0.6729126982575028,-0.2078097443157123
-0.002422762363636363,-0.6570551857062726,-0.2011959330264262
-0.002422132363636364,-0.6431798622239582,-0.2157463178628636
-0.002421502363636363,-0.6269919848279173,-0.2382332762464588
-0.002420872363636364,-0.6104737425870668,-0.267664736483798
-0.002420242363636364,-0.5942858651910183,-0.2706409515639931
-0.002419612363636363,-0.5777676229501603,-0.2656805930970236
-0.002418982363636364,-0.5638922994678394,-0.243524325277893
-0.002418352363636364,-0.5453918681580783,-0.2286432498769844
-0.002417722363636363,-0.5301950852964809,-0.2336036083439625
-0.002417092363636364,-0.5123553836763621,-0.2524529705184382
-0.002416462363636364,-0.4955067765906869,-0.276262691159892
-0.002415832363636364,-0.4796492640394704,-0.2858527175293621
-0.002415202363636364,-0.4614791975745193,-0.2769240722888212
-0.002414572363636363,-0.4439698607992096,-0.2640271402747004
-0.002413942363636364,-0.4254694294894487,-0.2590667818077309
-0.002413312363636364,-0.4076297278693218,-0.2646885214036298
-0.002412682363636363,-0.3884685668699179,-0.2799002873690096
-0.002412052363636364,-0.3696377707153483,-0.294450672205447
-0.002411422363636364,-0.3537802581641245,-0.2994110306724165
-0.002410792363636364,-0.3346190971647379,-0.2799002873690118
-0.002410162363636364,-0.313806111941248,-0.2759320005954273
-0.002409532363636363,-0.2959664103211213,-0.2838685741425786
-0.002408902363636364,-0.2777963438561856,-0.2931279099475842
-0.002408272363636364,-0.2583048180119648,-0.3013951740592044
-0.002407642363636363,-0.2381525624781096,-0.3010644834947388
-0.002407012363636364,-0.219982496013174,-0.2990803401079519
-0.002406382363636364,-0.2001606053241444,-0.2961041250277702
-0.002405752363636364,-0.1816601740143917,-0.300072411801344
-0.002405122363636364,-0.162829377859805,-0.2924665288186592
-0.002404492363636363,-0.1426771223259582,-0.2898210043029421
-0.002403862363636364,-0.1215337722576694,-0.2987496495434832
-0.002403232363636364,-0.1020422464134473,-0.3195831551047593
-0.002402602363636363,-0.08387217994849361,-0.3185910834113659
-0.002401972363636364,-0.06239846503538782,-0.3199138456692239
-0.002401342363636364,-0.04290693919117528,-0.3023872457525982
-0.002400712363636364,-0.02242431881252059,-0.2898210043029478
-0.002400082363636364,-0.00392388750275019,-0.2924665288186592
-0.002399452363636363,0.01523727349664505,-0.2878368609161542
-0.002398822363636364,0.03605025872011688,-0.3004031023658046
-0.002398192363636364,0.05554178456433889,-0.3222286796204764
-0.002397562363636363,0.07470294556374296,-0.3166069400245706
-0.002396932363636364,0.0938641065631296,-0.3013951740592044
-0.002396302363636364,0.1126949027177078,-0.2855220269649018
-0.002395672363636363,0.1338382527860145,-0.2825458118847279
-0.002395042363636364,0.15200831925095,-0.2997417212368811
-0.002394412363636363,0.1731516693192485,-0.3083396759129616
-0.002393782363636364,0.19066100609455,-0.3146227966377869
-0.002393152363636364,0.2121347210076736,-0.3066862230906385
-0.002392522363636363,0.2326173413863456,-0.309001057041892
-0.002391892363636364,0.2504570430064643,-0.3113158909931434
-0.002391262363636364,0.2692878391610425,-0.2924665288186592
-0.002390632363636363,0.287788270470812,-0.2719637138218523
-0.002390002363636364,0.3066190666253819,-0.2732864760797102
-0.002389372363636363,0.32544986277996,-0.2772547628532859
-0.002388742363636364,0.3452717534689808,-0.2911437665607943
-0.002388112363636364,0.3624507253994822,-0.2987496495434873
-0.002387482363636363,0.3802904270196175,-0.2898210043029396
-0.002386852363636364,0.3994515880190042,-0.2841992647070433
-0.002386222363636364,0.417291289639131,-0.2782468345466798
-0.002385592363636363,0.4341398967248142,-0.2713023326929163
-0.002384962363636364,0.4516492335001159,-0.2577440195498724
-0.002384332363636363,0.4701496648098769,-0.2584054006788016
-0.002383702363636364,0.4889804609644465,-0.2759320005954193
-0.002383072363636364,0.5054987032053131,-0.2921358382541945
-0.002382442363636363,0.521686580601354,-0.286183408093831
-0.002381812363636364,0.5388655525318464,-0.2560905667275492
-0.002381182363636364,0.5553837947727045,-0.2319501555216308
