Lab8/inlab/1bit/1bit_100Hz_InputOutput.csv

#Digilent WaveForms Oscilloscope Acquisition
#Device Name: Discovery2
#Serial Number: SN:210321B2E135
#Date Time: 2023-11-01 14:07:07.799
#Sample rate: 40000Hz
#Samples: 8192
#Trigger: Source: Channel 2 Type: Edge Condition: Rising Level: 1.83125 V Hyst.: Auto HoldOff: 100 ns
#Channel 1: Range: 2 V/div Offset: 0 V Attenuation: 1 X
#Channel 2: Range: 2 V/div Offset: 0 V Attenuation: 1 X
#Wavegen Channel 1: Enabled
#Mode: Simple
#Type: Sine
#Frequency: 100 Hz
#Period: 10 ms
#Amplitude: 2.5 V
#Offset: 2.5 V
#Symmetry: 50 %
#Phase: 0 °
#Wavegen Channel 2: Enabled
#Mode: Simple
#Type: DC
#Offset: 5 V

Time (s),Channel 1 (V),Channel 2 (V)
-0.002388636363636357,0.1163757814522045,0.04912851617916916
-0.002363636363636346,0.1163757814522045,0.04176456085908293
-0.002338636363636348,0.1163757814522045,0.03440060553900341
-0.002313636363636351,0.1127089289490664,0.03071862787896196
-0.002288636363636354,0.1163757814522045,0.02335467255887909
-0.002263636363636357,0.1163757814522045,0.01599071723879621
-0.002238636363636345,0.1163757814522045,0.0123087395787531
-0.002213636363636348,0.1163757814522045,0.008626761918713333
-0.002188636363636351,0.1163757814522045,0.004944784258671894
-0.002163636363636354,0.1163757814522045,0.004944784258671894
-0.002138636363636356,0.1163757814522045,0.001262806598630456
-0.002113636363636345,0.1163757814522045,0.001262806598630456
-0.002088636363636348,0.1163757814522045,0.001262806598630456
-0.002063636363636351,0.1163757814522045,0.001262806598630456
-0.002038636363636354,0.1163757814522045,0.001262806598630456
-0.002013636363636356,0.1163757814522045,0.001262806598630456
-0.001988636363636345,0.1127089289490681,0.00126280659863213
-0.001963636363636348,0.1163757814522045,0.004944784258671894
-0.001938636363636351,0.1163757814522045,0.008626761918713333
-0.001913636363636353,0.1163757814522045,0.01230873957875477
-0.001888636363636356,0.1163757814522045,0.01230873957875477
-0.001863636363636345,0.1163757814522028,0.02335467255887909
-0.001838636363636348,0.1127089289490664,0.02335467255887909
-0.001813636363636351,0.1127089289490664,0.03440060553900341
-0.001788636363636353,0.1163757814522045,0.03808258319904484
-0.001763636363636356,0.1127089289490664,0.04544653851912772
-0.001738636363636345,0.1127089289490664,0.05281049383921395
-0.001713636363636348,0.1127089289490664,0.06017444915929347
-0.001688636363636351,0.1127089289490664,0.07122038213941778
-0.001663636363636353,0.1127089289490664,0.0822663151195421
-0.001638636363636356,0.1163757814522045,0.08963027043962499
-0.001613636363636345,0.1127089289490664,0.1006762034197543
-0.001588636363636348,0.1127089289490664,0.1117221363998736
-0.00156363636363635,0.1127089289490664,0.1227680693799979
-0.001538636363636353,0.1127089289490664,0.1338140023601223
-0.001513636363636356,0.1127089289490664,0.148541913000288
-0.001488636363636359,0.1127089289490664,0.1632698236404471
-0.001463636363636348,0.1127089289490664,0.1779977342806195
-0.00143863636363635,0.1127089289490664,0.1927256449207853
-0.001413636363636353,0.1127089289490664,0.207453555560951
-0.001388636363636356,0.1127089289490664,0.2258634438611582
-0.001363636363636359,0.1127089289490664,0.2405913545013173
-0.001338636363636347,0.1127089289490664,0.2590012428015311
-0.00131363636363635,0.1127089289490664,0.2774111311017383
-0.001288636363636353,0.1127089289490664,0.2958210194019455
-0.001263636363636356,0.1127089289490664,0.3142309077021528
-0.001238636363636358,0.1127089289490664,0.3326407960023516
-0.001213636363636347,0.1127089289490664,0.3510506843025671
-0.00118863636363635,0.1127089289490664,0.3694605726027743
-0.001163636363636353,0.1127089289490664,0.3915524385630229
-0.001138636363636356,0.1127089289490664,0.4136443045232716
-0.001113636363636358,0.1127089289490664,0.4357361704835102
-0.001088636363636347,0.1163757814522045,0.4578280364437688
-0.00106363636363635,0.1127089289490664,0.4799199024040175
-0.001038636363636353,0.1127089289490664,0.5056937460243075
-0.001013636363636355,0.1127089289490664,0.5277856119845561
-0.0009886363636363582,0.1127089289490664,0.5535594556048344
-0.0009636363636363471,0.1127089289490664,0.5793332992251363
-0.0009386363636363498,0.1163757814522045,0.6014251651853849
-0.0009136363636363526,0.1127089289490664,0.627199008805675
-0.0008886363636363553,0.1163757814522045,0.6566548300860064
-0.0008636363636363581,0.1127089289490681,0.6824286737062848
-0.000838636363636347,0.1127089289490664,0.7118844949866281
-0.0008136363636363497,0.1163757814522045,0.7376583386069181
-0.0007886363636363525,0.1127089289490664,0.7671141598872496
-0.0007636363636363552,0.1163757814522045,0.7965699811675812
-0.000738636363636358,0.1127089289490681,0.8260258024478992
-0.0007136363636363469,0.1127089289490664,0.8517996460682027
-0.0006886363636363496,0.1127089289490664,0.8812554673485342
-0.0006636363636363524,0.1127089289490664,0.9143932662889072
-0.0006386363636363551,0.1127089289490664,0.9438490875692387
-0.0006136363636363579,0.1127089289490664,0.9733049088495568
-0.0005886363636363467,0.1127089289490664,1.006442707789943
-0.0005636363636363495,0.1127089289490664,1.039580506730316
-0.0005386363636363523,0.1127089289490664,1.069036328010648
-0.000513636363636355,0.1127089289490664,1.098492149290979
-0.0004886363636363578,0.1163757814522028,1.135311925891377
-0.0004636363636363466,0.1163757814522045,1.164767747171725
-0.0004386363636363494,0.1127089289490664,1.201587523772139
-0.0004136363636363521,0.1127089289490664,1.234725322712512
-0.0003886363636363549,0.1127089289490664,1.267863121652885
-0.0003636363636363577,0.1127089289490664,1.301000920593243
-0.0003386363636363465,0.1163757814522045,1.337820697193673
-0.0003136363636363493,0.1127089289490664,1.374640473794087
-0.000288636363636352,0.1127089289490664,1.40777827273446
-0.0002636363636363548,0.1163757814522045,1.444598049334874
-0.0002386363636363575,0.1163757814522045,1.481417825935272
-0.0002136363636363464,0.1163757814522045,1.518237602535703
-0.0001886363636363492,0.1127089289490664,1.551375401476076
-0.0001636363636363519,0.1127089289490664,1.58819517807649
-0.0001386363636363547,0.1163757814522045,1.625014954676905
-0.0001136363636363574,0.1163757814522045,1.661834731277319
-8.86363636363463e-05,0.1127089289490664,1.698654507877734
-6.363636363634906e-05,0.1163757814522045,1.735474284478148
-3.863636363635181e-05,0.1163757814522045,1.772294061078562
-1.363636363635456e-05,0.1163757814522045,1.809113837678977
1.136363636364268e-05,0.1163757814522045,1.849615591939433
3.636363636365381e-05,0.1127089289490664,1.886435368539847
6.136363636365105e-05,0.1163757814522045,1.923255145140261
8.63636363636483e-05,0.1163757814522045,1.963756899400717
0.0001113636363636455,0.1163757814522045,2.000576676001132
0.0001363636363636428,0.1127089289490664,2.041078430261587
0.0001613636363636539,0.1163757814522045,2.077898206862002
0.0001863636363636512,0.1163757814522045,2.114717983462417
0.0002113636363636484,0.1163757814522045,2.155219737722872
0.0002363636363636457,0.1163757814522045,2.195721491983328
0.0002613636363636429,0.1163757814522045,2.232541268583742
0.000286363636363654,1.34843822250808,2.273043022844216
0.0003113636363636513,4.648605475330799,2.313544777104654
0.0003363636363636485,4.633938065318246,2.35404653136511
0.0003613636363636458,4.615603802802556,2.390866307965524
0.000386363636363643,4.60827009779628,2.427686084565939
0.0004113636363636541,4.600936392790004,2.471869816486453
0.0004363636363636514,4.600936392790004,2.50868959308685
0.0004613636363636486,4.600936392790004,2.552873325007348
0.0004863636363636459,4.597269540286867,2.589693101607762
0.0005113636363636431,4.597269540286867,2.626512878208176
0.0005363636363636543,4.597269540286868,2.66701463246865
0.0005613636363636515,4.600936392790004,2.707516386729088
0.0005863636363636487,4.597269540286867,2.744336163329502
0.000611363636363646,4.597269540286867,2.784837917589958
0.0006363636363636432,4.600936392790004,2.825339671850414
0.0006613636363636544,4.600936392790002,2.862159448450847
0.0006863636363636516,4.597269540286867,2.902661202711284
0.0007113636363636489,4.600936392790004,2.939480979311698
0.0007363636363636461,4.597269540286867,2.976300755912113
0.0007613636363636433,4.597269540286867,3.016802510172569
0.0007863636363636545,4.597269540286867,3.053622286773001
0.0008113636363636517,4.597269540286867,3.094124041033439
0.000836363636363649,4.597269540286867,3.130943817633853
0.0008613636363636462,4.600936392790004,3.171445571894309
0.0008863636363636435,4.597269540286867,3.208265348494724
0.0009113636363636546,4.597269540286867,3.241403147435115
0.0009363636363636518,4.597269540286867,3.281904901695552
0.0009613636363636491,4.597269540286867,3.318724678295967
0.0009863636363636463,4.597269540286867,3.355544454896381
0.001011363636363644,4.600936392790004,3.392364231496796
0.001036363636363655,4.597269540286867,3.429184008097225
0.001061363636363652,4.597269540286867,3.462321807037583
0.001086363636363649,4.597269540286867,3.502823561298039
0.001111363636363646,4.597269540286867,3.535961360238411
0.001136363636363644,4.597269540286867,3.572781136838826
0.001161363636363655,4.597269540286868,3.605918935779216
0.001186363636363652,4.600936392790004,3.642738712379614
0.001211363636363649,4.597269540286867,3.679558488980028
0.001236363636363647,4.597269540286867,3.709014310260359
0.001261363636363644,4.600936392790004,3.745834086860774
0.001286363636363655,4.597269540286868,3.778971885801162
0.001311363636363652,4.600936392790004,3.812109684741519
0.001336363636363649,4.597269540286867,3.845247483681892
0.001361363636363647,4.597269540286867,3.878385282622265
0.001386363636363644,4.597269540286867,3.911523081562638
0.001411363636363655,4.597269540286867,3.944660880503026
0.001436363636363652,4.597269540286867,3.977798679443384
0.00146136363636365,4.597269540286867,4.007254500723715
0.001486363636363647,4.600936392790004,4.040392299664088
0.001511363636363644,4.597269540286867,4.066166143284378
0.001536363636363655,4.597269540286868,4.099303942224765
0.001561363636363652,4.600936392790004,4.128759763505083
0.00158636363636365,4.597269540286867,4.158215584785414
0.001611363636363647,4.600936392790004,4.187671406065745
0.001636363636363644,4.597269540286867,4.217127227346078
0.001661363636363641,4.600936392790002,4.246583048626396
0.001686363636363652,4.600936392790004,4.272356892246699
0.00171136363636365,4.600936392790004,4.298130735866989
0.001736363636363647,4.597269540286867,4.323904579487279
0.001761363636363644,4.597269540286867,4.353360400767611
0.001786363636363641,4.600936392790002,4.37545226672785
0.001811363636363653,4.597269540286867,4.40122611034815
0.00183636363636365,4.600936392790004,4.42699995396844
0.001861363636363647,4.600936392790004,4.452773797588729
0.001886363636363644,4.597269540286867,4.478547641209019
0.001911363636363642,4.600936392790002,4.500639507169258
0.001936363636363653,4.600936392790004,4.522731373129517
0.00196136363636365,4.600936392790004,4.548505216749807
0.001986363636363647,4.597269540286867,4.566915105050014
0.002011363636363644,4.600936392790004,4.589006971010263
0.002036363636363642,4.600936392790004,4.611098836970501
0.002061363636363653,4.597269540286867,4.63319070293076
0.00208636363636365,4.597269540286867,4.651600591230967
0.002111363636363647,4.600936392790004,4.670010479531174
0.002136363636363645,4.600936392790004,4.688420367831381
0.002161363636363642,4.600936392790004,4.71051223379162
0.002186363636363653,4.600936392790004,4.728922122091837
0.00221136363636365,4.597269540286867,4.743650032732003
0.002236363636363647,4.600936392790004,4.758377943372169
0.002261363636363645,4.600936392790004,4.776787831672376
0.002286363636363642,4.600936392790004,4.791515742312535
0.002311363636363653,4.597269540286867,4.806243652952707
0.00233636363636365,4.597269540286867,4.820971563592873
0.002361363636363648,4.597269540286867,4.835699474233039
0.002386363636363645,4.597269540286867,4.846745407213163
0.002411363636363642,4.597269540286867,4.861473317853322
0.002436363636363653,4.597269540286867,4.872519250833453
0.00246136363636365,4.600936392790004,4.883565183813578
0.002486363636363648,4.597269540286867,4.898293094453743
0.002511363636363645,4.600936392790004,4.905657049773827
0.002536363636363642,4.597269540286868,4.916702982753946
0.002561363636363653,4.597269540286867,4.924066938074033
0.002586363636363651,4.600936392790004,4.935112871054158
0.002611363636363648,4.600936392790004,4.942476826374241
0.002636363636363645,4.600936392790004,4.949840781694324
0.002661363636363642,4.600936392790004,4.957204737014403
0.002686363636363653,4.597269540286867,4.964568692334489
0.002711363636363651,4.597269540286867,4.96825066999453
0.002736363636363648,4.600936392790004,4.971932647654572
0.002761363636363645,4.597269540286867,4.979296602974655
0.002786363636363642,4.597269540286867,4.982978580634695
0.002811363636363653,4.597269540286867,4.982978580634697
0.002836363636363651,4.600936392790004,4.986660558294738
0.002861363636363648,4.597269540286867,4.990342535954779
0.002886363636363645,4.597269540286867,4.990342535954779
0.002911363636363642,4.597269540286867,4.990342535954779
0.002936363636363654,4.597269540286867,4.99402451361482
0.002961363636363651,4.597269540286867,4.99402451361482
0.002986363636363648,4.600936392790004,4.990342535954779
0.003011363636363645,4.597269540286867,4.990342535954779
0.003036363636363643,4.600936392790004,4.990342535954779
0.003061363636363654,4.597269540286867,4.982978580634697
0.003086363636363651,4.600936392790004,4.979296602974655
0.003111363636363648,4.600936392790004,4.975614625314614
0.003136363636363645,4.597269540286867,4.971932647654572
0.003161363636363643,4.597269540286867,4.964568692334489
0.003186363636363654,4.597269540286867,4.957204737014407
0.003211363636363651,4.600936392790004,4.953522759354365
0.003236363636363648,4.597269540286867,4.946158804034282
0.003261363636363646,4.600936392790004,4.938794848714199
0.003286363636363643,4.600936392790004,4.927748915734075
0.003311363636363654,4.597269540286868,4.920384960413987
0.003336363636363651,4.600936392790004,4.909339027433868
0.003361363636363648,4.597269540286867,4.898293094453743
0.003386363636363646,4.600936392790004,4.890929139133661
0.003411363636363643,4.597269540286867,4.876201228493494
0.003436363636363654,4.597269540286867,4.865155295513365
0.003461363636363651,4.597269540286867,4.854109362533246
0.003486363636363649,4.600936392790004,4.839381451893081
0.003511363636363646,4.600936392790004,4.824653541252915
0.003536363636363643,4.597269540286867,4.813607608272791
0.003561363636363654,4.597269540286868,4.798879697632618
0.003586363636363651,4.600936392790004,4.784151786992459
0.003611363636363649,4.600936392790004,4.765741898692252
0.003636363636363646,4.600936392790004,4.751013988052086
0.003661363636363643,4.600936392790004,4.732604099751879
0.003686363636363654,4.597269540286868,4.714194211451664
0.003711363636363652,4.600936392790004,4.699466300811506
0.003736363636363649,4.600936392790004,4.677374434851257
0.003761363636363646,4.600936392790004,4.65896454655105
0.003786363636363643,4.597269540286867,4.636872680590801
0.003811363636363654,4.597269540286868,4.618462792290586
0.003836363636363652,4.600936392790004,4.600052903990387
0.003861363636363649,4.600936392790004,4.577961038030138
0.003886363636363646,4.600936392790004,4.555869172069889
0.003911363636363643,4.597269540286867,4.530095328449599
0.003936363636363654,4.597269540286867,4.50800346248934
0.003961363636363652,4.597269540286867,4.482229618869061
0.003986363636363649,4.597269540286867,4.460137752908812
0.004011363636363646,4.600936392790004,4.434363909288522
0.004036363636363643,4.597269540286867,4.412272043328273
0.004061363636363655,4.597269540286867,4.38281622204793
0.004086363636363652,4.597269540286867,4.357042378427652
0.004111363636363649,4.597269540286867,4.334950512467404
0.004136363636363646,4.600936392790004,4.309176668847114
0.004161363636363644,4.597269540286867,4.279720847566781
0.004186363636363655,4.600936392790004,4.253947003946478
0.004211363636363652,4.600936392790004,4.22449118266616
0.004236363636363649,4.600936392790004,4.195035361385829
0.004261363636363646,4.597269540286867,4.169261517765539
0.004286363636363644,4.600936392790004,4.136123718825166
0.004311363636363655,4.600936392790004,4.106667897544821
0.004336363636363652,4.600936392790004,4.077212076264503
0.004361363636363649,4.600936392790004,4.047756254984171
0.004386363636363647,4.600936392790004,4.01830043370384
0.004411363636363644,4.600936392790004,3.985162634763467
0.004436363636363655,4.600936392790002,3.952024835823081
0.004461363636363652,4.597269540286867,3.922569014542763
0.004486363636363649,4.597269540286867,3.88943121560239
0.004511363636363647,4.597269540286867,3.859975394322058
0.004536363636363644,4.600936392790004,3.823155617721644
0.004561363636363655,4.600936392790004,3.790017818781256
0.004586363636363652,4.600936392790004,3.756880019840898
0.00461136363636365,4.600936392790004,3.723742220900525
0.004636363636363647,4.600936392790004,3.686922444300111
0.004661363636363644,4.600936392790004,3.653784645359738
0.004686363636363655,4.600936392790004,3.620646846419348
0.004711363636363652,4.600936392790004,3.58382706981895
0.00473636363636365,4.600936392790004,3.550689270878578
0.004761363636363647,4.600936392790004,3.513869494278163
0.004786363636363644,4.600936392790004,3.477049717677748
0.004811363636363641,4.600936392790004,3.440229941077351
0.004836363636363653,4.600936392790004,3.40341016447692
0.00486136363636365,4.600936392790004,3.366590387876506
0.004886363636363647,4.600936392790004,3.329770611276091
0.004911363636363644,4.600936392790004,3.292950834675677
0.004936363636363642,4.600936392790004,3.256131058075279
0.004961363636363653,4.600936392790004,3.219311281474848
0.00498636363636365,4.600936392790004,3.182491504874434
0.005011363636363647,4.600936392790004,3.145671728274019
0.005036363636363644,4.597269540286867,3.105169974013563
0.005061363636363642,4.600936392790002,3.068350197413166
0.005086363636363653,4.600936392790004,3.027848443152693
0.00511136363636365,4.597269540286867,2.987346688892237
0.005136363636363647,4.600936392790004,2.950526912291823
0.005161363636363644,4.600936392790004,2.913707135691408
0.005186363636363642,4.600936392790004,2.876887359091011
0.005211363636363653,4.600936392790004,2.836385604830538
0.00523636363636365,4.600936392790004,2.795883850570082
0.005261363636363647,4.597269540286867,2.759064073969668
0.005286363636363645,4.597269540286867,2.718562319709212
0.005311363636363642,4.600936392790002,2.678060565448775
0.005336363636363653,4.597269540286867,2.641240788848342
0.00536136363636365,4.600936392790004,2.600739034587886
0.005386363636363647,4.597269540286867,2.56023728032743
0.005411363636363645,4.597269540286867,2.523417503727016
0.005436363636363642,4.600936392790002,2.482915749466578
0.005461363636363653,4.600936392790004,2.442413995206104
0.00548636363636365,4.600936392790004,2.401912240945649
0.005511363636363648,4.600936392790004,2.365092464345234
0.005536363636363645,4.600936392790004,2.32827268774482
0.005561363636363642,2.950852766378644,2.287770933484382
0.005586363636363653,0.1163757814522045,2.247269179223908
0.00561136363636365,0.07970725642082425,2.210449402623494
0.005636363636363648,0.09804151893651436,2.169947648363038
0.005661363636363645,0.1053752239427904,2.129445894102582
0.005686363636363642,0.1127089289490631,2.092626117502185
0.005711363636363653,0.1163757814522045,2.052124363241712
0.005736363636363651,0.1163757814522045,2.015304586641297
0.005761363636363648,0.1127089289490664,1.974802832380842
0.005786363636363645,0.1163757814522045,1.937983055780427
0.005811363636363642,0.1163757814522045,1.901163279180029
0.005836363636363653,0.1163757814522045,1.860661524919557
0.005861363636363651,0.1163757814522045,1.823841748319142
0.005886363636363648,0.1163757814522045,1.783339994058687
0.005911363636363645,0.1163757814522045,1.750202195118314
