Lab8/inlab/2bits/10kHz/InputOutputPart2.csv

#Digilent WaveForms Oscilloscope Acquisition
#Device Name: Discovery2
#Serial Number: SN:210321B2E135
#Date Time: 2023-11-01 14:51:16.338
#Sample rate: 7.69231e+06Hz
#Samples: 8192
#Trigger: Source: Channel 2 Type: Edge Condition: Rising Level: 1.83125 V Hyst.: Auto HoldOff: 100 ns
#Channel 1: Range: 2 V/div Offset: 0 V Attenuation: 1 X
#Channel 2: Range: 2 V/div Offset: 0 V Attenuation: 1 X
#Wavegen Channel 1: Enabled
#Mode: Simple
#Type: Sine
#Frequency: 10 kHz
#Period: 100 us
#Amplitude: 2.5 V
#Offset: 2.5 V
#Symmetry: 50 %
#Phase: 0 °
#Wavegen Channel 2: Enabled
#Mode: Simple
#Type: DC
#Offset: 5 V

Time (s),Channel 1 (V),Channel 2 (V)
0.09946757436363637,0.1017083714397524,0.07490235979940899
0.09946770436363638,0.09437466643342636,0.07858433745947555
0.09946783436363638,0.08704096142710363,0.07858433745948727
0.09946796436363638,0.09070781393029835,0.06385642681930477
0.09946809436363638,0.09804151893640096,0.06017444915906576
0.09946822436363638,0.09070781392998319,0.04544653851921311
0.09946835436363638,0.0797072564210477,0.04912851617894479
0.09946848436363638,0.0870409614272387,0.0417645608595032
0.09946861436363638,0.09070781393007324,0.0528104938392106
0.09946874436363638,0.08704096142748716,0.05281049383959905
0.09946887436363637,0.09437466643303283,0.06017444915894855
0.09946900436363637,0.09070781393038171,0.06017444915929347
0.09946913436363637,0.0943746664332596,0.07122038213906616
0.09946926436363637,0.09804151893642432,0.07122038213941778
0.09946939436363637,0.09804151893651436,0.06385642681946216
0.09946952436363637,0.08337410892410234,0.06385642681933491
0.09946965436363638,0.07604040391770292,0.06385642681933491
0.09946978436363638,0.08337410892398062,0.0638564268193165
0.09946991436363638,0.08704096142719368,0.06017444915934035
0.09947004436363638,0.09437466643330296,0.06385642681948225
0.09947017436363638,0.09070781392973806,0.07122038213921686
0.09947030436363638,0.07237355141454821,0.0638564268188259
0.09947043436363638,0.07237355141485836,0.04912851617901344
0.09947056436363638,0.07970725642100601,0.04544653851912772
0.09947069436363637,0.08337410892378051,0.04544653851912772
0.09947082436363637,0.08704096142694523,0.05281049383889917
0.09947095436363637,0.0870409614271003,0.04544653851938557
0.09947108436363637,0.08337410892406398,0.04912851617906702
0.09947121436363637,0.07970725642089763,0.04544653851920139
0.09947134436363637,0.08704096142700692,0.04544653851912772
0.09947147436363638,0.09804151893645432,0.06385642681923445
0.09947160436363638,0.09437466643338467,0.07122038213940941
0.09947173436363638,0.09804151893651436,0.06753840447937635
0.09947186436363638,0.09804151893651436,0.0675384044791905
0.09947199436363638,0.09804151893651436,0.05649247149925203
0.09947212436363638,0.09804151893639763,0.05649247149948644
0.09947225436363638,0.09437466643337633,0.06385642681947891
0.09947238436363638,0.09437466643320624,0.06753840447971793
0.09947251436363637,0.09070781393043174,0.07490235979907077
0.09947264436363637,0.07604040391835323,0.06753840447971123
0.09947277436363637,0.06870669891169033,0.06017444915957477
0.09947290436363637,0.07604040391746279,0.06385642681922273
0.09947303436363637,0.07970725642073921,0.06017444915937886
0.09947316436363637,0.07970725642082425,0.06017444915929347
0.09947329436363637,0.07237355141461158,0.06017444915929347
0.09947342436363638,0.07237355141454821,0.05281049383921729
0.09947355436363638,0.08337410892400896,0.04912851617921603
0.09947368436363638,0.09070781393028834,0.05649247149940272
0.09947381436363638,0.09437466643321958,0.06753840447937635
0.09947394436363638,0.0870409614271003,0.06753840447927087
0.09947407436363638,0.08704096142696857,0.06385642681933491
0.09947420436363638,0.08337410892380386,0.06385642681965305
0.09947433436363638,0.07970725642101101,0.07122038213885519
0.09947446436363637,0.08337410892378384,0.06017444915983094
0.09947459436363637,0.09070781392993817,0.06385642681918421
0.09947472436363637,0.0870409614272237,0.06385642681933491
0.09947485436363637,0.0870409614271003,0.06385642681933491
0.09947498436363637,0.07970725642096432,0.06753840447930604
0.09947511436363637,0.07604040391772793,0.06753840447937635
0.09947524436363638,0.07970725642080925,0.06385642681934998
0.09947537436363638,0.0797072564208476,0.05649247149922859
0.09947550436363638,0.08704096142698024,0.04912851617916916
0.09947563436363638,0.07604040391775294,0.04912851617923613
0.09947576436363638,0.07970725642082425,0.05281049383930436
0.09947589436363638,0.07970725642094431,0.05649247149913147
0.09947602436363638,0.08337410892425909,0.05281049383950864
0.09947615436363638,0.0907078139304134,0.06017444915964509
0.09947628436363637,0.09437466643318623,0.0675384044789946
0.09947641436363637,0.09804151893635261,0.0601744491596183
0.09947654436363637,0.0870409614275055,0.05649247149938766
0.09947667436363637,0.0760404039180114,0.05281049383931943
0.09947680436363637,0.07237355141462824,0.0528104938392106
0.09947693436363637,0.08704096142688686,0.04912851617922274
0.09947706436363637,0.09437466643332297,0.04912851617916916
0.09947719436363638,0.0870409614271003,0.04912851617916916
0.09947732436363638,0.09070781393018162,0.04176456085908628
0.09947745436363638,0.08337410892390724,0.04176456085925204
0.09947758436363638,0.07970725642074254,0.05281049383929264
0.09947771436363638,0.07604040391790635,0.05649247149925203
0.09947784436363638,0.08337410892409901,0.05649247149897743
0.09947797436363638,0.0870409614271003,0.04912851617933325
0.09947810436363638,0.0870409614269102,0.05281049383901972
0.09947823436363637,0.08337410892413569,0.04912851617934329
0.09947836436363637,0.08337410892396227,0.05281049383906325
0.09947849436363637,0.07970725642094265,0.05649247149913315
0.09947862436363637,0.08337410892387055,0.05281049383930269
0.09947875436363637,0.09437466643318124,0.06017444915916287
0.09947888436363637,0.1017083714395757,0.06017444915929347
0.09947901436363638,0.09437466643339634,0.05649247149926208
0.09947914436363638,0.09070781393027166,0.0491285161791859
0.09947927436363638,0.09804151893647101,0.05281049383925413
0.09947940436363638,0.09437466643330462,0.05649247149925203
0.09947953436363638,0.09070781393004156,0.05649247149944961
0.09947966436363638,0.08337410892421239,0.06385642681946049
0.09947979436363638,0.09070781393084529,0.06753840447952872
0.09947992436363638,0.1053752239429705,0.07122038213905611
0.09948005436363637,0.1090420764457433,0.06385642681970663
0.09948018436363637,0.1127089289489097,0.06753840447921897
0.09948031436363637,0.1127089289490664,0.07490235979919802
0.09948044436363637,0.1017083714399625,0.06017444915970872
0.09948057436363637,0.09804151893659106,0.05281049383936464
0.09948070436363637,0.09437466643342468,0.0528104938392106
0.09948083436363638,0.1053752239427254,0.05649247149923026
0.09948096436363638,0.1017083714396424,0.06385642681933491
0.09948109436363638,0.09437466643350306,0.06385642681927128
0.09948122436363638,0.1090420764458084,0.05649247149925203
0.09948135436363638,0.101708371439479,0.05649247149942616
0.09948148436363638,0.09437466643337633,0.06385642681979034
0.09948161436363638,0.09437466643295112,0.07858433745935835
0.09948174436363638,0.08337410892413069,0.07490235979878278
0.09948187436363637,0.08704096142690354,0.06017444916008377
0.09948200436363637,0.09070781393006989,0.04912851617967649
0.09948213436363637,0.09804151893623089,0.05281049383906827
0.09948226436363637,0.0833741089244225,0.06017444915906241
0.09948239436363637,0.07604040391785966,0.0564924714993391
0.09948252436363637,0.07604040391768624,0.05281049383927088
0.09948265436363637,0.07970725642079091,0.0528104938392106
0.09948278436363638,0.07604040391769291,0.0528104938392106
0.09948291436363638,0.07970725642086761,0.04912851617921269
0.09948304436363638,0.08704096142695522,0.0564924714993977
0.09948317436363638,0.07604040391768624,0.06753840447952705
0.09948330436363638,0.07604040391747947,0.07490235979945922
0.09948343436363638,0.06870669891180038,0.07490235979893682
0.09948356436363638,0.07970725642145123,0.0601744491588213
0.09948369436363638,0.09437466643374318,0.0491285161797217
0.09948382436363637,0.1017083714392922,0.06017444915875098
0.09948395436363637,0.09804151893666777,0.05649247149940607
0.09948408436363637,0.1053752239425403,0.06385642681908375
0.09948421436363637,0.1053752239427904,0.06385642681933491
0.09948434436363637,0.1090420764458567,0.06017444915936547
0.09948447436363637,0.1090420764459284,0.05281049383930101
0.09948460436363638,0.09804151893656439,0.0528104938392106
0.09948473436363638,0.09804151893650435,0.04912851617918925
0.09948486436363638,0.09437466643341301,0.05649247149921519
0.09948499436363638,0.09804151893651436,0.05281049383914529
0.09948512436363638,0.09804151893651436,0.04912851617889288
0.09948525436363638,0.09804151893639597,0.03808258319904484
0.09948538436363638,0.09437466643366647,0.03808258319948185
0.09948551436363638,0.1017083714396524,0.04912851617916916
0.09948564436363637,0.1017083714396524,0.04912851617916916
0.09948577436363637,0.09070781393073356,0.04912851617916916
0.09948590436363637,0.09070781393023832,0.0528104938390733
0.09948603436363637,0.08704096142721035,0.06017444915907245
0.09948616436363637,0.07970725642099101,0.06017444915929347
0.09948629436363637,0.08337410892390724,0.06017444915929347
0.09948642436363637,0.08337410892396227,0.05649247149928049
0.09948655436363638,0.08337410892396227,0.05281049383921227
0.09948668436363638,0.07604040391763621,0.04912851617921939
0.09948681436363638,0.06870669891141019,0.05649247149925203
0.09948694436363638,0.06870669891173035,0.0564924714993324
0.09948707436363638,0.08337410892438915,0.06017444915950779
0.09948720436363638,0.09804151893624423,0.06753840447951198
0.09948733436363638,0.09070781393007657,0.07122038213925537
0.09948746436363638,0.0870409614271003,0.06753840447937635
0.09948759436363637,0.0870409614271003,0.06753840447937635
0.09948772436363637,0.09070781393008991,0.06753840447937635
0.09948785436363637,0.09070781393023832,0.06385642681945715
0.09948798436363637,0.09437466643328295,0.06385642681933491
0.09948811436363637,0.09804151893644766,0.06385642681933491
0.09948824436363637,0.1017083714396124,0.06385642681933491
0.09948837436363638,0.1017083714396524,0.06385642681933491
0.09948850436363638,0.1017083714396824,0.07490235979944415
0.09948863436363638,0.1090420764459284,0.07122038213941778
0.09948876436363638,0.1090420764455866,0.07122038213941778
0.09948889436363638,0.09070781393004489,0.07122038213961202
0.09948902436363638,0.08337410892408567,0.07858433745974847
0.09948915436363638,0.0870409614271003,0.08594829277913146
0.09948928436363638,0.08704096142674679,0.07490235979963671
0.09948941436363637,0.07970725642119778,0.07858433745931313
0.09948954436363637,0.08337410892380219,0.07858433745950066
0.09948967436363637,0.09437466643298113,0.07122038213968233
0.09948980436363637,0.09437466643337633,0.06017444915960993
0.09948993436363637,0.08704096142725705,0.06385642681925621
0.09949006436363637,0.08337410892401396,0.06385642681933491
0.09949019436363638,0.07604040391773292,0.06017444915931691
0.09949032436363638,0.08337410892396895,0.06753840447938306
0.09949045436363638,0.09070781393023832,0.07490235979945922
0.09949058436363638,0.09070781393035171,0.07490235979934537
0.09949071436363638,0.09804151893651436,0.06753840447920557
0.09949084436363638,0.09804151893662608,0.06017444915940565
0.09949097436363638,0.101708371439514,0.06385642681961286
0.09949110436363638,0.09804151893668112,0.07122038213908291
0.09949123436363638,0.1017083714394589,0.06385642681914068
0.09949136436363637,0.09804151893668611,0.06017444915946593
0.09949149436363637,0.1053752239425036,0.07122038213898579
0.09949162436363637,0.1017083714397691,0.06753840447949357
0.09949175436363637,0.09070781393050845,0.0749023597992784
0.09949188436363637,0.087040961427162,0.07858433745943871
0.09949201436363637,0.1017083714395123,0.07858433745950066
0.09949214436363638,0.09070781393026332,0.08226631511953374
0.09949227436363638,0.09437466643339468,0.0822663151194316
0.09949240436363638,0.09804151893656105,0.06017444915934035
0.09949253436363638,0.1017083714396524,0.06385642681933491
0.09949266436363638,0.1017083714396524,0.06385642681933491
0.09949279436363638,0.101708371439524,0.06385642681933491
0.09949292436363638,0.09804151893666943,0.06385642681917919
0.09949305436363638,0.1017083714396524,0.06017444915911097
0.09949318436363637,0.1017083714396524,0.05649247149943454
0.09949331436363637,0.1090420764456183,0.06385642681902348
0.09949344436363637,0.112708928948938,0.07122038213915993
0.09949357436363637,0.1200426339551424,0.06017444915959486
0.09949370436363637,0.1053752239430839,0.06753840447922901
0.09949383436363637,0.1053752239427904,0.06385642681938179
0.09949396436363638,0.09804151893655438,0.06385642681933491
0.09949409436363638,0.09804151893650602,0.0601744491592851
0.09949422436363638,0.09437466643337633,0.05649247149918171
0.09949435436363638,0.09437466643337633,0.04912851617923111
0.09949448436363638,0.09437466643337633,0.05281049383948185
0.09949461436363638,0.09437466643302615,0.0638564268192177
0.09949474436363638,0.08337410892410567,0.06017444915886148
0.09949487436363638,0.08704096142761056,0.04912851617933994
0.09949500436363637,0.09804151893593407,0.05281049383901637
0.09949513436363637,0.09804151893651436,0.06385642681883261
0.09949526436363637,0.1053752239425103,0.07122038213913649
0.09949539436363637,0.112708928948843,0.07490235979934703
0.09949552436363637,0.09804151893685453,0.06753840447954713
0.09949565436363637,0.09070781393035504,0.06017444915941068
0.09949578436363637,0.08337410892402231,0.04912851617925957
0.09949591436363638,0.08704096142709697,0.05649247149924534
0.09949604436363638,0.08704096142717034,0.05281049383925748
0.09949617436363638,0.09804151893636429,0.06017444915919301
0.09949630436363638,0.08704096142733542,0.05281049383944669
0.09949643436363638,0.09804151893630425,0.06385642681986234
0.09949656436363638,0.09070781392984312,0.08226631511980666
0.09949669436363638,0.07970725642066417,0.08963027043930351
0.09949682436363638,0.07604040391768624,0.08226631511916704
0.09949695436363637,0.07604040391768624,0.07490235979981753
0.09949708436363637,0.07970725642067418,0.0564924715000055
0.09949721436363637,0.08337410892383887,0.06017444915916957
0.09949734436363637,0.09070781393004489,0.06017444915929347
0.09949747436363637,0.07970725642102935,0.07122038213921184
0.09949760436363637,0.06503984640843893,0.06753840447941821
0.09949773436363638,0.06870669891139519,0.05649247149929724
0.09949786436363638,0.06870669891145688,0.05649247149926375
0.09949799436363638,0.0833741089240423,0.06017444915933366
0.09949812436363638,0.09070781393023832,0.06385642681933491
0.09949825436363638,0.09070781392995818,0.06385642681914738
0.09949838436363638,0.07970725642094598,0.05649247149925203
0.09949851436363638,0.08337410892366545,0.05649247149940105
0.09949864436363638,0.07604040391786132,0.06017444915911766
0.09949877436363637,0.07970725642063582,0.05649247149944123
0.09949890436363637,0.08704096142677681,0.06017444915913106
0.09949903436363637,0.09070781393010324,0.06385642681919929
0.09949916436363637,0.08704096142720869,0.07490235979913272
0.09949929436363637,0.09070781393015828,0.0785843374594203
0.09949942436363637,0.09437466643332297,0.08594829277947638
0.09949955436363637,0.101708371439599,0.07490235979953959
0.09949968436363638,0.09804151893651103,0.0749023597994542
0.09949981436363638,0.09070781393026667,0.06385642681927799
0.09949994436363638,0.09437466643332131,0.05649247149919678
0.09950007436363638,0.0907078139300749,0.05281049383929264
0.09950020436363638,0.08337410892396227,0.05649247149925203
0.09950033436363638,0.08337410892423573,0.05649247149952663
0.09950046436363638,0.09070781393040173,0.06385642681933491
0.09950059436363638,0.09437466643356809,0.0638564268189498
0.09950072436363637,0.09804151893634094,0.0564924714996003
0.09950085436363637,0.08704096142754052,0.05281049383935794
0.09950098436363637,0.09804151893615919,0.05649247149913315
0.09950111436363637,0.09804151893651436,0.06385642681915073
0.09950124436363637,0.1017083714395873,0.07122038213928718
0.09950137436363637,0.109042076445855,0.06753840447941319
0.09950150436363638,0.1127089289490564,0.07858433745947052
0.09950163436363638,0.1090420764459284,0.0822663151195421
0.09950176436363638,0.1090420764458851,0.0822663151194115
0.09950189436363638,0.105375223942647,0.07122038213934578
0.09950202436363638,0.09804151893651436,0.06753840447927757
0.09950215436363638,0.09804151893638929,0.06385642681946049
0.09950228436363638,0.09437466643260929,0.06753840447860615
0.09950241436363638,0.07604040391768624,0.04912851617916916
0.09950254436363637,0.07604040391768624,0.04912851617916916
0.09950267436363637,0.09437466643259261,0.05649247149893725
0.09950280436363637,0.0980415189363843,0.06017444915916287
0.09950293436363637,0.09437466643347972,0.06385642681923111
0.09950306436363637,0.1017083714395023,0.05649247149940272
0.09950319436363637,0.09804151893656271,0.05281049383925916
0.09950332436363638,0.08704096142716533,0.0528104938392106
0.09950345436363638,0.08337410892395226,0.04544653851913275
0.09950358436363638,0.07604040391765289,0.04912851617923613
0.09950371436363638,0.07237355141460824,0.0564924715003973
0.09950384436363638,0.07604040391759953,0.1264500470778265
0.09950397436363638,0.07237355141454821,1.724428351544236
0.09950410436363638,0.07237355141511516,3.197219415543064
0.09950423436363638,0.08704096142726872,3.933614947540474
0.09950436436363638,0.0907078139306285,4.316540624177579
0.09950449436363637,0.09804151893617753,4.51168544014043
0.09950462436363637,0.09804151893651436,4.611098836966669
0.09950475436363637,0.09070781393046842,4.6663285018694
0.09950488436363637,0.08337410892413569,4.695784323150768
0.09950501436363637,0.08337410892396227,4.699466300811445
0.09950514436363637,0.08704096142706695,4.71051223379153
0.09950527436363638,0.08337410892396727,4.725240144431775
0.09950540436363638,0.09437466643339801,4.73628607741192
0.09950553436363638,0.09804151893636928,4.73628607741192
0.09950566436363638,0.0870409614271003,4.736286077411845
0.09950579436363638,0.0870409614271003,4.732604099751775
0.09950592436363638,0.0870409614271003,4.728922122091837
0.09950605436363638,0.08704096142725705,4.728922122091994
0.09950618436363638,0.09070781392968304,4.732604099751507
0.09950631436363637,0.07970725642136452,4.725240144432157
0.09950644436363637,0.06870669891187042,4.721558166771908
0.09950657436363637,0.07237355141442314,4.725240144431671
0.09950670436363637,0.0797072564206275,4.728922122091738
0.09950683436363637,0.07237355141469161,4.725240144431868
0.09950696436363637,0.07604040391764288,4.728922122091793
0.09950709436363638,0.08337410892392892,4.728922122091837
0.09950722436363638,0.08337410892397228,4.728922122091867
0.09950735436363638,0.08704096142721035,4.739968055071925
0.09950748436363638,0.09804151893657939,4.736286077411986
0.09950761436363638,0.1017083714396524,4.739968055071778
0.09950774436363638,0.101708371439534,4.732604099751879
0.09950787436363638,0.0980415189359274,4.732604099751879
0.09950800436363638,0.08337410892378885,4.732604099751705
0.09950813436363637,0.07970725642101602,4.72892212209203
0.09950826436363637,0.07604040391784965,4.72524014443196
0.09950839436363637,0.07604040391768624,4.725240144431796
0.09950852436363637,0.07604040391768624,4.725240144431796
0.09950865436363637,0.07970725642074088,4.725240144431796
0.09950878436363637,0.07604040391774126,4.72155816677181
0.09950891436363637,0.08704096142701526,4.721558166771755
0.09950904436363638,0.08337410892396394,4.725240144431794
0.09950917436363638,0.08337410892396227,4.714194211451725
0.09950930436363638,0.08337410892401563,4.721558166771862
0.09950943436363638,0.08704096142694022,4.728922122091998
0.09950956436363638,0.07970725642103769,4.736286077412028
0.09950969436363638,0.08704096142737043,4.739968055071691
0.09950982436363638,0.09437466643305284,4.732604099752042
