Lab7/inlab/difference/diffAmpAdditional2kHz.csv

#Digilent WaveForms Oscilloscope Acquisition
#Device Name: Discovery2
#Serial Number: SN:210321B0E782
#Date Time: 2023-10-25 14:26:49.931
#Sample rate: 4e+06Hz
#Samples: 8192
#Trigger: Source: Channel 1 Type: Edge Condition: Rising Level: 319.5 mV Hyst.: Auto HoldOff: 100 ns
#Channel 1: Range: 1 V/div Offset: 0 V Attenuation: 1 X
#Channel 2: Range: 200 mV/div Offset: 0 V Attenuation: 1 X
#Wavegen Channel 1: Running
#Mode: Simple
#Type: Sine
#Frequency: 2 kHz
#Period: 500 us
#Amplitude: 100 mV
#Offset: 100 mV
#Symmetry: 50 %
#Phase: 0 °
#Wavegen Channel 2: Running
#Mode: Simple
#Type: DC
#Offset: 100 mV

Time (s),Channel 1 (V),Channel 2 (V)
-0.0010239,0.02776022955114673,0.0985152619606353
-0.00102365,0.02413291300754641,0.1014914770408164
-0.0010234,0.03501486263835232,0.1001687147829591
-0.00102315,0.03864217918196088,0.09983802421849398
-0.0010229,0.04589681226917306,0.1001687147829585
-0.00102265,0.04589681226917306,0.1004994053474231
-0.0010224,0.06403339498719939,0.1008300959118877
-0.00102215,0.05315144535638359,0.1018221676052815
-0.0010219,0.05315144535638194,0.101491477040817
-0.00102165,0.04952412881277998,0.101491477040817
-0.0010214,0.03864217918196253,0.1018221676052816
-0.00102115,0.04226949572556779,0.1024835487342109
-0.0010209,0.05315144535638359,0.1028142392986756
-0.00102065,0.04589681226917306,0.1021528581697463
-0.0010204,0.05315144535638525,0.1031449298631403
-0.00102015,0.05677876189998721,0.1034756204276047
-0.0010199,0.05677876189998886,0.1044676921209983
-0.00101965,0.06403339498719939,0.1034756204276048
-0.0010194,0.05315144535638359,0.1034756204276048
-0.00101915,0.06040607844359412,0.1057904543788573
-0.0010189,0.07491534461801519,0.1047983826854632
-0.00101865,0.07491534461801189,0.1044676921209992
-0.0010184,0.06766071153080797,0.1054597638143922
-0.00101815,0.07128802807440827,0.1051290732499282
-0.0010179,0.08579729424883098,0.1061211449433219
-0.00101765,0.08579729424883098,0.1064518355077866
-0.0010174,0.08942461079243626,0.1044676921209987
-0.00101715,0.1075611935104609,0.1067825260722517
-0.0010169,0.1039338769668507,0.1077745977656451
-0.00101665,0.08942461079244285,0.1077745977656451
-0.0010164,0.1039338769668573,0.1084359788945744
-0.00101615,0.1039338769668573,0.1094280505879683
-0.0010159,0.1075611935104626,0.1090973600235036
-0.00101565,0.1184431431412817,0.1074439072011803
-0.0010154,0.125697776228484,0.1071132166367175
-0.00101515,0.1148158265976781,0.1107508128458252
-0.0010149,0.1148158265976731,0.1110815034102913
-0.00101465,0.1329524093156994,0.1114121939747561
-0.0010144,0.1474616754901205,0.1104201222813622
-0.00101415,0.1438343589465153,0.1104201222813622
-0.0010139,0.1547163085773327,0.1107508128458271
-0.00101365,0.1583436251209347,0.1114121939747563
-0.0010134,0.1547163085773327,0.1117428845392206
-0.00101315,0.154716308577331,0.1137270279260086
-0.0010129,0.1510889920337258,0.1130656467970793
-0.00101265,0.154716308577331,0.1147190996194025
-0.0010124,0.1583436251209363,0.1143884090549378
-0.00101215,0.1619709416645416,0.1124042656681491
-0.0010119,0.1619709416645416,0.1104201222813631
-0.00101165,0.1692255747517488,0.1127349562326136
-0.0010114,0.1655982582081468,0.1143884090549378
-0.00101115,0.1655982582081468,0.1150497901838671
-0.0010109,0.1873621574697784,0.1143884090549378
-0.00101065,0.1837348409261732,0.1147190996194037
-0.0010104,0.1837348409261765,0.1173646241351191
-0.00101015,0.1909894740133804,0.1163725524417261
-0.0010099,0.194616790556989,0.1157111713127964
-0.00100965,0.1982441071005942,0.1153804807483317
-0.0010094,0.1982441071005942,0.1180260052640488
-0.00100915,0.2018714236441995,0.1183566958285135
-0.0010089,0.2054987401878081,0.1193487675219068
-0.00100865,0.212753373275012,0.1180260052640494
-0.0010084,0.2200080063622225,0.1183566958285133
-0.00100815,0.2272626394494364,0.1176953146995842
-0.0010079,0.2127533732750153,0.1176953146995842
-0.00100765,0.2272626394494364,0.1183566958285135
-0.0010074,0.2272626394494331,0.1193487675219084
-0.00100715,0.2200080063622324,0.1216636014731597
-0.0010069,0.2345172725366403,0.1213329109086953
-0.00100665,0.2526538552546732,0.1213329109086952
-0.0010064,0.2453992221674627,0.1200101486508366
-0.00100615,0.2526538552546732,0.1176953146995842
-0.0010059,0.2381445890802522,0.1180260052640488
-0.00100565,0.2381445890802489,0.1196794580863731
-0.0010054,0.2308899559930449,0.1219942920376234
-0.00100515,0.2345172725366453,0.1226556731665534
-0.0010049,0.2417719056238574,0.1239784354244123
-0.00100465,0.2526538552546732,0.1226556731665537
-0.0010044,0.2599084883418837,0.1236477448599476
-0.00100415,0.2671631214290959,0.1256318882467352
-0.0010039,0.2707904379726996,0.1249705071178054
-0.00100365,0.2707904379726996,0.1233170542954838
-0.0010034,0.2816723876035154,0.1236477448599476
-0.00100315,0.2744177545163048,0.1239784354244123
-0.0010029,0.263535804885489,0.1249705071178062
-0.00100265,0.2671631214290943,0.1262932693756647
-0.0010024,0.2707904379727079,0.1253011976822705
-0.00100215,0.2889270206907176,0.1246398165533419
-0.0010019,0.2889270206907259,0.1253011976822705
-0.00100165,0.2925543372343312,0.1259625788112001
-0.0010014,0.303436286865147,0.1266239599401294
-0.00100115,0.3143182364959627,0.1276160316335233
-0.0010009,0.3179455530395697,0.1279467221979879
-0.00100065,0.3215728695831782,0.1279467221979881
-0.0010004,0.3324548192139841,0.1282774127624524
-0.00100015,0.3360821357575943,0.1282774127624526
-0.0009999,0.3288275026703838,0.1272853410690586
-0.0009996499999999999,0.3397094523011996,0.1279467221979879
-0.0009993999999999999,0.3324548192139891,0.1292694844558465
-0.0009991499999999999,0.3179455530395647,0.1305922467137055
-0.0009989,0.3106909199523608,0.1315843184070985
-0.00099865,0.3215728695831683,0.1305922467137055
-0.0009984,0.3288275026703838,0.1309229372781696
-0.0009981499999999999,0.3288275026703838,0.1312536278426343
-0.0009978999999999999,0.3288275026703838,0.1299308655847757
-0.0009976499999999999,0.3397094523012013,0.1312536278426347
-0.0009973999999999998,0.3433367688448049,0.1322456995360279
-0.00099715,0.3433367688448049,0.1315843184070992
-0.0009969,0.3397094523011996,0.1319150089715636
-0.00099665,0.3360821357575943,0.1319150089715636
-0.0009963999999999999,0.3397094523011996,0.1319150089715636
-0.0009961499999999999,0.3324548192139891,0.1322456995360282
-0.0009958999999999999,0.3433367688448115,0.1325763901004933
-0.0009956500000000001,0.3578460350192194,0.1335684617938863
-0.0009954,0.3651006681064332,0.1335684617938867
-0.00099515,0.3687279846500418,0.1345605334872806
-0.0009949,0.3759826177372523,0.1335684617938867
-0.0009946499999999999,0.3759826177372523,0.1338991523583514
-0.0009943999999999999,0.3723553011936536,0.1355526051806746
-0.0009941499999999999,0.3868645673680713,0.1355526051806752
-0.0009939,0.3941192004552753,0.1368753674385325
-0.00099365,0.3868645673680713,0.1365446768740686
-0.0009934,0.4013738335424891,0.1365446768740685
-0.0009931499999999999,0.3977465169988839,0.1372060580029977
-0.0009928999999999999,0.3904918839116733,0.1368753674385331
-0.0009926499999999999,0.386864567368073,0.1372060580029977
-0.0009923999999999998,0.3977465169988855,0.1372060580029985
-0.00099215,0.4013738335424875,0.1388595108253202
-0.0009919,0.4086284666296996,0.1372060580029977
-0.00099165,0.4086284666296996,0.1375367485674624
-0.0009913999999999999,0.4086284666296996,0.1385288202608563
-0.0009911499999999999,0.4231377328041207,0.1388595108253209
-0.0009908999999999999,0.4340196824349349,0.1391902013897857
-0.00099065,0.430392365891333,0.13952089195425
-0.0009904,0.4303923658913313,0.1388595108253212
-0.00099015,0.4303923658913313,0.1385288202608563
-0.0009898999999999999,0.4412743155221471,0.1398515825187148
-0.0009896499999999999,0.4630382147837787,0.1398515825187148
-0.0009893999999999999,0.4594108982401685,0.1408436542121096
-0.0009891499999999998,0.4485289486093593,0.1428277975988964
-0.0009889,0.4521562651529612,0.142497107034432
-0.00098865,0.4594108982401734,0.1424971070344319
-0.0009884,0.4557835816965681,0.1424971070344319
-0.0009881499999999999,0.4666655313273839,0.1421664164699672
-0.0009878999999999999,0.4666655313273839,0.1421664164699672
-0.0009876499999999999,0.4702928478709842,0.1415050353410392
-0.0009874,0.4594108982401783,0.1441505598567539
-0.00098715,0.4594108982401734,0.144811940985684
-0.0009869,0.4666655313273839,0.1431584881633612
-0.0009866499999999999,0.4630382147837787,0.1428277975988965
-0.0009863999999999999,0.4630382147837787,0.1438198692922904
-0.0009861499999999999,0.4594108982401767,0.1431584881633613
-0.0009858999999999998,0.4666655313273872,0.1434891787278273
-0.00098565,0.4739201644145912,0.1467960843724707
-0.0009854,0.4920567471326208,0.1467960843724722
-0.00098515,0.4884294305890155,0.1474574655014014
-0.0009848999999999999,0.495684063676226,0.1467960843724722
-0.0009846499999999999,0.4993113802198313,0.1454733221146136
-0.0009843999999999999,0.4956840636762228,0.147126774936938
-0.00098415,0.4884294305890188,0.1497722994526527
-0.0009839,0.5029386967634301,0.1494416088881894
-0.00098365,0.4993113802198313,0.1471267749369368
-0.0009833999999999999,0.5065660133070418,0.1474574655014014
-0.0009831499999999999,0.5065660133070418,0.1474574655014014
-0.0009828999999999999,0.4993113802198296,0.1494416088881897
-0.0009826499999999998,0.4956840636762277,0.1504336805815825
-0.0009824,0.4993113802198296,0.1491109183237252
-0.00098215,0.5101933298506471,0.14878022775926
-0.0009819,0.5174479629378577,0.1510950617105124
-0.0009816499999999999,0.5283299125686733,0.1507643711460478
-0.0009813999999999999,0.5392118621994892,0.1501029900171185
-0.0009811499999999999,0.542839178743093,0.1501029900171188
-0.0009809,0.5392118621994909,0.1507643711460475
-0.00098065,0.531957229112282,0.1517564428394413
-0.0009804,0.5392118621994892,0.1494416088881892
-0.0009801499999999999,0.5319572291122787,0.1501029900171185
-0.0009798999999999999,0.5392118621994892,0.1517564428394417
-0.0009796499999999999,0.5500938118303051,0.1507643711460475
-0.0009793999999999998,0.5500938118303068,0.1501029900171193
-0.00097915,0.5537211283739086,0.151756442839441
-0.0009789,0.5537211283739103,0.1527485145328356
-0.00097865,0.5609757614611208,0.1530792050973002
-0.0009783999999999999,0.5791123441791473,0.1537405862262295
-0.0009781499999999999,0.5754850276355419,0.1527485145328356
-0.0009778999999999999,0.5754850276355385,0.1524178239683711
-0.00097765,0.5682303945483347,0.1527485145328355
-0.0009774,0.5718577110919351,0.1537405862262291
-0.00097715,0.5754850276355419,0.156055420177482
-0.0009768999999999999,0.5646030780047262,0.1547326579196234
-0.0009766499999999999,0.5537211283739103,0.1527485145328356
-0.0009764000000000001,0.5609757614611208,0.1514257522749771
-0.0009761500000000001,0.5682303945483314,0.1527485145328356
-0.0009759,0.5791123441791473,0.1557247296130173
-0.00097565,0.6008762434407788,0.1563861107419466
-0.0009754000000000001,0.6008762434407788,0.1563861107419466
-0.00097515,0.5863669772663578,0.1567168013064112
-0.0009749,0.5754850276355419,0.1573781824353405
-0.0009746500000000001,0.5827396607227524,0.1570474918708759
-0.0009744,0.5972489268971735,0.156055420177482
-0.00097415,0.6117581930715945,0.156055420177482
-0.0009739000000000001,0.6117581930715945,0.1577088729998052
-0.0009736500000000001,0.6153855096151999,0.1583702541287344
-0.0009734,0.619012826158805,0.1580395635642698
-0.0009731500000000001,0.6117581930715945,0.1587009446931991
-0.0009729000000000001,0.6117581930715945,0.1593623258221283
-0.00097265,0.619012826158805,0.1573781824353405
-0.0009724,0.6153855096151999,0.1570474918708759
-0.0009721500000000001,0.604503559984384,0.1573781824353405
-0.0009719,0.6226401427024104,0.1580395635642698
-0.00097165,0.6335220923332261,0.1600237069510576
-0.0009714000000000001,0.6407767254204366,0.159693016386593
-0.0009711500000000001,0.6480313585076471,0.1606850880799869
-0.0009709,0.6407767254204366,0.159693016386593
-0.0009706500000000001,0.644404041964042,0.1600237069510576
-0.0009704000000000001,0.658913308138463,0.1620078503378454
-0.00097015,0.6552859915948577,0.1620078503378454
-0.0009699000000000001,0.6407767254204366,0.1623385409023101
-0.0009696500000000001,0.6552859915948577,0.1629999220312393
-0.0009694,0.6661679412256736,0.1616771597733808
-0.00096915,0.6661679412256736,0.1626692314667747
-0.0009689000000000001,0.658913308138463,0.1639919937246332
-0.00096865,0.6661679412256736,0.1636613031601686
-0.0009684,0.6770498908564893,0.163330612595704
-0.0009681500000000001,0.6770498908564893,0.1623385409023101
-0.0009679000000000001,0.6806772074000946,0.1616771597733808
-0.00096765,0.6661679412256736,0.1610157786444515
-0.0009674000000000001,0.658913308138463,0.1639919937246332
-0.0009671500000000001,0.6770498908564893,0.1646533748535625
-0.0009669,0.6915591570309103,0.1656454465469564
-0.0009666500000000001,0.6879318404873052,0.1646533748535625
-0.0009664000000000001,0.6770498908564893,0.1646533748535625
-0.00096615,0.6661679412256736,0.1646533748535625
-0.0009659,0.6697952577692787,0.1643226842890979
-0.0009656500000000001,0.6697952577692787,0.1639919937246332
-0.0009654,0.6843045239436998,0.1639919937246332
-0.00096515,0.6988137901181211,0.1659761371114211
-0.0009649000000000001,0.6915591570309103,0.1659761371114211
-0.0009646500000000001,0.6951864735745157,0.1666375182403503
-0.0009644,0.6951864735745157,0.1682909710626735
-0.0009641500000000001,0.7096957397489367,0.1659761371114211
-0.0009639000000000001,0.7169503728361473,0.1663068276758857
-0.00096365,0.7205776893797526,0.1666375182403503
-0.0009634,0.7060684232053316,0.1672988993692796
-0.0009631500000000001,0.7060684232053316,0.166968208804815
-0.0009629,0.7096957397489367,0.1682909710626735
-0.00096265,0.7133230562925421,0.1686216616271382
-0.0009624000000000001,0.7169503728361473,0.1676295899337442
-0.00096215,0.7096957397489367,0.1676295899337442
-0.0009619,0.7278323224669632,0.1696137333205321
-0.0009616500000000001,0.7205776893797526,0.1679602804982089
-0.0009614000000000001,0.7242050059233578,0.1699444238849967
-0.00096115,0.7278323224669632,0.1699444238849967
-0.0009609000000000001,0.7242050059233578,0.1699444238849967
-0.0009606500000000001,0.7278323224669632,0.170605805013926
-0.0009604,0.7350869555541737,0.1689523521916028
-0.00096015,0.7350869555541737,0.1692830427560674
-0.0009599000000000001,0.7387142720977788,0.1696137333205321
-0.00095965,0.7387142720977788,0.1699444238849967
-0.0009594,0.7314596390105683,0.1699444238849967
-0.0009591500000000001,0.7423415886413842,0.1692830427560674
-0.0009589000000000001,0.7495962217285947,0.1712671861428552
-0.00095865,0.7568508548158053,0.1725899484007138
-0.0009584000000000001,0.7641054879030158,0.1729206389651784
-0.0009581500000000001,0.7604781713594104,0.1729206389651784
-0.0009579,0.7532235382721999,0.1729206389651784
-0.0009576500000000001,0.7604781713594104,0.1729206389651784
-0.0009574000000000001,0.767732804446621,0.1732513295296431
-0.00095715,0.767732804446621,0.1739127106585723
-0.0009569,0.7641054879030158,0.1739127106585723
-0.0009566500000000001,0.7749874375338315,0.1762275446098248
-0.0009564,0.7858693871646474,0.174243401223037
-0.00095615,0.782242070621042,0.1749047823519662
-0.0009559000000000001,0.782242070621042,0.1762275446098248
-0.0009556500000000001,0.7931240202518579,0.1762275446098248
-0.0009554,0.8003786533390684,0.1749047823519662
-0.0009551500000000001,0.8040059698826736,0.1729206389651784
-0.0009549000000000001,0.8112606029698841,0.1719285672717845
-0.00095465,0.807633286426279,0.1729206389651784
-0.0009544000000000001,0.7967513367954631,0.1732513295296431
-0.0009541500000000001,0.7967513367954631,0.1752354729164309
-0.0009539,0.7967513367954631,0.1758968540453602
-0.00095365,0.7858693871646474,0.1749047823519662
-0.0009534000000000001,0.7858693871646474,0.174243401223037
-0.00095315,0.7858693871646474,0.1745740917875016
-0.0009529,0.7894967037082525,0.1758968540453602
-0.0009526500000000001,0.7931240202518579,0.1768889257387541
-0.0009524000000000001,0.8040059698826736,0.1775503068676833
-0.00095215,0.7967513367954631,0.1775503068676833
-0.0009519000000000001,0.8040059698826736,0.1775503068676833
-0.0009516500000000001,0.8040059698826736,0.1785423785610772
-0.0009514,0.7967513367954631,0.1792037596900065
-0.00095115,0.7931240202518579,0.1805265219478651
-0.0009509000000000001,0.7967513367954631,0.1775503068676833
-0.00095065,0.7931240202518579,0.1782116879966126
-0.0009504,0.8003786533390684,0.1795344502544712
-0.0009501500000000001,0.8185152360570946,0.1782116879966126
-0.0009499,0.8257698691443052,0.1782116879966126
-0.00094965,0.8221425526007,0.1795344502544712
-0.0009494000000000001,0.8221425526007,0.1792037596900065
-0.0009491500000000001,0.8366518187751211,0.1795344502544712
-0.0009489,0.8330245022315157,0.1782116879966126
-0.0009486500000000001,0.8257698691443052,0.1788730691255419
-0.0009484000000000001,0.8330245022315157,0.1818492842057236
-0.00094815,0.8366518187751211,0.1818492842057236
-0.0009479,0.8511610849495421,0.1801958313834004
-0.0009476500000000001,0.8402791353187262,0.1798651408189358
-0.0009474,0.8402791353187262,0.1818492842057236
-0.00094715,0.8475337684059367,0.1811879030767943
-0.0009469000000000001,0.8511610849495421,0.1801958313834004
-0.0009466500000000001,0.8402791353187262,0.1795344502544712
-0.0009464,0.8511610849495421,0.1808572125123297
-0.0009461500000000001,0.8547884014931475,0.1808572125123297
-0.0009459000000000001,0.8475337684059367,0.1811879030767943
-0.00094565,0.8511610849495421,0.1811879030767943
-0.0009454000000000001,0.8330245022315157,0.1811879030767943
-0.0009451500000000001,0.8402791353187262,0.1831720464635821
-0.0009449,0.8475337684059367,0.1821799747701882
-0.00094465,0.8475337684059367,0.1821799747701882
-0.0009444000000000001,0.8511610849495421,0.1831720464635821
-0.00094415,0.8475337684059367,0.1825106653346529
-0.0009439,0.8584157180367527,0.1818492842057236
-0.0009436500000000001,0.862043034580358,0.181518593641259
-0.0009434000000000001,0.8547884014931475,0.181518593641259
-0.00094315,0.8439064518623316,0.1821799747701882
-0.0009429000000000001,0.8511610849495421,0.1825106653346529
-0.0009426500000000001,0.8584157180367527,0.1838334275925114
-0.0009424,0.8547884014931475,0.1841641181569761
-0.0009421500000000001,0.8584157180367527,0.1818492842057236
-0.0009419000000000001,0.862043034580358,0.1828413558991175
-0.00094165,0.8656703511239632,0.1841641181569761
-0.0009414,0.862043034580358,0.1835027370280468
-0.0009411500000000001,0.8656703511239632,0.1828413558991175
-0.0009409,0.8692976676675686,0.1835027370280468
-0.00094065,0.8656703511239632,0.1841641181569761
-0.0009404000000000001,0.8656703511239632,0.1841641181569761
-0.0009401500000000001,0.8729249842111737,0.18515618985037
-0.0009399,0.8910615669292001,0.1858175709792992
-0.0009396500000000001,0.8910615669292001,0.1874710238016224
-0.0009394000000000001,0.9055708331036212,0.1874710238016224
-0.00093915,0.9055708331036212,0.1848254992859053
-0.0009389,0.9019435165600158,0.1854868804148346
-0.0009386500000000001,0.9019435165600158,0.18515618985037
-0.0009384,0.8910615669292001,0.1874710238016224
-0.00093815,0.8946888834728053,0.188793786059481
-0.0009379000000000001,0.9055708331036212,0.1864789521082285
-0.0009376500000000001,0.8946888834728053,0.1848254992859053
-0.0009374,0.8910615669292001,0.1861482615437639
-0.0009371500000000001,0.8983162000164107,0.1874710238016224
-0.0009369000000000001,0.8946888834728053,0.1871403332371578
-0.00093665,0.9055708331036212,0.1881324049305517
-0.0009364000000000001,0.9128254661908317,0.1874710238016224
-0.0009361500000000001,0.9273347323652528,0.1878017143660871
-0.0009359,0.9164527827344369,0.1884630954950163
-0.00093565,0.9200800992780422,0.1871403332371578
-0.0009354000000000001,0.9164527827344369,0.1878017143660871
-0.00093515,0.9200800992780422,0.1874710238016224
-0.0009349,0.9164527827344369,0.1878017143660871
-0.0009346500000000001,0.9237074158216474,0.1864789521082285
-0.0009344000000000001,0.9164527827344369,0.1874710238016224
