Lab7/inlab/difference/diffAmpAdditional10kHz.csv

#Digilent WaveForms Oscilloscope Acquisition
#Device Name: Discovery2
#Serial Number: SN:210321B0E782
#Date Time: 2023-10-25 14:27:39.981
#Sample rate: 4e+06Hz
#Samples: 8192
#Trigger: Source: Channel 1 Type: Edge Condition: Rising Level: 319.5 mV Hyst.: Auto HoldOff: 100 ns
#Channel 1: Range: 1 V/div Offset: 0 V Attenuation: 1 X
#Channel 2: Range: 200 mV/div Offset: 0 V Attenuation: 1 X
#Wavegen Channel 1: Running
#Mode: Simple
#Type: Sine
#Frequency: 10 kHz
#Period: 100 us
#Amplitude: 100 mV
#Offset: 100 mV
#Symmetry: 50 %
#Phase: 0 °
#Wavegen Channel 2: Running
#Mode: Simple
#Type: DC
#Offset: 100 mV

Time (s),Channel 1 (V),Channel 2 (V)
-0.001023785714285714,-0.9588698703094856,0.005260522781607901
-0.001023535714285714,-0.940733287591456,0.007244666168396019
-0.001023285714285714,-0.9334786545042522,0.00790604729732469
-0.001023035714285714,-0.9371059710478523,0.008236737861789476
-0.001022785714285714,-0.9298513379606435,0.008898118990718899
-0.001022535714285714,-0.9262240214170383,0.01088226237750672
-0.001022285714285714,-0.9080874386990119,0.009890190684112806
-0.001022035714285714,-0.8935781725245941,0.00889811899071965
-0.001021785714285714,-0.9008328056117997,0.01055157181304253
-0.001021535714285714,-0.8972054890681979,0.01154364350643554
-0.001021285714285714,-0.8790689063501698,0.0135277868932238
-0.001021035714285714,-0.8754415898065646,0.01451985858661771
-0.001020785714285714,-0.8573050070885382,0.01518123971554699
-0.001020535714285714,-0.8427957409141171,0.01749607366679944
-0.001020285714285714,-0.8427957409141089,0.01848814536019304
-0.001020035714285714,-0.8246591581960989,0.01782676423126438
-0.001019785714285714,-0.8210318416524872,0.0194802170535865
-0.001019535714285714,-0.799267942390854,0.02113366987591044
-0.001019285714285714,-0.7775040431292224,0.02146436044037507
-0.001019035714285714,-0.7557401438675908,0.02377919439162753
-0.001018785714285714,-0.748485510780377,0.02576333777841519
-0.001018535714285714,-0.7412308776931714,0.02543264721395101
-0.001018285714285714,-0.7448581942367732,0.02609402834287967
-0.001018035714285714,-0.7448581942367749,0.02840886229413138
-0.001017785714285714,-0.7267216115187487,0.03006231511645561
-0.001017535714285714,-0.7230942949751433,0.02873955285859707
-0.001017285714285714,-0.7049577122571171,0.03006231511645561
-0.001017035714285714,-0.7013303957135101,0.03072369624538594
-0.001016785714285714,-0.6977030791698982,0.03303853019663795
-0.001016535714285714,-0.6795664964518884,0.03436129245449528
-0.001016285714285714,-0.6868211295390907,0.03667612640574833
-0.001016035714285714,-0.6723118633646696,0.03866026979253614
-0.001015785714285714,-0.6541752806466432,0.04031372261485933
-0.001015535714285714,-0.6360386979286137,0.03998303205039499
-0.001015285714285714,-0.6287840648413999,0.04064441317932516
-0.001015035714285714,-0.614274798666992,0.04328993769503985
-0.001014785714285714,-0.58888358286176,0.04362062825950554
-0.001014535714285714,-0.5816289497745379,0.04362062825950569
-0.001014285714285714,-0.5707470001437223,0.04560477164629351
-0.001014035714285714,-0.5489831008820907,0.04791960559754596
-0.001013785714285714,-0.5344738347076629,0.04957305841987034
-0.001013535714285714,-0.5199645685332335,0.05221858293558714
-0.001013285714285714,-0.4873187196408159,0.05420272632237315
-0.001013035714285714,-0.4764367700099852,0.0555254885802326
-0.001012785714285714,-0.4655548203791695,0.05585617914469723
-0.001012535714285714,-0.4510455542047484,0.05618686970916187
-0.001012285714285714,-0.4220270218559062,0.05618686970916187
-0.001012035714285714,-0.4220270218558964,0.05717894140255773
-0.001011785714285714,-0.4002631225942845,0.06147791874059409
-0.001011535714285714,-0.3857538564198602,0.06445413382077642
-0.001011285714285714,-0.3821265398762483,0.06412344325631314
-0.001011035714285714,-0.3748719067890378,0.0637927526918485
-0.001010785714285714,-0.3422260578965904,0.06577689607863632
-0.001010535714285714,-0.3458533744401924,0.06809173002988908
-0.001010285714285714,-0.3385987413529769,0.06875311115881835
-0.001010035714285714,-0.3204621586349671,0.06941449228774701
-0.001009785714285714,-0.3132075255477483,0.07172932623899976
-0.001009535714285714,-0.2878163097425114,0.07536692244811076
-0.001009285714285714,-0.2696797270244851,0.0766896847059693
-0.001009035714285714,-0.2624250939372745,0.07702037527043394
-0.001008785714285714,-0.2660524104808715,0.07834313752829369
-0.001008535714285714,-0.2479158277628617,0.08098866204400837
-0.001008285714285714,-0.2261519285012318,0.08264211486633201
-0.001008035714285714,-0.2043880292395903,0.0839648771241913
-0.001007785714285714,-0.1826241299779587,0.08594902051097912
-0.001007535714285714,-0.1681148638035376,0.08826385446223158
-0.001007285714285714,-0.149978281085508,0.09024799784901909
-0.001007035714285714,-0.1427236479982876,0.08958661672009058
-0.001006785714285714,-0.1137051156494718,0.09057868841348357
-0.001006535714285714,-0.09556853293143232,0.09289352236473648
-0.001006285714285714,-0.06655000058259018,0.0948776657515243
-0.001006035714285714,-0.03753146823374806,0.0985152619606353
-0.001005785714285714,-0.02664951860293226,0.09785388083170603
-0.001005535714285714,-0.01576756897210656,0.09917664308956516
-0.001005285714285714,0.005996330289505233,0.1004994053474225
-0.001005035714285714,0.02776022955113683,0.1008300959118876
-0.001004785714285714,0.02776022955114673,0.1044676921209987
-0.001004535714285714,0.04952412881277832,0.1057904543788573
-0.001004285714285714,0.06403339498719939,0.108766669459039
-0.001004035714285714,0.07128802807442147,0.1090973600235041
-0.001003785714285714,0.09667924387965009,0.1100894317168985
-0.001003535714285714,0.103933876966854,0.1120735751036845
-0.001003285714285714,0.1148158265976731,0.1130656467970793
-0.001003035714285714,0.14020704240291,0.1147190996194025
-0.001002785714285714,0.1619709416645416,0.1170339335706549
-0.001002535714285714,0.1655982582081468,0.116041861877261
-0.001002285714285714,0.1801075243825696,0.1176953146995851
-0.001002035714285714,0.1837348409261715,0.1196794580863711
-0.001001785714285714,0.2054987401877948,0.1229863637310169
-0.001001535714285714,0.2272626394494364,0.1239784354244123
-0.001001285714285714,0.2417719056238574,0.1249705071178062
-0.001001035714285714,0.2707904379726996,0.1266239599401294
-0.001000785714285714,0.2780450710599167,0.1289387938913829
-0.001000535714285714,0.2925543372343328,0.1312536278426344
-0.001000285714285714,0.2961816537779348,0.1315843184070988
-0.001000035714285714,0.3143182364959627,0.1332377712294221
-0.0009997857142857143,0.3433367688448049,0.1358832957451392
-0.0009995357142857143,0.357846035019226,0.1381981296963916
-0.0009992857142857143,0.3796099342808575,0.1411743447765734
-0.0009990357142857142,0.3941192004552869,0.1424971070344319
-0.0009987857142857144,0.4122557831732966,0.1424971070344319
-0.0009985357142857144,0.4158830997169085,0.1428277975988964
-0.0009982857142857144,0.4340196824349365,0.1441505598567551
-0.0009980357142857143,0.4521562651529629,0.1438198692922904
-0.0009977857142857143,0.4630382147837787,0.1471267749369368
-0.0009975357142857143,0.4775474809582096,0.1491109183237257
-0.0009972857142857142,0.4993113802198346,0.1514257522749761
-0.0009970357142857144,0.5065660133070384,0.1494416088881902
-0.0009967857142857144,0.5247025960250682,0.1507643711460478
-0.0009965357142857143,0.5428391787430946,0.152417823968371
-0.0009962857142857143,0.5428391787430946,0.1544019673551588
-0.0009960357142857143,0.5464664952866998,0.1540712767906942
-0.0009957857142857142,0.5754850276355469,0.1557247296130184
-0.0009955357142857144,0.5863669772663528,0.1580395635642687
-0.0009952857142857144,0.5899942938099613,0.1587009446931988
-0.0009950357142857144,0.6081308765279894,0.1600237069510576
-0.0009947857142857143,0.6298947757896209,0.1610157786444515
-0.0009945357142857143,0.6516586750512525,0.163330612595704
-0.0009942857142857143,0.6661679412256786,0.1633306125957047
-0.0009940357142857142,0.6770498908564909,0.1649840654180273
-0.0009937857142857144,0.680677207400093,0.1653147559824917
-0.0009935357142857144,0.6951864735745091,0.1663068276758853
-0.0009932857142857143,0.7060684232053316,0.1692830427560674
-0.0009930357142857143,0.7133230562925421,0.1709364955783906
-0.0009927857142857143,0.7242050059233578,0.1729206389651784
-0.0009925357142857142,0.7350869555541836,0.1742434012230368
-0.0009922857142857142,0.7568508548158053,0.1739127106585728
-0.0009920357142857144,0.7568508548158053,0.1749047823519658
-0.0009917857142857144,0.7568508548158053,0.1752354729164309
-0.0009915357142857143,0.7641054879030158,0.1745740917875016
-0.0009912857142857143,0.7786147540774369,0.1762275446098248
-0.0009910357142857143,0.7786147540774369,0.1752354729164309
-0.0009907857142857142,0.7894967037082591,0.1782116879966138
-0.0009905357142857144,0.804005969882667,0.1808572125123285
-0.0009902857142857144,0.8185152360570881,0.1825106653346521
-0.0009900357142857143,0.8330245022315157,0.1828413558991175
-0.0009897857142857143,0.8475337684059367,0.1831720464635821
-0.0009895357142857143,0.862043034580358,0.1844948087214407
-0.0009892857142857142,0.872924984211177,0.1851561898503697
-0.0009890357142857142,0.8801796172983876,0.1844948087214408
-0.0009887857142857144,0.8874342503855914,0.1848254992859052
-0.0009885357142857144,0.8910615669292001,0.1854868804148346
-0.0009882857142857143,0.8983162000164107,0.1871403332371578
-0.0009880357142857143,0.8946888834728053,0.1891244766239456
-0.0009877857142857143,0.9091981496472263,0.1891244766239456
-0.0009875357142857142,0.9200800992780488,0.1884630954950169
-0.0009872857142857144,0.9345893654524567,0.1897858577528743
-0.0009870357142857144,0.945471315083274,0.1904472388818038
-0.0009867857142857143,0.9418439985396738,0.1921006917041273
-0.0009865357142857143,0.9345893654524633,0.1934234539619859
-0.0009862857142857143,0.9418439985396738,0.1917700011396627
-0.0009860357142857142,0.9599805812577017,0.1921006917041273
-0.0009857857142857142,0.9636078978013104,0.1921006917041281
-0.0009855357142857144,0.9744898474321161,0.1937541445264498
-0.0009852857142857144,0.9744898474321211,0.1937541445264505
-0.0009850357142857143,0.9672352143449106,0.1944155256553798
-0.0009847857142857143,0.9744898474321211,0.1940848350909151
-0.0009845357142857143,0.9817444805193316,0.1944155256553798
-0.0009842857142857142,0.9889991136065405,0.1940848350909147
-0.0009840357142857144,0.9853717970629386,0.1930927633975217
-0.0009837857142857144,0.9889991136065405,0.1944155256553792
-0.0009835357142857144,0.999881063237358,0.1983838124289554
-0.0009832857142857143,0.9962537466937527,0.1963996690421676
-0.0009830357142857143,1.003508379780963,0.1950769067843091
-0.0009827857142857143,1.00713569632457,0.197722431300026
-0.0009825357142857142,1.010763012868177,0.1973917407355612
-0.0009822857142857144,1.018017645955381,0.1967303596066325
-0.0009820357142857144,1.010763012868174,0.1957382879132383
-0.0009817857142857143,0.999881063237358,0.1973917407355615
-0.0009815357142857143,1.007135696324569,0.1970610501710969
-0.0009812857142857143,1.007135696324569,0.1967303596066322
-0.0009810357142857142,1.007135696324569,0.1987145029934202
-0.0009807857142857144,1.007135696324569,0.1990451935578845
-0.0009805357142857144,1.021644962498983,0.1977224313000268
-0.0009802857142857144,1.025272279042595,0.1954075973487737
-0.0009800357142857143,1.018017645955384,0.1950769067843091
-0.0009797857142857143,1.014390329411779,0.1957382879132383
-0.0009795357142857143,1.021644962498991,0.1970610501710975
-0.0009792857142857142,1.025272279042593,0.1983838124289546
-0.0009790357142857144,1.021644962498991,0.196730359606633
-0.0009787857142857144,1.018017645955384,0.196068978477703
-0.0009785357142857143,1.018017645955384,0.1970610501710969
-0.0009782857142857143,1.02164496249899,0.196068978477703
-0.0009780357142857143,0.999881063237358,0.1957382879132383
-0.0009777857142857142,0.9962537466937577,0.1950769067843095
-0.0009775357142857144,1.007135696324564,0.1960689784777025
-0.0009772857142857144,1.007135696324569,0.1950769067843095
-0.0009770357142857144,1.003508379780963,0.1944155256553798
-0.0009767857142857143,1.003508379780963,0.1947462162198444
-0.0009765357142857143,1.007135696324569,0.1930927633975212
-0.0009762857142857144,0.999881063237358,0.1917700011396627
-0.0009760357142857143,1.007135696324569,0.1907779294462688
-0.0009757857142857143,0.9962537466937527,0.1914393105751981
-0.0009755357142857143,1.003508379780963,0.1921006917041273
-0.0009752857142857143,0.9962537466937527,0.1927620728330566
-0.0009750357142857143,0.9889991136065421,0.1904472388818041
-0.0009747857142857143,0.985371797062937,0.1897858577528749
-0.0009745357142857143,0.9708625308885159,0.1884630954950163
-0.0009742857142857143,0.9599805812577,0.1884630954950163
-0.0009740357142857143,0.945471315083279,0.1897858577528749
-0.0009737857142857144,0.9418439985396738,0.1907779294462688
-0.0009735357142857143,0.9382166819960684,0.1884630954950163
-0.0009732857142857143,0.9345893654524633,0.1874710238016224
-0.0009730357142857144,0.9345893654524633,0.1864789521082285
-0.0009727857142857143,0.9237074158216474,0.1848254992859053
-0.0009725357142857143,0.8983162000164107,0.1825106653346529
-0.0009722857142857143,0.8838069338419896,0.1811879030767943
-0.0009720357142857143,0.8838069338419896,0.1811879030767943
-0.0009717857142857143,0.8729249842111737,0.1805265219478651
-0.0009715357142857143,0.8511610849495421,0.1805265219478651
-0.0009712857142857144,0.8547884014931475,0.1801958313834004
-0.0009710357142857143,0.8475337684059367,0.1798651408189358
-0.0009707857142857143,0.8439064518623316,0.1785423785610772
-0.0009705357142857144,0.8221425526007,0.1762275446098248
-0.0009702857142857143,0.8040059698826736,0.1765582351742894
-0.0009700357142857143,0.8112606029698841,0.1752354729164309
-0.0009697857142857144,0.8112606029698841,0.1755661634808955
-0.0009695357142857143,0.8003786533390684,0.1745740917875016
-0.0009692857142857143,0.7894967037082525,0.1712671861428552
-0.0009690357142857143,0.782242070621042,0.1692830427560674
-0.0009687857142857143,0.7713601209902263,0.1689523521916028
-0.0009685357142857143,0.7568508548158053,0.1689523521916028
-0.0009682857142857143,0.7423415886413842,0.1672988993692796
-0.0009680357142857144,0.7459689051849894,0.1663068276758857
-0.0009677857142857143,0.7459689051849894,0.1639919937246332
-0.0009675357142857143,0.7205776893797526,0.1629999220312393
-0.0009672857142857144,0.6951864735745157,0.1606850880799869
-0.0009670357142857143,0.6806772074000946,0.1590316352576637
-0.0009667857142857143,0.6734225743128841,0.1606850880799869
-0.0009665357142857144,0.6734225743128841,0.1600237069510576
-0.0009662857142857143,0.658913308138463,0.1587009446931991
-0.0009660357142857143,0.658913308138463,0.156055420177482
-0.0009657857142857143,0.6371494088768315,0.1553940390485527
-0.0009655357142857143,0.6298947757896209,0.1550633484840881
-0.0009652857142857143,0.6117581930715945,0.1550633484840881
-0.0009650357142857143,0.6081308765279894,0.1537405862262295
-0.0009647857142857144,0.604503559984384,0.1510950617105124
-0.0009645357142857143,0.5863669772663578,0.1491109183237246
-0.0009642857142857143,0.5682303945483314,0.1467960843724722
-0.0009640357142857144,0.5464664952866998,0.1448119409856843
-0.0009637857142857143,0.5138206463942523,0.1438198692922904
-0.0009635357142857143,0.4920567471326208,0.1438198692922904
-0.0009632857142857143,0.4775474809581997,0.1424971070344319
-0.0009630357142857143,0.4702928478709892,0.1405129636476441
-0.0009627857142857143,0.4630382147837787,0.1388595108253209
-0.0009625357142857143,0.4521562651529629,0.1365446768740685
-0.0009622857142857144,0.4303923658913313,0.134229842922816
-0.0009620357142857143,0.4158830997169102,0.1352219146162099
-0.0009617857142857143,0.4086284666296996,0.1332377712294221
-0.0009615357142857144,0.3977465169988839,0.1315843184070989
-0.0009612857142857143,0.3868645673680681,0.1292694844558465
-0.0009610357142857143,0.3759826177372523,0.126954650504594
-0.0009607857142857144,0.3614733515628312,0.1256318882467355
-0.0009605357142857143,0.3288275026703838,0.1253011976822708
-0.0009602857142857143,0.2998089703215417,0.1229863637310184
-0.0009600357142857143,0.2816723876035154,0.1206715297797659
-0.0009597857142857143,0.2780450710599101,0.119679458086372
-0.0009595357142857143,0.2780450710599101,0.1180260052640488
-0.0009592857142857143,0.2744177545163048,0.1153804807483317
-0.0009590357142857144,0.2453992221674627,0.1157111713127964
-0.0009587857142857143,0.2272626394494364,0.1153804807483317
-0.0009585357142857143,0.2127533732750153,0.1147190996194025
-0.0009582857142857144,0.194616790556989,0.1127349562326146
-0.0009580357142857143,0.1655982582081468,0.1100894317168976
-0.0009577857142857143,0.1510889920337258,0.1084359788945744
-0.0009575357142857144,0.1293250927720942,0.1074439072011805
-0.0009572857142857143,0.1148158265976731,0.1064518355077866
-0.0009570357142857143,0.1039338769668573,0.1044676921209987
-0.0009567857142857143,0.08579729424883098,0.1031449298631402
-0.0009565357142857143,0.07128802807440993,0.1021528581697463
-0.0009562857142857143,0.05677876189998886,0.09884595252509994
-0.0009560357142857143,0.04589681226917306,0.09686180913831212
-0.0009557857142857144,0.03501486263835726,0.09553904688045357
-0.0009555357142857143,0.01687827992033093,0.09520835631598894
-0.0009552857142857143,-0.001258302797695399,0.09289352236473648
-0.0009550357142857144,-0.02302220205932699,0.09090937897794867
-0.0009547857142857143,-0.04478610132095859,0.08925592615562548
-0.0009545357142857143,-0.06292268403898492,0.0876024733333023
-0.0009542857142857144,-0.08831389984422178,0.08462625825312058
-0.0009540357142857143,-0.1100777991058534,0.08495694881758521
-0.0009537857142857143,-0.1064504825622481,0.08429556768865594
-0.0009535357142857143,-0.1173324321930639,0.08330349599526203
-0.0009532857142857143,-0.1209597487366692,0.08131935260847421
-0.0009530357142857143,-0.1390963314546955,0.0793352092216864
-0.0009527857142857143,-0.1572329141727218,0.07801244696382785
-0.0009525357142857144,-0.1717421803471429,0.07702037527043394
-0.0009522857142857143,-0.1898787630651692,0.0756976130125754
-0.0009520357142857143,-0.1971333961523798,0.07470554131918149
-0.0009517857142857144,-0.2116426623268008,0.07172932623899976
-0.0009515357142857143,-0.2297792450448272,0.06974518285221196
-0.0009512857142857143,-0.240661194675643,0.06809173002988878
-0.0009510357142857143,-0.2769343601116956,0.0674303489009595
-0.0009507857142857143,-0.2914436262861167,0.06445413382077778
-0.0009505357142857143,-0.2914436262861167,0.06147791874059605
-0.0009502857142857143,-0.3204621586349588,0.06180860930506069
-0.0009500357142857144,-0.3385987413529851,0.06213929986952532
-0.0009497857142857143,-0.3494806909838009,0.06081653761166678
-0.0009495357142857143,-0.3712445902454325,0.05883239422487896
-0.0009492857142857144,-0.3821265398762483,0.05618686970916187
-0.0009490357142857143,-0.3893811729634589,0.05354134519344478
-0.0009487857142857143,-0.4002631225942747,0.05221858293558623
-0.0009485357142857144,-0.4292816549431168,0.05254927350005087
-0.0009482857142857143,-0.4329089714867221,0.05089582067772769
-0.0009480357142857143,-0.4474182376611431,0.04891167729093987
-0.0009477857142857143,-0.4764367700099852,0.04858098672647523
-0.0009475357142857143,-0.4909460361844063,0.04659684333968742
-0.0009472857142857143,-0.4945733527280116,0.04593546221075814
-0.0009470357142857143,-0.5018279858152221,0.04494339051736423
-0.0009467857142857144,-0.5235918850768537,0.04130579430825324
-0.0009465357142857143,-0.5489831008820907,0.04064441317932396
-0.0009462857142857143,-0.5671196836001169,0.03998303205039469
-0.0009460357142857144,-0.5780016332309328,0.03799888866360687
-0.0009457857142857143,-0.5780016332309328,0.03700681697021296
-0.0009455357142857143,-0.5997655324925644,0.03336922076110198
-0.0009452857142857144,-0.6251567482978011,0.03369991132556661
