Lab7/inlab/difference/diffAmpB_inputSquare.csv

#Digilent WaveForms Oscilloscope Acquisition
#Device Name: Discovery2
#Serial Number: SN:210321B0E782
#Date Time: 2023-10-25 14:13:31.432
#Sample rate: 1.42857e+07Hz
#Samples: 8192
#Trigger: Source: Channel 1 Type: Edge Condition: Rising Level: 319.5 mV Hyst.: Auto HoldOff: 100 ns
#Channel 1: Range: 1 V/div Offset: 0 V Attenuation: 1 X
#Channel 2: Range: 200 mV/div Offset: 0 V Attenuation: 1 X
#Wavegen Channel 1: Enabled
#Mode: Simple
#Type: Sine
#Frequency: 5 kHz
#Period: 200 us
#Amplitude: 100 mV
#Offset: 0 V
#Symmetry: 50 %
#Phase: 0 °
#Wavegen Channel 2: Enabled
#Mode: Simple
#Type: Pulse
#Frequency: 10 kHz
#Period: 100 us
#Amplitude: 200 mV
#Offset: 0 V
#Symmetry: 10 %
#Phase: 90 °

Time (s),Channel 1 (V),Channel 2 (V)
-0.000286699,0.3977465169988839,-0.00234536020107873
-0.000286629,0.4086284666296996,-0.002676050765543366
-0.000286559,0.4050011500860961,-0.002676050765543216
-0.000286489,0.4086284666296996,-0.00234536020107873
-0.000286419,0.4050011500860944,-0.002676050765543366
-0.000286349,0.408628466629698,-0.001353288507683919
-0.000286279,0.4050011500860944,0.0006308548791029952
-0.000286209,0.3941192004552786,-3.052624982627703e-05
-0.000286139,0.4050011500860944,-0.001353288507684671
-0.000286069,0.4050011500860944,-0.001022597943220185
-0.000285999,0.4013738335424891,-0.001022597943220185
-0.000285929,0.4013738335424825,-0.00234536020107873
-0.000285859,0.3868645673680681,-0.00234536020107873
-0.000285789,0.3832372508244628,-0.001683979072149458
-0.000285719,0.3723553011936453,-0.002676050765542915
-0.000285649,0.3687279846500418,-0.001683979072149458
-0.000285579,0.3687279846500418,-0.0006919073787555493
-0.000285509,0.3796099342808559,-0.002676050765542464
-0.000285439,0.3759826177372539,-0.0006919073787564518
-0.000285369,0.3759826177372523,-0.003006741330008002
-0.000285299,0.3687279846500418,-0.002014669636614244
-0.000285229,0.3687279846500418,-0.002345360201078579
-0.000285159,0.3651006681064365,-0.002014669636614094
-0.000285089,0.3614733515628312,-0.00234536020107873
-0.000285019,0.3614733515628312,-0.00234536020107873
-0.000284949,0.3614733515628312,-0.002676050765543366
-0.000284879,0.3578460350192243,-0.003337431894472638
-0.000284809,0.3542187184756224,-0.003337431894472638
-0.000284739,0.3433367688448049,-0.002676050765543366
-0.000284669,0.3360821357575943,-0.002014669636614395
-0.000284599,0.3360821357575943,-0.002676050765543066
-0.000284529,0.3360821357575943,-0.001022597943220185
-0.000284459,0.3252001861267851,-0.00135328850768422
-0.000284389,0.339709452301193,-3.052624982687849e-05
-0.000284319,0.3360821357575943,0.0003001643146383591
-0.000284249,0.3433367688448032,0.001953617136961089
-0.000284179,0.3397094523012013,0.0009615454435680825
-0.000284109,0.3288275026703838,0.0003001643146383591
-0.000284039,0.3324548192139825,0.000300164314637908
-0.000283969,0.3179455530395746,-0.0006919073787550981
-0.000283899,0.3143182364959627,0.0003001643146383591
-0.000283829,0.3143182364959627,-0.0006919073787555493
-0.000283759,0.3143182364959627,-0.0006919073787555493
-0.000283689,0.3143182364959627,-0.001353288507684821
-0.000283619,0.3106909199523608,-0.001022597943220486
-0.000283549,0.3179455530395647,-0.001683979072149157
-0.000283479,0.3143182364959627,-0.001353288507684821
-0.000283409,0.3106909199523542,-0.003337431894472037
-0.000283339,0.3034362868651502,-0.002014669636614695
-0.000283269,0.2925543372343312,-0.004660194152331183
-0.000283199,0.2889270206907276,-0.004660194152330732
-0.000283129,0.2925543372343295,-0.003668122458937726
-0.000283059,0.2889270206907259,-0.001683979072149458
-0.000282989,0.2852997041471223,-0.00135328850768422
-0.000282919,0.2889270206907242,-3.052624982687849e-05
-0.000282849,0.2816723876035154,0.0003001643146383591
-0.000282779,0.2889270206907242,-0.001683979072148856
-0.000282709,0.2852997041471223,-0.0003612168142915146
-0.000282639,0.2816723876035154,0.0003001643146383591
-0.000282569,0.2816723876035154,-0.0006919073787555493
-0.000282499,0.2816723876035154,-0.001353288507684521
-0.000282429,0.2816723876035154,-0.0006919073787555493
-0.000282359,0.2671631214290943,-0.001683979072149458
-0.000282289,0.259908488341887,-0.002014669636613943
-0.000282219,0.2562811717982785,-0.00234536020107873
-0.000282149,0.2562811717982785,-0.001353288507684821
-0.000282079,0.2490265387110712,-0.001683979072149307
-0.000282009,0.2562811717982785,-0.0006919073787555493
-0.000281939,0.2599084883418837,-3.052624982627703e-05
-0.000281869,0.2599084883418837,-0.0003612168142907628
-0.000281799,0.263535804885489,-0.0003612168142909132
-0.000281729,0.2599084883418837,-0.001683979072149458
-0.000281659,0.2562811717982801,-0.001683979072149458
-0.000281589,0.2526538552546732,-0.0006919073787555493
-0.000281519,0.2453992221674627,-0.0003612168142909132
-0.000281449,0.2417719056238591,-0.001022597943219885
-0.000281379,0.2490265387110679,-0.0003612168142909132
-0.000281309,0.2417719056238574,0.0006308548791029952
-0.000281239,0.2417719056238574,-0.000361216814290462
-0.000281169,0.2490265387110679,-0.0003612168142909132
-0.000281099,0.2453992221674627,-0.001353288507684821
-0.000281029,0.2381445890802555,-0.001022597943220336
-0.000280959,0.2345172725366469,-0.004329503587866546
-0.000280889,0.2272626394494364,-0.002676050765543366
-0.000280819,0.2163806898186255,-0.003006741330007852
-0.000280749,0.20912605673141,-0.00234536020107873
-0.000280679,0.2127533732750153,-0.001353288507684821
-0.000280609,0.2200080063622225,-0.0006919073787558501
-0.000280539,0.2200080063622258,0.0006308548791029952
-0.000280469,0.2308899559930416,-0.0003612168142909132
-0.000280399,0.227262639449438,-0.0003612168142909132
-0.000280329,0.2236353229058311,-3.052624982627703e-05
-0.000280259,0.2272626394494364,-0.0003612168142909132
-0.000280189,0.2272626394494364,-0.001022597943219885
-0.000280119,0.20912605673141,-0.001022597943220185
-0.000280049,0.1982441071005942,-0.002014669636614094
-0.000279979,0.1837348409261798,-0.001683979072149608
-0.000279909,0.1873621574697784,-0.0003612168142909132
-0.000279839,0.1909894740133837,-0.0003612168142909132
-0.000279769,0.1837348409261765,-0.0003612168142909132
-0.000279699,0.1873621574697784,0.0003001643146383591
-0.000279629,0.2018714236441995,-0.0006919073787555493
-0.000279559,0.187362157469785,-0.0006919073787555493
-0.000279489,0.1837348409261732,-0.00234536020107873
-0.000279419,0.1801075243825679,-0.002014669636614094
-0.000279349,0.1837348409261715,-0.002014669636614094
-0.000279279,0.1728528912953574,-0.002676050765543366
-0.000279209,0.1510889920337258,-0.001353288507684821
-0.000279139,0.1510889920337258,-0.003668122458936222
-0.000279069,0.1510889920337258,-0.003668122458937275
-0.000278999,0.154716308577331,-0.002676050765543366
-0.000278929,0.1619709416645383,-0.003006741330007852
-0.000278859,0.1510889920337258,-0.001683979072149458
-0.000278789,0.1474616754901205,-0.00234536020107873
-0.000278719,0.1474616754901205,-0.002014669636614244
-0.000278649,0.1474616754901205,-0.001683979072149458
-0.000278579,0.14020704240291,-0.0003612168142909132
-0.000278509,0.1474616754901172,-0.001022597943219885
-0.000278439,0.1474616754901205,-0.001683979072149458
-0.000278369,0.1438343589465153,-0.00234536020107873
-0.000278299,0.136579725859308,-0.001353288507685273
-0.000278229,0.1365797258593047,-0.0006919073787555493
-0.000278159,0.1293250927720942,-3.052624982627703e-05
-0.000278089,0.1329524093156994,-0.0006919073787546471
-0.000278019,0.1329524093156994,0.001292236008032268
-0.000277949,0.1365797258593047,0.001622926572496904
-0.000277879,0.1365797258593047,0.001622926572497204
-0.000277809,0.1365797258593047,0.002284307701426176
-0.000277739,0.1329524093156994,0.001622926572496904
-0.000277669,0.1438343589465103,0.001622926572496603
-0.000277599,0.1329524093156994,0.0009615454435676314
-0.000277529,0.1329524093156994,-0.001022597943220185
-0.000277459,0.1293250927720942,-0.002014669636613793
-0.000277389,0.1293250927720942,-0.001353288507684821
-0.000277319,0.1184431431412784,-0.003006741330008002
-0.000277249,0.1148158265976682,-0.003998813023401009
-0.000277179,0.1039338769668573,-0.002014669636614094
-0.000277109,0.09667924387964678,-0.001022597943220185
-0.000277039,0.08942461079243956,-0.002014669636613793
-0.000276969,0.09667924387964678,-0.001353288507684821
-0.000276899,0.09667924387964678,-3.052624982627703e-05
-0.000276829,0.08942461079243956,0.0003001643146382087
-0.000276759,0.09667924387964678,-3.052624982627703e-05
-0.000276689,0.09305192733604152,0.0003001643146383591
-0.000276619,0.09305192733604317,0.001622926572496152
-0.000276549,0.09667924387964678,-3.052624982627703e-05
-0.000276479,0.100306560423252,-0.001353288507684821
-0.000276409,0.09667924387964348,-0.002014669636613342
-0.000276339,0.08942461079243626,-0.0003612168142909132
-0.000276269,0.07854266116162045,-0.0003612168142909132
-0.000276199,0.07491534461801684,-0.0006919073787550982
-0.000276129,0.07854266116162045,0.0003001643146383591
-0.000276059,0.07128802807440993,0.0009615454435676314
-0.000275989,0.0785426611616188,0.0003001643146376072
-0.000275919,0.07491534461801519,-0.001353288507684821
-0.000275849,0.07854266116162045,-0.001022597943220185
-0.000275779,0.07854266116162045,0.0009615454435668795
-0.000275709,0.07854266116162045,-0.0006919073787555493
-0.000275639,0.06403339498719939,-0.0006919073787555493
-0.000275569,0.05677876189998721,-0.0003612168142907628
-0.000275499,0.05315144535638359,-3.052624982627703e-05
-0.000275429,0.04589681226917306,-0.0003612168142909132
-0.000275359,0.04226949572556614,-0.001022597943220486
-0.000275289,0.03864217918196253,-0.001683979072149458
-0.000275219,0.03138754609475199,-0.001022597943220185
-0.000275149,0.03864217918196088,-0.001353288507685423
-0.000275079,0.03501486263835726,-0.002676050765543366
-0.000275009,0.02413291300754146,-0.001683979072149458
-0.000274939,0.0313875460947487,-0.001022597943220185
-0.000274869,0.02413291300754146,-0.001022597943220185
-0.000274799,0.02413291300754146,-3.052624982627703e-05
-0.000274729,0.01687827992032928,-0.0003612168142903116
-0.000274659,0.01325096337672567,0.0009615454435676314
-0.000274589,0.01325096337672567,0.0003001643146383591
-0.000274519,0.02413291300754311,-0.0006919073787556997
-0.000274449,0.02776022955114673,-0.001022597943220185
-0.000274379,0.0205055964639362,-0.001683979072149458
-0.000274309,0.02776022955115003,-0.001353288507685122
-0.000274239,0.03501486263835726,-0.002014669636614094
-0.000274169,0.03501486263835726,-0.001683979072149458
-0.000274099,0.03501486263835232,-0.002345360201077827
-0.000274029,0.02413291300754146,-0.0003612168142909132
-0.000273959,0.0205055964639362,-0.001683979072149458
-0.000273889,0.005996330289511834,-0.002676050765543065
-0.000273819,-0.001258302797695399,-0.002014669636614094
-0.000273749,-0.004885619341300665,-0.003668122458937275
-0.000273679,-0.00488561934131551,-0.004660194152330281
-0.000273609,-0.03753146823373322,-0.002676050765544269
-0.000273539,-0.04478610132095859,-0.003337431894472638
-0.000273469,-0.03753146823374641,-0.002676050765543517
-0.000273399,-0.03390415169014444,-0.003006741330007852
-0.000273329,-0.04115878477735332,-0.002676050765543366
-0.000273259,-0.03390415169013784,-0.003668122458937425
-0.000273189,-0.02302220205933194,-0.003998813023401761
-0.000273119,-0.03027683514653753,-0.004660194152331183
-0.000273049,-0.03027683514653918,-0.005321575281260305
-0.000272979,-0.03390415169014114,-0.004990884716795969
-0.000272909,-0.03390415169014279,-0.005321575281260455
-0.000272839,-0.03753146823374971,-0.003668122458936824
-0.000272769,-0.04115878477735167,-0.002676050765543818
-0.000272699,-0.03753146823374806,-0.002014669636614094
-0.000272629,-0.03027683514654247,-0.003006741330007701
-0.000272559,-0.04115878477734838,-0.00234536020107903
-0.000272489,-0.03753146823374806,-0.001022597943220185
-0.000272419,-0.03027683514653918,-0.002345360201078579
-0.000272349,-0.03390415169014114,-0.002014669636614244
-0.000272279,-0.04478610132095859,-0.00234536020107873
-0.000272209,-0.04115878477735332,-0.003006741330008303
-0.000272139,-0.04115878477735332,-0.003668122458936974
-0.000272069,-0.05566805095177439,-0.003006741330008002
-0.000271999,-0.06292268403898822,-0.001022597943220787
-0.000271929,-0.07017731712619216,-0.002345360201078128
-0.000271859,-0.05929536749537966,-0.001022597943220185
-0.000271789,-0.07017731712619381,-3.052624982627703e-05
-0.000271719,-0.06655000058259183,-3.052624982627703e-05
-0.000271649,-0.07743195021340599,0.0003001643146383591
-0.000271579,-0.08468658330061982,0.001622926572497355
-0.000271509,-0.09194121638782375,0.00261499826589036
-0.000271439,-0.09556853293143232,0.002614998265890812
-0.000271369,-0.1028231660186379,0.002284307701426176
-0.000271299,-0.09194121638783201,0.002284307701426176
-0.000271229,-0.08831389984422178,0.0003001643146383591
-0.000271159,-0.09556853293143562,-0.001353288507684671
-0.000271089,-0.1028231660186395,-0.001022597943220336
-0.000271019,-0.1028231660186428,-0.002014669636614094
-0.000270949,-0.09556853293143067,-0.001683979072149007
-0.000270879,-0.09194121638782871,-0.0006919073787560006
-0.000270809,-0.08468658330061651,-0.001022597943220185
-0.000270739,-0.08468658330061651,-0.0003612168142909132
-0.000270669,-0.08468658330061651,-0.000691907378755399
-0.000270599,-0.08831389984422178,-0.001353288507684821
-0.000270529,-0.08831389984422178,-0.001022597943220185
-0.000270459,-0.1028231660186363,-3.052624982672822e-05
-0.000270389,-0.1028231660186428,0.0006308548791029952
-0.000270319,-0.1100777991058534,-3.052624982627703e-05
-0.000270249,-0.1100777991058534,0.0009615454435671802
-0.000270179,-0.1245870652802744,0.001292236008032268
-0.000270109,-0.1245870652802744,0.0006308548791029952
-0.000270039,-0.1318416983674817,0.001292236008031967
-0.000269969,-0.1282143818238797,-3.052624982627703e-05
-0.000269899,-0.1354690149110902,-0.001683979072149458
-0.000269829,-0.1318416983674866,-0.002345360201078429
-0.000269759,-0.1354690149110902,-0.0006919073787555493
-0.000269689,-0.1354690149110902,-0.001022597943220185
-0.000269619,-0.128214381823883,-0.0006919073787556997
-0.000269549,-0.1354690149110902,0.0003001643146383591
-0.000269479,-0.1245870652802744,-0.0006919073787555493
-0.000269409,-0.1282143818238781,-0.001022597943220035
-0.000269339,-0.131841698367485,-0.001683979072149458
-0.000269269,-0.1427236479983008,-0.0003612168142909132
-0.000269199,-0.1536055976291116,-0.002014669636613342
-0.000269129,-0.1536055976291166,-0.003337431894472638
-0.000269059,-0.146350964541906,-0.003337431894472638
-0.000268989,-0.1499782810855097,-0.002676050765543667
-0.000268919,-0.1499782810855113,-0.001683979072149458
-0.000268849,-0.1644875472599324,-0.002014669636614094
-0.000268779,-0.1608602307163287,-0.002676050765543066
-0.000268709,-0.1644875472599324,-0.002014669636614094
-0.000268639,-0.1753694968907482,-0.001683979072149458
-0.000268569,-0.1608602307163337,-0.0006919073787560006
-0.000268499,-0.1644875472599324,0.0003001643146383591
-0.000268429,-0.1681148638035376,-3.052624982627703e-05
-0.000268359,-0.1681148638035376,-3.052624982627703e-05
-0.000268289,-0.1681148638035376,0.0003001643146383591
-0.000268219,-0.1753694968907482,-0.0003612168142909132
-0.000268149,-0.1789968134343518,-0.001022597943219885
-0.000268079,-0.1789968134343534,-0.0003612168142909132
-0.000268009,-0.1826241299779587,-0.0003612168142909132
-0.000267939,-0.1898787630651659,-0.0003612168142909132
-0.000267869,-0.1789968134343534,-0.001683979072149458
-0.000267799,-0.186251446521564,-0.0006919073787555493
-0.000267729,-0.1898787630651676,-0.0006919073787555493
-0.000267659,-0.1935060796087745,-0.0003612168142909132
-0.000267589,-0.1971333961523798,0.0003001643146383591
-0.000267519,-0.204388029239587,-0.0003612168142906124
-0.000267449,-0.2043880292395903,0.002284307701426176
-0.000267379,-0.2080153457831956,0.002945688830355448
-0.000267309,-0.22252461195761,-3.052624982492367e-05
-0.000267239,-0.2370338781320377,-3.052624982627703e-05
-0.000267169,-0.2261519285012219,-0.001353288507684821
-0.000267099,-0.2370338781320327,-0.001353288507684821
-0.000267029,-0.2334065615884324,-0.002014669636614094
-0.000266959,-0.240661194675643,-0.002676050765543366
-0.000266889,-0.2370338781320393,-0.001022597943220937
-0.000266819,-0.2334065615884324,-0.00234536020107873
-0.000266749,-0.2515431443064587,-0.003337431894472638
-0.000266679,-0.2551704608500623,-0.003006741330008153
-0.000266609,-0.2515431443064587,-0.003006741330008002
-0.000266539,-0.255170460850064,-0.004329503587866546
-0.000266469,-0.2515431443064604,-0.003668122458937576
-0.000266399,-0.2479158277628535,-0.003998813023401911
-0.000266329,-0.255170460850064,-0.004660194152331183
-0.000266259,-0.2515431443064571,-0.004990884716795819
-0.000266189,-0.2479158277628535,-0.004990884716795819
-0.000266119,-0.2515431443064587,-0.004990884716795819
-0.000266049,-0.2515431443064555,-0.004660194152330431
-0.000265979,-0.2442885112192482,-0.003006741330008002
-0.000265909,-0.255170460850064,-0.002676050765543366
-0.000265839,-0.2587977773936643,-0.001353288507684069
-0.000265769,-0.2479158277628535,0.0003001643146383591
-0.000265699,-0.2515431443064587,-0.001022597943220185
-0.000265629,-0.2551704608500673,0.0003001643146380583
-0.000265559,-0.2624250939372745,-0.0003612168142909132
-0.000265489,-0.2587977773936693,-0.001353288507684821
-0.000265419,-0.2733070435680904,-0.001022597943220486
-0.000265349,-0.2733070435680904,-0.001683979072149458
-0.000265279,-0.2696797270244851,-0.001353288507684821
-0.000265209,-0.2805616766553009,-0.001022597943219885
-0.000265139,-0.2805616766553009,-0.0003612168142909132
-0.000265069,-0.2914436262861167,0.0003001643146383591
-0.000264999,-0.2805616766553009,0.000300164314637908
-0.000264929,-0.2805616766553009,-0.0006919073787555493
-0.000264859,-0.2805616766553009,0.0009615454435676314
-0.000264789,-0.2841889931989029,-3.052624982657779e-05
-0.000264719,-0.2769343601116956,-0.0006919073787555493
-0.000264649,-0.2841889931989062,-0.001683979072149458
-0.000264579,-0.2805616766553026,-0.001683979072149759
-0.000264509,-0.2841889931989062,-0.00234536020107873
-0.000264439,-0.2914436262861167,-0.001683979072149458
-0.000264369,-0.2914436262861184,-0.001022597943220486
-0.000264299,-0.295070942829722,-0.001683979072149458
-0.000264229,-0.2914436262861167,-0.001353288507684821
-0.000264159,-0.3059528924605444,-0.0006919073787556997
-0.000264089,-0.3204621586349588,-0.001022597943220185
-0.000264019,-0.3204621586349588,-0.001022597943220185
-0.000263949,-0.3168348420913519,-0.001022597943220637
-0.000263879,-0.3132075255477483,-0.002014669636614094
-0.000263809,-0.3059528924605378,-0.001353288507684821
-0.000263739,-0.3132075255477516,-0.002345360201078279
-0.000263669,-0.3204621586349588,-0.001353288507684821
-0.000263599,-0.3204621586349588,-0.00234536020107873
-0.000263529,-0.3313441082657763,-0.0006919073787546471
-0.000263459,-0.3349714248093799,0.001292236008032268
-0.000263389,-0.3349714248093799,-0.0003612168142909132
-0.000263319,-0.3458533744402006,0.0009615454435676314
-0.000263249,-0.3567353240710115,0.0009615454435676314
-0.000263179,-0.3603626406146168,-0.0006919073787555493
-0.000263109,-0.345853374440194,-0.0003612168142909132
-0.000263039,-0.3422260578965904,-0.0003612168142909132
-0.000262969,-0.3531080075274062,-0.001353288507684821
-0.000262899,-0.3567353240710115,-0.0003612168142910635
-0.000262829,-0.3567353240710115,-0.0006919073787555493
-0.000262759,-0.3603626406146168,-0.001022597943220185
-0.000262689,-0.3567353240710098,-0.0006919073787550982
-0.000262619,-0.3531080075274062,0.0003001643146383591
-0.000262549,-0.3531080075274062,0.0003001643146383591
-0.000262479,-0.3567353240710132,-0.001353288507683618
-0.000262409,-0.3603626406146168,0.001292236008032268
-0.000262339,-0.3494806909838009,-0.0006919073787555493
-0.000262269,-0.3603626406146118,-3.052624982642741e-05
-0.000262199,-0.3494806909838009,-0.0003612168142909132
