Lab7/inlab/difference/diffAmp5k.csv

#Digilent WaveForms Oscilloscope Acquisition
#Device Name: Discovery2
#Serial Number: SN:210321B0E782
#Date Time: 2023-10-25 14:07:20.620
#Sample rate: 1.42857e+07Hz
#Samples: 8192
#Trigger: Source: Channel 1 Type: Edge Condition: Rising Level: 319.5 mV Hyst.: Auto HoldOff: 100 ns
#Channel 1: Range: 500 mV/div Offset: 0 V Attenuation: 1 X
#Channel 2: Range: 200 mV/div Offset: 0 V Attenuation: 1 X
#Wavegen Channel 1: Running
#Mode: Simple
#Type: Sine
#Frequency: 5 kHz
#Period: 200 us
#Amplitude: 100 mV
#Offset: 0 V
#Symmetry: 50 %
#Phase: 0 °
#Wavegen Channel 2: Running
#Mode: Simple
#Type: Sine
#Frequency: 5 kHz
#Period: 200 us
#Amplitude: 100 mV
#Offset: 0 V
#Symmetry: 50 %
#Phase: 180 °

Time (s),Channel 1 (V),Channel 2 (V)
-0.000286699512195122,-1.007255306139663,0.07139863567453512
-0.000286629512195122,-1.005933846760394,0.07172932623899976
-0.000286559512195122,-1.009898224898204,0.07536692244811061
-0.000286489512195122,-1.019478805397898,0.07503623188364612
-0.000286419512195122,-1.020469899932349,0.07470554131918149
-0.000286349512195122,-1.024764642914977,0.0743748507547176
-0.000286279512195122,-1.035336317949122,0.07602830357704003
-0.000286209512195122,-1.039961425776562,0.0756976130125754
-0.000286139512195122,-1.042604344535099,0.07470554131918133
-0.000286069512195122,-1.042273979690282,0.07437485075471685
-0.000285999512195122,-1.048881276586625,0.07437485075471685
-0.000285929512195122,-1.055158208638154,0.07404416019025252
-0.000285859512195122,-1.061765505534495,0.07470554131918149
-0.000285789512195122,-1.066720978206752,0.07404416019025221
-0.000285719512195122,-1.07299791025828,0.07503623188364718
-0.000285649512195122,-1.076962288396084,0.07735106583489858
-0.000285579512195122,-1.084230314982062,0.0766896847059693
-0.000285509512195122,-1.093810895481763,0.07834313752829174
-0.000285439512195122,-1.102070016602184,0.07668968470597005
-0.000285369512195122,-1.107025489274446,0.07702037527043394
-0.000285299512195122,-1.101739651757372,0.07536692244811045
-0.000285229512195122,-1.103391475981456,0.07470554131918179
-0.000285159512195122,-1.10306111113664,0.0766896847059693
-0.000285089512195122,-1.105704029895178,0.07602830357704063
-0.000285019512195122,-1.108016583808896,0.07735106583489798
-0.000284949512195122,-1.1099987728778,0.07768175639936321
-0.000284879512195122,-1.115284610394875,0.07801244696382785
-0.000284809512195122,-1.116275704929326,0.07801244696382785
-0.000284739512195122,-1.121561542446401,0.07801244696382785
-0.000284669512195122,-1.131472487790917,0.07834313752829233
-0.000284599512195122,-1.133454676859818,0.078012446963828
-0.000284529512195122,-1.133785041704636,0.07768175639936321
-0.000284459512195122,-1.134115406549452,0.07635899414150482
-0.000284389512195122,-1.132463582325368,0.07668968470596915
-0.000284319512195122,-1.135767230773539,0.0756976130125754
-0.000284249512195122,-1.140722703445797,0.07602830357704018
-0.000284179512195122,-1.141713797980247,0.07635899414150452
-0.000284109512195122,-1.140061973756162,0.0756976130125754
-0.000284039512195122,-1.145678176118053,0.0766896847059693
-0.000283969512195122,-1.144687081583603,0.0766896847059693
-0.000283899512195122,-1.153606932393666,0.07735106583489858
-0.000283829512195122,-1.159883864445191,0.07900451865722116
-0.000283759512195122,-1.159553499600375,0.07768175639936381
-0.000283689512195122,-1.161535688669277,0.07966589978615103
-0.000283619512195122,-1.166821526186353,0.07999659035061552
-0.000283549512195122,-1.169134080100071,0.07966589978615118
-0.000283479512195122,-1.177062836375684,0.0803272809150803
-0.000283409512195122,-1.181687944203126,0.07867382809275728
-0.000283339512195122,-1.185652322340928,0.07900451865722161
-0.000283269512195122,-1.189286335633919,0.07768175639936321
-0.000283199512195122,-1.191929254392459,0.07867382809275743
-0.000283129512195122,-1.197215091909528,0.07933520922168609
-0.000283059512195122,-1.201509834892154,0.08065797147954494
-0.000282989512195122,-1.201840199736972,0.07999659035061657
-0.000282919512195122,-1.203822388805873,0.08198073373740258
-0.000282849512195122,-1.209108226322949,0.08165004317293885
-0.000282779512195122,-1.209768956012585,0.08065797147954554
-0.000282709512195122,-1.214394063840021,0.08198073373740289
-0.000282639512195122,-1.217367347443378,0.08165004317293885
-0.000282569512195122,-1.219349536512281,0.0839648771241913
-0.000282499512195122,-1.225296103718987,0.08264211486633335
-0.000282429512195122,-1.227278292787892,0.08264211486633276
-0.000282359512195122,-1.232894495149784,0.08165004317293885
-0.000282289512195122,-1.244126899873563,0.08231142430186782
-0.000282219512195122,-1.246109088942471,0.0803272809150803
-0.000282149512195122,-1.245448359252836,0.08098866204400958
-0.000282079512195122,-1.250403831925092,0.08165004317293854
-0.000282009512195122,-1.2543682100629,0.08165004317293885
-0.000281939512195122,-1.259654047579974,0.08264211486633276
-0.000281869512195122,-1.265930979631497,0.08264211486633276
-0.000281799512195122,-1.268904263234855,0.08165004317293885
-0.000281729512195122,-1.269895357769306,0.08231142430186812
-0.000281659512195122,-1.274850830441562,0.08098866204401017
-0.000281589512195122,-1.278484843734553,0.08165004317293885
-0.000281519512195122,-1.28112776249309,0.08231142430186812
-0.000281449512195122,-1.285422505475711,0.08231142430186812
-0.000281379512195122,-1.287404694544616,0.08363418655972667
-0.000281309512195122,-1.282779586717176,0.08363418655972667
-0.000281239512195122,-1.285092140630895,0.08330349599526218
-0.000281169512195122,-1.286743964854982,0.08330349599526203
-0.000281099512195122,-1.293020896906508,0.08297280543079739
-0.000281029512195122,-1.290377978147972,0.08330349599526188
-0.000280959512195122,-1.291038707837605,0.08264211486633276
-0.000280889512195122,-1.293351261751325,0.0839648771241913
-0.000280819512195122,-1.297315639889129,0.08495694881758475
-0.000280749512195122,-1.301280018026937,0.08462625825312058
-0.000280679512195122,-1.307556950078463,0.0839648771241913
-0.000280609512195122,-1.311851693061084,0.08462625825312027
-0.000280539512195122,-1.306896220388829,0.08198073373740349
-0.000280469512195122,-1.305905125854377,0.0839648771241913
-0.000280399512195122,-1.309539139147364,0.08462625825312027
-0.000280329512195122,-1.312182057905903,0.08429556768865594
-0.000280259512195122,-1.313833882129989,0.08661040163990839
-0.000280189512195122,-1.318458989957427,0.08396487712419251
-0.000280119512195122,-1.323084097784869,0.08528763938204985
-0.000280049512195122,-1.326718111077858,0.08462625825312058
-0.000279979512195122,-1.330352124370845,0.08462625825312058
-0.000279909512195122,-1.339602340025728,0.08462625825312058
-0.000279839512195122,-1.344557812697985,0.08429556768865594
-0.000279769512195122,-1.3429059884739,0.08363418655972697
-0.000279699512195122,-1.342575623629082,0.08594902051097912
-0.000279629512195122,-1.35215620412878,0.08495694881758521
-0.000279559512195122,-1.354468758042499,0.08627971107544316
-0.000279489512195122,-1.35678131195622,0.0839648771241913
-0.000279419512195122,-1.36140641978366,0.0839648771241913
-0.000279349512195122,-1.365370797921464,0.08528763938204925
-0.000279279512195122,-1.369335176059272,0.08594902051097912
-0.000279209512195122,-1.368344081524821,0.08561832994651448
-0.000279139512195122,-1.376272837800429,0.08627971107544345
-0.000279069512195122,-1.385523053455313,0.08694109220437303
-0.000278999512195122,-1.382880134696776,0.08594902051097912
-0.000278929512195122,-1.377263932334887,0.08694109220437257
-0.000278859512195122,-1.387174877679399,0.08892523559116085
-0.000278789512195122,-1.390148161282753,0.08727178276883767
-0.000278719512195122,-1.392791080041289,0.08594902051097972
-0.000278649512195122,-1.400389471472085,0.08892523559116085
-0.000278579512195122,-1.405014579299525,0.08727178276883767
-0.000278509512195122,-1.405344944144342,0.08594902051097972
-0.000278439512195122,-1.406666403523611,0.08694109220437303
-0.000278369512195122,-1.41261297073032,0.08661040163990839
-0.000278299512195122,-1.418229173092209,0.08760247333330184
-0.000278229512195122,-1.417568443402578,0.08793316389776694
-0.000278159512195122,-1.416246984023309,0.08892523559116085
-0.000278089512195122,-1.424836469988556,0.08925592615562503
-0.000278019512195122,-1.425827564523007,0.08826385446223158
-0.000277949512195122,-1.42780975359191,0.08925592615562548
-0.000277879512195122,-1.431774131729717,0.0899173072845546
-0.000277809512195122,-1.435408145022704,0.08958661672009012
-0.000277739512195122,-1.438051063781242,0.08892523559116085
-0.000277669512195122,-1.439042158315695,0.08793316389776754
-0.000277599512195122,-1.443006536453499,0.08925592615562548
-0.000277529512195122,-1.450935292729111,0.09057868841348403
-0.000277459512195122,-1.450935292729111,0.08958661672009058
-0.000277389512195122,-1.450935292729111,0.09057868841348403
-0.000277319512195122,-1.449613833349842,0.09057868841348403
-0.000277249512195122,-1.456551495091005,0.09057868841348372
-0.000277179512195122,-1.460846238073626,0.08991730728455476
-0.000277109512195122,-1.463489156832163,0.08925592615562548
-0.000277039512195122,-1.468774994349237,0.08892523559116054
-0.000276969512195122,-1.467783899814786,0.08826385446223158
-0.000276899512195122,-1.468774994349238,0.08793316389776694
-0.000276829512195122,-1.47108754826296,0.09024799784901924
-0.000276759512195122,-1.476043020935215,0.08991730728455476
-0.000276689512195122,-1.476373385780033,0.08925592615562548
-0.000276619512195122,-1.483641412366005,0.09090937897794882
-0.000276549512195122,-1.473069737331861,0.0912400695424133
-0.000276479512195122,-1.473730467021495,0.09090937897794867
-0.000276409512195122,-1.480007399073024,0.09090937897794761
-0.000276339512195122,-1.485293236590096,0.08859454502669621
-0.000276269512195122,-1.486284331124547,0.08925592615562548
-0.000276199512195122,-1.487936155348634,0.08925592615562473
-0.000276129512195122,-1.489257614727902,0.0876024733333023
-0.000276059512195122,-1.493552357710525,0.08727178276883767
-0.000275989512195122,-1.49553454677943,0.08925592615562503
-0.000275919512195122,-1.500159654606868,0.08826385446223158
-0.000275849512195122,-1.502802573365405,0.08991730728455476
-0.000275779512195122,-1.498177465537965,0.09024799784901893
-0.000275709512195122,-1.498177465537965,0.08925592615562548
-0.000275639512195122,-1.501811478830954,0.08991730728455476
-0.000275569512195122,-1.505445492123944,0.08958661672009043
-0.000275499512195122,-1.508749140572114,0.09024799784901939
-0.000275429512195122,-1.513043883554738,0.09157076010687794
-0.000275359512195122,-1.516677896847727,0.09057868841348388
-0.000275289512195122,-1.517668991382178,0.09024799784901939
-0.000275219512195122,-1.522294099209618,0.08991730728455476
-0.000275149512195122,-1.530883585174865,0.08925592615562489
-0.000275079512195122,-1.532865774243767,0.08793316389776694
-0.000275009512195122,-1.533856868778219,0.08925592615562548
-0.000274939512195122,-1.532205044554134,0.08958661672009012
-0.000274869512195122,-1.534517598467853,0.08958661672009012
-0.000274799512195122,-1.53947307114011,0.08958661672009012
-0.000274729512195122,-1.539803435984929,0.0899173072845546
-0.000274659512195122,-1.543107084433099,0.08958661672009012
-0.000274589512195122,-1.547732192260539,0.09057868841348403
-0.000274519512195122,-1.55235730008798,0.09157076010687794
-0.000274449512195122,-1.553678759467248,0.09157076010687794
-0.000274379512195122,-1.55929496182914,0.09223214123580721
-0.000274309512195122,-1.564250434501399,0.09223214123580811
-0.000274239512195122,-1.566893353259935,0.09421628462259503
-0.000274169512195122,-1.565571893880666,0.09289352236473648
-0.000274099512195122,-1.569866636863293,0.09157076010687824
-0.000274029512195122,-1.577795393138901,0.09223214123580721
-0.000273959512195122,-1.583411595500793,0.09223214123580721
-0.000273889512195122,-1.582090136121526,0.09057868841348388
-0.000273819512195122,-1.58605451425933,0.09024799784901939
-0.000273749512195122,-1.58836706817305,0.0912400695424133
-0.000273679512195122,-1.589358162707503,0.09190145067134227
-0.000273609512195122,-1.592992176000489,0.09124006954241361
-0.000273539512195122,-1.602242391655371,0.09256283180027185
-0.000273469512195122,-1.604224580724273,0.09190145067134288
-0.000273399512195122,-1.600590567431287,0.09256283180027154
-0.000273329512195122,-1.597617283827931,0.09355490349366576
-0.000273259512195122,-1.604554945569092,0.09355490349366635
-0.000273189512195122,-1.605876404948359,0.0948776657515237
-0.000273119512195122,-1.60356385103464,0.09355490349366576
-0.000273049512195122,-1.60719786432763,0.09190145067134317
-0.000272979512195122,-1.610171147930982,0.09322421292920052
-0.000272909512195122,-1.609180053396531,0.09223214123580721
-0.000272839512195122,-1.60752822917245,0.092562831800272
-0.000272769512195122,-1.617439174516956,0.09289352236473633
-0.000272699512195122,-1.619090998741046,0.09421628462259503
-0.000272629512195122,-1.619090998741045,0.09454697518706041
-0.000272559512195122,-1.61644807998251,0.0962004280093821
-0.000272489512195122,-1.620742822965132,0.09520835631598894
-0.000272419512195122,-1.627680484706294,0.09553904688045342
-0.000272349512195122,-1.629993038620012,0.09520835631598909
-0.000272279512195122,-1.62801084955111,0.09553904688045357
-0.000272209512195122,-1.629993038620014,0.09487766575152415
-0.000272139512195122,-1.633296687068183,0.09454697518705982
-0.000272069512195122,-1.632966322223367,0.0948776657515243
-0.000271999512195122,-1.636930700361176,0.09487766575152445
-0.000271929512195122,-1.642877267567879,0.09520835631598878
-0.000271859512195122,-1.643868362102334,0.09388559405813039
-0.000271789512195122,-1.63726106520599,0.09421628462259518
-0.000271719512195122,-1.636269970671539,0.09454697518705951
-0.000271649512195122,-1.63957361911971,0.09553904688045357
-0.000271579512195122,-1.640234348809347,0.09586973744491806
-0.000271509512195122,-1.644859456636783,0.09553904688045373
-0.000271439512195122,-1.643537997257516,0.09620042800938285
-0.000271369512195122,-1.646511280860872,0.09487766575152445
-0.000271299512195122,-1.650145294153858,0.09520835631598878
-0.000271229512195122,-1.655761496515751,0.0948776657515243
-0.000271159512195122,-1.666333171549902,0.09454697518706026
-0.000271089512195122,-1.669306455153253,0.09586973744491761
-0.000271019512195122,-1.670627914532524,0.09421628462259503
-0.000270949512195122,-1.668976090308439,0.09586973744491806
-0.000270879512195122,-1.67095827937734,0.09553904688045373
-0.000270809512195122,-1.680208495032221,0.09719249970277676
-0.000270739512195122,-1.67921740049777,0.09620042800938285
-0.000270669512195122,-1.682190684101123,0.0952083563159894
-0.000270599512195122,-1.686485427083747,0.09586973744491821
-0.000270529512195122,-1.691110534911188,0.09454697518705966
-0.000270459512195122,-1.688137251307835,0.09553904688045312
-0.000270389512195122,-1.696396372428262,0.09520835631598894
-0.000270319512195122,-1.699369656031617,0.09421628462259503
-0.000270249512195122,-1.696726737273081,0.09520835631598848
-0.000270179512195122,-1.687806886463016,0.09553904688045357
-0.000270109512195122,-1.691440899756005,0.09620042800938285
-0.000270039512195122,-1.693753453669724,0.0952083563159894
-0.000269969512195122,-1.694744548204176,0.09454697518705966
-0.000269899512195122,-1.694744548204176,0.0948776657515243
-0.000269829512195122,-1.699700020876432,0.09686180913831122
-0.000269759512195122,-1.702673304479788,0.09653111857384748
-0.000269689512195122,-1.702012574790154,0.09586973744491821
-0.000269619512195122,-1.706968047462409,0.09520835631598924
-0.000269549512195122,-1.712253884979486,0.09355490349366576
-0.000269479512195122,-1.710932425600217,0.09322421292920112
-0.000269409512195122,-1.703334034169426,0.09454697518705907
-0.000269339512195122,-1.707298412307229,0.09653111857384748
-0.000269269512195122,-1.705316223238326,0.09454697518705966
-0.000269199512195122,-1.706307317772777,0.09355490349366621
-0.000269129512195122,-1.706637682617594,0.09388559405813039
-0.000269059512195122,-1.705316223238326,0.09322421292920112
-0.000268989512195122,-1.709610966220947,0.09487766575152355
-0.000268919512195122,-1.710271695910583,0.09355490349366576
-0.000268849512195122,-1.710271695910583,0.09520835631598894
-0.000268779512195122,-1.721504100634361,0.09454697518705997
-0.000268709512195122,-1.722495195168818,0.09289352236473648
-0.000268639512195122,-1.718200452186195,0.09520835631598894
-0.000268569512195122,-1.720843370944731,0.09487766575152445
-0.000268499512195122,-1.724147019392904,0.09520835631598894
-0.000268429512195122,-1.725468478772172,0.09454697518705966
-0.000268359512195122,-1.727120302996258,0.09520835631598863
-0.000268289512195122,-1.731084681134064,0.09719249970277676
-0.000268219512195122,-1.734057964737419,0.09719249970277676
-0.000268149512195122,-1.736700883495955,0.09719249970277676
-0.000268079512195122,-1.74198672101303,0.0985152619606353
-0.000268009512195122,-1.753879855426448,0.09818457139617066
-0.000267939512195122,-1.75916569294352,0.09719249970277721
-0.000267869512195122,-1.761147882012426,0.09686180913831212
-0.000267799512195122,-1.757844233564254,0.09752319026724139
-0.000267729512195122,-1.761478246857241,0.09653111857384794
-0.000267659512195122,-1.762138976546877,0.09586973744491821
-0.000267589512195122,-1.762469341391695,0.09586973744491821
-0.000267519512195122,-1.763790800770963,0.09553904688045373
-0.000267449512195122,-1.764781895305415,0.09586973744491821
-0.000267379512195122,-1.766103354684683,0.0948776657515243
-0.000267309512195122,-1.767424814063951,0.0948776657515243
-0.000267239512195122,-1.771389192201758,0.09553904688045357
-0.000267169512195122,-1.776344664874015,0.09719249970277676
-0.000267099512195122,-1.78030904301182,0.0962004280093833
-0.000267029512195122,-1.77700539456365,0.09752319026724139
-0.000266959512195122,-1.779978678167004,0.09785388083170603
-0.000266889512195122,-1.781960867235906,0.09785388083170603
-0.000266819512195122,-1.785594880528896,0.09884595252509994
-0.000266749512195122,-1.786916339908164,0.09884595252509994
-0.000266679512195122,-1.793193271959688,0.1001687147829579
-0.000266609512195122,-1.796166555563045,0.09917664308956456
-0.000266539512195122,-1.798148744631948,0.09818457139617066
-0.000266469512195122,-1.803764946993837,0.0975231902672417
-0.000266399512195122,-1.812024068114269,0.09719249970277676
-0.000266329512195122,-1.809050784510914,0.09653111857384748
-0.000266259512195122,-1.806738230597194,0.09818457139617036
-0.000266189512195122,-1.807068595442011,0.09752319026724139
-0.000266119512195122,-1.807729325131646,0.09653111857384748
-0.000266049512195122,-1.807729325131646,0.09553904688045373
-0.000265979512195122,-1.807398960286829,0.09586973744491821
-0.000265909512195122,-1.809381149355731,0.09653111857384748
-0.000265839512195122,-1.806738230597194,0.09653111857384764
-0.000265769512195122,-1.805416771217926,0.09686180913831212
-0.000265699512195122,-1.808720419666097,0.0985152619606353
-0.000265629512195122,-1.813345527493537,0.09785388083170588
-0.000265559512195122,-1.811693703269452,0.09752319026724139
-0.000265489512195122,-1.813345527493538,0.0985152619606353
-0.000265419512195122,-1.808390054821281,0.09752319026724124
-0.000265349512195122,-1.811363338424634,0.09719249970277676
-0.000265279512195122,-1.812354432959086,0.09686180913831212
-0.000265209512195122,-1.815988446252076,0.09620042800938285
-0.000265139512195122,-1.819622459545063,0.09620042800938285
-0.000265069512195122,-1.822926107993235,0.09752319026724139
-0.000264999512195122,-1.822926107993236,0.09686180913831152
-0.000264929512195122,-1.824908297062138,0.09553904688045357
-0.000264859512195122,-1.829203040044761,0.09553904688045357
-0.000264789512195122,-1.834819242406653,0.09851526196063499
-0.000264719512195122,-1.834158512717019,0.09785388083170603
-0.000264649512195122,-1.831185229113664,0.09818457139617066
-0.000264579512195122,-1.836140701785921,0.09851526196063515
