Lab7/inlab/intergrator/triangle/IntegralTriangle500.csv

#Digilent WaveForms Oscilloscope Acquisition,,
#Device Name: Discovery2,,
#Serial Number: SN:210321B0E736,,
#Date Time: 2023-10-25 13:57:22.787,,
#Sample rate: 800000Hz,,
#Samples: 8192,,
#Trigger: Source: Channel 1 Type: Edge Condition: Rising Level: 0 V Hyst.: Auto HoldOff: 0 s,,
#Channel 1: Range: 5 V/div Offset: 0 V Attenuation: 1 X Sample Mode: Average,,
#Channel 2: Range: 5 V/div Offset: 0 V Attenuation: 1 X Sample Mode: Average,,
#Wavegen Channel 1: Running,,
#Mode: Simple,,
#Type: Square,,
#Frequency: 500 Hz,,
#Period: 2 ms,,
#Amplitude: 1 V,,
#Offset: 0 V,,
#Symmetry: 50 %,,
#Phase: 0 ¡,,
#Power Supplies: ON,,
#Positive Supply: ON,,
#Voltage: 3.3 V,,
#Negative Supply: ON,,
#Voltage: -3.3 V,,
,,
Time (s),Channel 1 (V),Channel 2 (V)
-0.004894396,-1.000267942,1.584427408
-0.004893146,-0.996582902,1.705449813
-0.004891896,-1.000267942,1.826472217
-0.004890646,-0.992897862,1.954829312
-0.004889396,-0.985527781,2.090521099
-0.004888146,-0.985527781,2.218878194
-0.004886896,-0.985527781,2.343567944
-0.004885646,-0.996582902,2.460923002
-0.004884396,-0.996582902,2.589280098
-0.004883146,-1.000267942,2.710302502
-0.004881896,-0.978157701,2.834992251
-0.004880646,-0.992897862,2.967016692
-0.004879396,-0.985527781,3.095373788
-0.004878146,-0.989212822,3.220063537
-0.004876896,-1.000267942,3.344753287
-0.004875646,-0.992897862,3.465775691
-0.004874396,-0.989212822,3.58313075
-0.004873146,-0.996582902,3.722489882
-0.004871896,-0.989212822,3.836177595
-0.004870646,-0.996582902,3.968202036
-0.004869396,-0.992897862,4.092891786
-0.004868146,-0.985527781,4.228583572
-0.004866896,-0.996582902,4.342271285
-0.004865646,-0.996582902,4.47062838
-0.004864396,-0.996582902,4.59531813
-0.004863146,-0.996582902,4.723675226
-0.004861896,-0.996582902,4.84469763
-0.004860646,-1.003952983,4.965720034
-0.004859396,-0.992897862,5.090409784
-0.004858146,-0.989212822,5.215099533
-0.004856896,-0.992897862,5.343456629
-0.004855646,-0.992897862,5.464479033
-0.004854396,-0.992897862,5.589168783
-0.004853146,-0.985527781,5.721193224
-0.004851896,-0.985527781,5.845882973
-0.004850646,-0.985527781,5.963238032
-0.004849396,-0.989212822,6.073258399
-0.004848146,-0.981842741,6.212617531
-0.004846896,-1.007638023,6.337307281
-0.004845646,-1.000267942,6.458329685
-0.004844396,-0.989212822,6.579352089
-0.004843146,-1.003952983,6.707709185
-0.004841896,-0.989212822,6.828731589
-0.004840646,-0.992897862,6.946086647
-0.004839396,-0.996582902,7.074443743
-0.004838146,-0.992897862,7.195466147
-0.004836896,-0.992897862,7.327490588
-0.004835646,-0.996582902,7.448512992
-0.004834396,-0.989212822,7.569535396
-0.004833146,-0.981842741,7.6905578
-0.004831896,-0.996582902,7.81524755
-0.004830646,-0.989212822,7.9399373
-0.004829396,-0.992897862,8.068294395
-0.004828146,-0.985527781,8.178314763
-0.004826896,-0.985527781,8.306671858
-0.004825646,-0.992897862,8.431361608
-0.004824396,-0.989212822,8.548716666
-0.004823146,-0.996582902,8.673406416
-0.004821896,-0.992897862,8.79442882
-0.004820646,-0.992897862,8.908116533
-0.004819396,-0.985527781,9.040140974
-0.004818146,-0.989212822,9.153828687
-0.004816896,-1.000267942,9.227175599
-0.004815646,-0.981842741,9.252847018
-0.004814396,-0.981842741,9.263849055
-0.004813146,-0.989212822,9.271183746
-0.004811896,-1.000267942,9.263849055
-0.004810646,-0.996582902,9.278518437
-0.004809396,-0.996582902,9.263849055
-0.004808146,-0.992897862,9.252847018
-0.004806896,-0.989212822,9.263849055
-0.004805646,-0.992897862,9.263849055
-0.004804396,-0.989212822,9.274851091
-0.004803146,-0.989212822,9.282185782
-0.004801896,-0.985527781,9.278518437
-0.004800646,-0.992897862,9.289520474
-0.004799396,-0.985527781,9.271183746
-0.004798146,-0.996582902,9.271183746
-0.004796896,-0.992897862,9.274851091
-0.004795646,-0.996582902,9.278518437
-0.004794396,-1.000267942,9.271183746
-0.004793146,-0.989212822,9.263849055
-0.004791896,-0.985527781,9.2675164
-0.004790646,-0.992897862,9.256514363
-0.004789396,-1.000267942,9.2675164
-0.004788146,-0.989212822,9.278518437
-0.004786896,-0.985527781,9.271183746
-0.004785646,-0.989212822,9.260181709
-0.004784396,-0.992897862,9.263849055
-0.004783146,-0.992897862,9.263849055
-0.004781896,-0.996582902,9.2675164
-0.004780646,-0.981842741,9.2675164
-0.004779396,-0.989212822,9.2675164
-0.004778146,-0.992897862,9.260181709
-0.004776896,-0.981842741,9.263849055
-0.004775646,-0.992897862,9.263849055
-0.004774396,-1.000267942,9.263849055
-0.004773146,-0.992897862,9.263849055
-0.004771896,-0.992897862,9.256514363
-0.004770646,-0.989212822,9.260181709
-0.004769396,-0.992897862,9.263849055
-0.004768146,-0.989212822,9.252847018
-0.004766896,-0.989212822,9.252847018
-0.004765646,-0.996582902,9.260181709
-0.004764396,-0.992897862,9.252847018
-0.004763146,-0.985527781,9.256514363
-0.004761896,-0.989212822,9.260181709
-0.004760646,-0.985527781,9.245512327
-0.004759396,-0.989212822,9.249179672
-0.004758146,-0.996582902,9.252847018
-0.004756896,-0.992897862,9.252847018
-0.004755646,-0.996582902,9.245512327
-0.004754396,-0.981842741,9.263849055
-0.004753146,-0.985527781,9.263849055
-0.004751896,-0.989212822,9.256514363
-0.004750646,-0.992897862,9.249179672
-0.004749396,-0.989212822,9.249179672
-0.004748146,-0.985527781,9.245512327
-0.004746896,-0.985527781,9.245512327
-0.004745646,-0.996582902,9.245512327
-0.004744396,-0.992897862,9.249179672
-0.004743146,-0.992897862,9.249179672
-0.004741896,-0.981842741,9.249179672
-0.004740646,-0.992897862,9.252847018
-0.004739396,-1.000267942,9.241844981
-0.004738146,-0.989212822,9.23451029
-0.004736896,-0.978157701,9.252847018
-0.004735646,-0.985527781,9.245512327
-0.004734396,-0.989212822,9.249179672
-0.004733146,-1.000267942,9.241844981
-0.004731896,-0.996582902,9.249179672
-0.004730646,-0.992897862,9.245512327
-0.004729396,-0.985527781,9.241844981
-0.004728146,-0.989212822,9.241844981
-0.004726896,-0.996582902,9.241844981
-0.004725646,-0.985527781,9.245512327
-0.004724396,-0.989212822,9.245512327
-0.004723146,-1.000267942,9.245512327
-0.004721896,-0.992897862,9.241844981
-0.004720646,-0.992897862,9.241844981
-0.004719396,-0.989212822,9.241844981
-0.004718146,-1.000267942,9.238177635
-0.004716896,-0.981842741,9.241844981
-0.004715646,-0.992897862,9.249179672
-0.004714396,-0.981842741,9.252847018
-0.004713146,-1.000267942,9.23451029
-0.004711896,-0.989212822,9.238177635
-0.004710646,-0.985527781,9.245512327
-0.004709396,-0.992897862,9.238177635
-0.004708146,-0.996582902,9.241844981
-0.004706896,-0.985527781,9.23451029
-0.004705646,-0.985527781,9.245512327
-0.004704396,-0.989212822,9.238177635
-0.004703146,-0.989212822,9.241844981
-0.004701896,-0.996582902,9.245512327
-0.004700646,-0.992897862,9.241844981
-0.004699396,-0.985527781,9.241844981
-0.004698146,-0.996582902,9.241844981
-0.004696896,-0.985527781,9.241844981
-0.004695646,-1.000267942,9.241844981
-0.004694396,-0.989212822,9.238177635
-0.004693146,-0.989212822,9.241844981
-0.004691896,-0.992897862,9.241844981
-0.004690646,-1.000267942,9.238177635
-0.004689396,-0.989212822,9.241844981
-0.004688146,-0.989212822,9.241844981
-0.004686896,-1.000267942,9.241844981
-0.004685646,-0.985527781,9.238177635
-0.004684396,-0.989212822,9.241844981
-0.004683146,-0.989212822,9.23451029
-0.004681896,-0.992897862,9.238177635
-0.004680646,-0.992897862,9.241844981
-0.004679396,-0.992897862,9.238177635
-0.004678146,-0.989212822,9.249179672
-0.004676896,-0.989212822,9.249179672
-0.004675646,-0.992897862,9.238177635
-0.004674396,-0.992897862,9.23451029
-0.004673146,-0.978157701,9.23451029
-0.004671896,-0.985527781,9.241844981
-0.004670646,-0.985527781,9.241844981
-0.004669396,-1.000267942,9.23451029
-0.004668146,-0.992897862,9.241844981
-0.004666896,-0.992897862,9.245512327
-0.004665646,-0.989212822,9.241844981
-0.004664396,-0.996582902,9.238177635
-0.004663146,-0.985527781,9.241844981
-0.004661896,-0.992897862,9.23451029
-0.004660646,-0.996582902,9.238177635
-0.004659396,-0.989212822,9.238177635
-0.004658146,-0.989212822,9.245512327
-0.004656896,-0.996582902,9.230842944
-0.004655646,-0.992897862,9.238177635
-0.004654396,-0.992897862,9.245512327
-0.004653146,-0.996582902,9.238177635
-0.004651896,-0.989212822,9.241844981
-0.004650646,-0.992897862,9.23451029
-0.004649396,-0.989212822,9.23451029
-0.004648146,-0.989212822,9.238177635
-0.004646896,-0.996582902,9.241844981
-0.004645646,-0.996582902,9.241844981
-0.004644396,-1.000267942,9.238177635
-0.004643146,-0.985527781,9.241844981
-0.004641896,-1.000267942,9.238177635
-0.004640646,-0.989212822,9.245512327
-0.004639396,-0.985527781,9.241844981
-0.004638146,-0.989212822,9.238177635
-0.004636896,-0.989212822,9.241844981
-0.004635646,-0.989212822,9.241844981
-0.004634396,-0.989212822,9.230842944
-0.004633146,-0.992897862,9.23451029
-0.004631896,-0.989212822,9.238177635
-0.004630646,-0.992897862,9.249179672
-0.004629396,-0.989212822,9.241844981
-0.004628146,-0.992897862,9.230842944
-0.004626896,-0.989212822,9.23451029
-0.004625646,-0.996582902,9.238177635
-0.004624396,-0.992897862,9.238177635
-0.004623146,-0.985527781,9.241844981
-0.004621896,-0.985527781,9.249179672
-0.004620646,-0.989212822,9.241844981
-0.004619396,-0.992897862,9.230842944
-0.004618146,-0.996582902,9.23451029
-0.004616896,-0.985527781,9.238177635
-0.004615646,-0.989212822,9.241844981
-0.004614396,-0.989212822,9.241844981
-0.004613146,-0.992897862,9.238177635
-0.004611896,-0.992897862,9.23451029
-0.004610646,-0.996582902,9.241844981
-0.004609396,-0.992897862,9.238177635
-0.004608146,-0.989212822,9.238177635
-0.004606896,-0.985527781,9.245512327
-0.004605646,-0.981842741,9.245512327
-0.004604396,-0.992897862,9.238177635
-0.004603146,-0.996582902,9.23451029
-0.004601896,-0.996582902,9.227175599
-0.004600646,-0.996582902,9.238177635
-0.004599396,-0.996582902,9.245512327
-0.004598146,-0.985527781,9.241844981
-0.004596896,-0.985527781,9.238177635
-0.004595646,-0.985527781,9.238177635
-0.004594396,-0.985527781,9.241844981
-0.004593146,-0.996582902,9.241844981
-0.004591896,-0.989212822,9.230842944
-0.004590646,-0.996582902,9.241844981
-0.004589396,-0.989212822,9.241844981
-0.004588146,-0.992897862,9.245512327
-0.004586896,-0.989212822,9.241844981
-0.004585646,-0.985527781,9.238177635
-0.004584396,-0.992897862,9.245512327
-0.004583146,-1.000267942,9.241844981
-0.004581896,-0.985527781,9.245512327
-0.004580646,-1.000267942,9.241844981
-0.004579396,-0.996582902,9.23451029
-0.004578146,-0.985527781,9.23451029
-0.004576896,-0.989212822,9.238177635
-0.004575646,-0.985527781,9.238177635
-0.004574396,-0.992897862,9.241844981
-0.004573146,-0.992897862,9.249179672
-0.004571896,-0.996582902,9.238177635
-0.004570646,-0.996582902,9.238177635
-0.004569396,-0.989212822,9.230842944
-0.004568146,-0.989212822,9.238177635
-0.004566896,-1.000267942,9.245512327
-0.004565646,-0.992897862,9.249179672
-0.004564396,-0.996582902,9.241844981
-0.004563146,-0.992897862,9.245512327
-0.004561896,-0.989212822,9.23451029
-0.004560646,-0.996582902,9.23451029
-0.004559396,-0.985527781,9.238177635
-0.004558146,-0.989212822,9.238177635
-0.004556896,-0.989212822,9.249179672
-0.004555646,-0.985527781,9.238177635
-0.004554396,-0.992897862,9.230842944
-0.004553146,-0.992897862,9.23451029
-0.004551896,-0.989212822,9.230842944
-0.004550646,-0.989212822,9.249179672
-0.004549396,-0.985527781,9.249179672
-0.004548146,-0.989212822,9.23451029
-0.004546896,-0.996582902,9.23451029
-0.004545646,-0.996582902,9.245512327
-0.004544396,-0.981842741,9.241844981
-0.004543146,-0.992897862,9.230842944
-0.004541896,-0.992897862,9.238177635
-0.004540646,-0.985527781,9.245512327
-0.004539396,-0.989212822,9.245512327
-0.004538146,-0.989212822,9.230842944
-0.004536896,-0.992897862,9.241844981
-0.004535646,-0.985527781,9.238177635
-0.004534396,-0.989212822,9.238177635
-0.004533146,-0.992897862,9.238177635
-0.004531896,-0.989212822,9.241844981
-0.004530646,-0.992897862,9.245512327
-0.004529396,-0.989212822,9.241844981
-0.004528146,-0.989212822,9.241844981
-0.004526896,-0.996582902,9.238177635
-0.004525646,-0.996582902,9.23451029
-0.004524396,-0.989212822,9.241844981
-0.004523146,-0.992897862,9.238177635
-0.004521896,-0.992897862,9.238177635
-0.004520646,-0.989212822,9.238177635
-0.004519396,-0.989212822,9.241844981
-0.004518146,-0.992897862,9.245512327
-0.004516896,-0.989212822,9.245512327
-0.004515646,-0.992897862,9.238177635
-0.004514396,-0.992897862,9.238177635
-0.004513146,-0.992897862,9.238177635
-0.004511896,-0.996582902,9.230842944
-0.004510646,-0.996582902,9.23451029
-0.004509396,-0.985527781,9.238177635
-0.004508146,-0.996582902,9.245512327
-0.004506896,-1.000267942,9.238177635
-0.004505646,-0.989212822,9.241844981
-0.004504396,-0.985527781,9.241844981
-0.004503146,-0.996582902,9.241844981
-0.004501896,-0.996582902,9.241844981
-0.004500646,-0.996582902,9.230842944
-0.004499396,-0.989212822,9.23451029
-0.004498146,-0.985527781,9.245512327
-0.004496896,-0.996582902,9.245512327
-0.004495646,-0.996582902,9.241844981
-0.004494396,-0.981842741,9.238177635
-0.004493146,-0.992897862,9.252847018
-0.004491896,-0.996582902,9.249179672
-0.004490646,-0.985527781,9.23451029
-0.004489396,-0.996582902,9.241844981
-0.004488146,-0.992897862,9.241844981
-0.004486896,-0.989212822,9.238177635
-0.004485646,-0.989212822,9.238177635
-0.004484396,-0.981842741,9.241844981
-0.004483146,-0.989212822,9.241844981
-0.004481896,-0.996582902,9.23451029
-0.004480646,-0.996582902,9.230842944
-0.004479396,-0.996582902,9.230842944
-0.004478146,-0.981842741,9.245512327
-0.004476896,-0.989212822,9.245512327
-0.004475646,-0.985527781,9.238177635
-0.004474396,-0.989212822,9.238177635
-0.004473146,-0.992897862,9.245512327
-0.004471896,-0.989212822,9.230842944
-0.004470646,-0.996582902,9.238177635
-0.004469396,-0.989212822,9.241844981
-0.004468146,-0.996582902,9.241844981
-0.004466896,-0.992897862,9.238177635
-0.004465646,-0.992897862,9.241844981
-0.004464396,-0.985527781,9.241844981
-0.004463146,-0.985527781,9.241844981
-0.004461896,-1.003952983,9.241844981
-0.004460646,-0.981842741,9.245512327
-0.004459396,-0.985527781,9.238177635
-0.004458146,-0.996582902,9.23451029
-0.004456896,-0.992897862,9.245512327
-0.004455646,-0.989212822,9.238177635
-0.004454396,-0.981842741,9.238177635
-0.004453146,-1.000267942,9.249179672
-0.004451896,-1.003952983,9.23451029
-0.004450646,-0.989212822,9.23451029
-0.004449396,-0.989212822,9.249179672
-0.004448146,-0.992897862,9.241844981
-0.004446896,-0.989212822,9.241844981
-0.004445646,-0.992897862,9.241844981
-0.004444396,-0.989212822,9.249179672
-0.004443146,-0.989212822,9.245512327
-0.004441896,-0.981842741,9.23451029
-0.004440646,-0.992897862,9.23451029
-0.004439396,-0.992897862,9.241844981
-0.004438146,-0.996582902,9.245512327
-0.004436896,-0.989212822,9.241844981
-0.004435646,-0.992897862,9.238177635
-0.004434396,-0.989212822,9.241844981
-0.004433146,-0.989212822,9.241844981
-0.004431896,-0.985527781,9.238177635
-0.004430646,-0.985527781,9.245512327
-0.004429396,-0.989212822,9.23451029
-0.004428146,-1.003952983,9.238177635
-0.004426896,-0.996582902,9.238177635
-0.004425646,-0.996582902,9.241844981
-0.004424396,-0.996582902,9.241844981
-0.004423146,-0.989212822,9.241844981
-0.004421896,-0.985527781,9.238177635
-0.004420646,-0.992897862,9.238177635
-0.004419396,-0.992897862,9.241844981
-0.004418146,-0.992897862,9.249179672
-0.004416896,-0.996582902,9.238177635
-0.004415646,-0.996582902,9.241844981
-0.004414396,-0.992897862,9.241844981
-0.004413146,-0.989212822,9.245512327
-0.004411896,-1.003952983,9.238177635
-0.004410646,-0.985527781,9.23451029
-0.004409396,-0.989212822,9.241844981
-0.004408146,-0.992897862,9.241844981
-0.004406896,-0.985527781,9.230842944
-0.004405646,-0.992897862,9.249179672
-0.004404396,-0.989212822,9.241844981
-0.004403146,-0.989212822,9.241844981
-0.004401896,-1.000267942,9.245512327
-0.004400646,-0.996582902,9.238177635
-0.004399396,-0.989212822,9.23451029
-0.004398146,-0.989212822,9.241844981
-0.004396896,-1.000267942,9.245512327
-0.004395646,-0.981842741,9.249179672
-0.004394396,-0.985527781,9.245512327
-0.004393146,-1.003952983,9.23451029
-0.004391896,-0.992897862,9.238177635
-0.004390646,-0.996582902,9.238177635
-0.004389396,-0.985527781,9.241844981
-0.004388146,-0.992897862,9.238177635
-0.004386896,-0.989212822,9.238177635
-0.004385646,-0.985527781,9.245512327
-0.004384396,-0.992897862,9.230842944
-0.004383146,-1.003952983,9.241844981
-0.004381896,-0.989212822,9.238177635
-0.004380646,-0.989212822,9.249179672
-0.004379396,-0.992897862,9.241844981
-0.004378146,-0.992897862,9.238177635
-0.004376896,-0.992897862,9.241844981
-0.004375646,-0.985527781,9.241844981
-0.004374396,-0.996582902,9.245512327
-0.004373146,-1.003952983,9.241844981
-0.004371896,-0.981842741,9.241844981
-0.004370646,-0.989212822,9.241844981
-0.004369396,-0.989212822,9.23451029
-0.004368146,-0.989212822,9.241844981
-0.004366896,-0.996582902,9.238177635
-0.004365646,-0.985527781,9.238177635
-0.004364396,-0.996582902,9.241844981
-0.004363146,-0.992897862,9.238177635
-0.004361896,-0.981842741,9.238177635
-0.004360646,-0.985527781,9.249179672
-0.004359396,-0.989212822,9.23451029
-0.004358146,-0.992897862,9.245512327
-0.004356896,-1.003952983,9.238177635
-0.004355646,-0.989212822,9.238177635
-0.004354396,-0.992897862,9.238177635
-0.004353146,-0.985527781,9.230842944
-0.004351896,-0.992897862,9.245512327
-0.004350646,-0.985527781,9.238177635
-0.004349396,-0.989212822,9.238177635
-0.004348146,-0.996582902,9.245512327
-0.004346896,-0.996582902,9.241844981
-0.004345646,-0.996582902,9.245512327
-0.004344396,-0.992897862,9.238177635
-0.004343146,-0.981842741,9.238177635
-0.004341896,-0.992897862,9.249179672
-0.004340646,-0.992897862,9.23451029
-0.004339396,-0.996582902,9.241844981
-0.004338146,-1.000267942,9.238177635
-0.004336896,-1.000267942,9.238177635
-0.004335646,-0.981842741,9.249179672
-0.004334396,-0.989212822,9.238177635
-0.004333146,-0.996582902,9.241844981
-0.004331896,-0.989212822,9.238177635
-0.004330646,-0.989212822,9.241844981
-0.004329396,-0.985527781,9.23451029
-0.004328146,-0.996582902,9.241844981
-0.004326896,-1.000267942,9.238177635
-0.004325646,-0.992897862,9.241844981
-0.004324396,-0.992897862,9.238177635
-0.004323146,-0.996582902,9.249179672
-0.004321896,-0.992897862,9.238177635
-0.004320646,-0.989212822,9.23451029
-0.004319396,-0.989212822,9.241844981
-0.004318146,-0.985527781,9.245512327
-0.004316896,-0.989212822,9.238177635
-0.004315646,-0.996582902,9.238177635
-0.004314396,-0.996582902,9.241844981
-0.004313146,-0.989212822,9.241844981
-0.004311896,-0.996582902,9.23451029
-0.004310646,-0.996582902,9.241844981
-0.004309396,-0.989212822,9.245512327
-0.004308146,-0.992897862,9.241844981
-0.004306896,-0.985527781,9.23451029
-0.004305646,-1.000267942,9.241844981
-0.004304396,-1.000267942,9.23451029
-0.004303146,-0.989212822,9.230842944
-0.004301896,-0.992897862,9.238177635
-0.004300646,-0.989212822,9.238177635
-0.004299396,-0.981842741,9.241844981
-0.004298146,-0.992897862,9.238177635
-0.004296896,-0.996582902,9.241844981
-0.004295646,-0.996582902,9.241844981
-0.004294396,-1.003952983,9.241844981
-0.004293146,-0.992897862,9.238177635
-0.004291896,-0.981842741,9.23451029
-0.004290646,-0.996582902,9.230842944
-0.004289396,-0.989212822,9.245512327
-0.004288146,-0.981842741,9.238177635
-0.004286896,-0.996582902,9.241844981
-0.004285646,-1.000267942,9.238177635
-0.004284396,-0.992897862,9.238177635
-0.004283146,-0.981842741,9.238177635
-0.004281896,-0.989212822,9.230842944
-0.004280646,-1.003952983,9.245512327
-0.004279396,-1.000267942,9.249179672
-0.004278146,-0.985527781,9.230842944
-0.004276896,-0.989212822,9.241844981
-0.004275646,-0.989212822,9.23451029
-0.004274396,-0.992897862,9.241844981
-0.004273146,-0.992897862,9.23451029
-0.004271896,-0.996582902,9.238177635
-0.004270646,-1.000267942,9.23451029
-0.004269396,-0.985527781,9.241844981
-0.004268146,-0.996582902,9.238177635
-0.004266896,-1.000267942,9.241844981
-0.004265646,-0.992897862,9.249179672
-0.004264396,-0.989212822,9.241844981
-0.004263146,-0.985527781,9.23451029
-0.004261896,-0.989212822,9.23451029
-0.004260646,-0.989212822,9.238177635
