Lab7/inlab/intergrator/triangle/IntegralTriangle10k.csv

#Digilent WaveForms Oscilloscope Acquisition,,
#Device Name: Discovery2,,
#Serial Number: SN:210321B0E736,,
#Date Time: 2023-10-25 13:58:46.494,,
#Sample rate: 1.42857e+07Hz,,
#Samples: 8192,,
#Trigger: Source: Channel 1 Type: Edge Condition: Rising Level: 0 V Hyst.: Auto HoldOff: 0 s,,
#Channel 1: Range: 5 V/div Offset: 0 V Attenuation: 1 X Sample Mode: Average,,
#Channel 2: Range: 5 V/div Offset: 0 V Attenuation: 1 X Sample Mode: Average,,
#Wavegen Channel 1: Running,,
#Mode: Simple,,
#Type: Square,,
#Frequency: 10 kHz,,
#Period: 100 us,,
#Amplitude: 1 V,,
#Offset: 0 V,,
#Symmetry: 50 %,,
#Phase: 0 °,,
#Power Supplies: ON,,
#Positive Supply: ON,,
#Voltage: 3.3 V,,
#Negative Supply: ON,,
#Voltage: -3.3 V,,
,,
Time (s),Channel 1 (V),Channel 2 (V)
-6.18E-05,1.019134136,5.424138231
-6.17E-05,1.022819176,5.420470886
-6.16E-05,1.030189256,5.409468849
-6.16E-05,1.037559337,5.424138231
-6.15E-05,1.037559337,5.405801504
-6.14E-05,1.044929418,5.402134158
-6.14E-05,1.052299498,5.365460702
-6.13E-05,1.052299498,5.449809651
-6.12E-05,1.052299498,5.273777063
-6.12E-05,1.044929418,5.435140268
-6.11E-05,1.048614458,5.284779099
-6.10E-05,1.041244377,5.387464776
-6.09E-05,1.037559337,5.299448482
-6.09E-05,1.033874297,5.339789283
-6.08E-05,1.037559337,5.321452555
-6.07E-05,1.037559337,5.31778521
-6.07E-05,1.033874297,5.328787246
-6.06E-05,1.033874297,5.284779099
-6.05E-05,1.033874297,5.332454592
-6.05E-05,1.030189256,5.255440335
-6.04E-05,1.026504216,5.314117864
-6.03E-05,1.033874297,5.244438298
-6.02E-05,1.030189256,5.288446445
-6.02E-05,1.044929418,5.22610157
-6.01E-05,1.033874297,5.273777063
-6.00E-05,1.030189256,5.218766879
-6.00E-05,1.026504216,5.255440335
-5.99E-05,1.026504216,5.215099533
-5.98E-05,1.026504216,5.229768916
-5.98E-05,1.026504216,5.196762805
-5.97E-05,1.022819176,5.204097497
-5.96E-05,1.022819176,5.19309546
-5.95E-05,1.015449095,5.19309546
-5.95E-05,1.019134136,5.19309546
-5.94E-05,1.011764055,5.189428114
-5.93E-05,1.011764055,5.19309546
-5.93E-05,1.015449095,5.174758732
-5.92E-05,1.008079015,5.171091386
-5.91E-05,1.022819176,5.163756695
-5.91E-05,1.030189256,5.149087313
-5.90E-05,1.026504216,5.138085276
-5.89E-05,1.037559337,5.138085276
-5.88E-05,1.033874297,5.116081203
-5.88E-05,1.037559337,5.127083239
-5.87E-05,1.030189256,5.105079166
-5.86E-05,1.026504216,5.108746512
-5.86E-05,1.026504216,5.094077129
-5.85E-05,1.022819176,5.083075092
-5.84E-05,1.030189256,5.06840571
-5.84E-05,1.026504216,5.064738365
-5.83E-05,1.030189256,5.06840571
-5.82E-05,1.019134136,5.050068982
-5.81E-05,1.030189256,5.046401637
-5.81E-05,1.026504216,5.031732254
-5.80E-05,1.026504216,5.0353996
-5.79E-05,1.022819176,5.028064909
-5.79E-05,1.022819176,5.024397563
-5.78E-05,1.022819176,5.009728181
-5.77E-05,1.030189256,5.00239349
-5.77E-05,1.041244377,4.995058799
-5.76E-05,1.041244377,4.995058799
-5.75E-05,1.033874297,4.987724107
-5.74E-05,1.041244377,4.980389416
-5.74E-05,1.030189256,4.962052688
-5.73E-05,1.033874297,4.962052688
-5.72E-05,1.033874297,4.962052688
-5.72E-05,1.037559337,4.947383306
-5.71E-05,1.033874297,4.932713924
-5.70E-05,1.041244377,4.929046578
-5.70E-05,1.033874297,4.918044541
-5.69E-05,1.022819176,4.918044541
-5.68E-05,1.015449095,4.907042505
-5.67E-05,1.019134136,4.907042505
-5.67E-05,1.022819176,4.91070985
-5.66E-05,1.026504216,4.896040468
-5.65E-05,1.022819176,4.892373122
-5.65E-05,1.022819176,4.881371086
-5.64E-05,1.026504216,4.870369049
-5.63E-05,1.026504216,4.855699666
-5.63E-05,1.037559337,4.841030284
-5.62E-05,1.041244377,4.837362939
-5.61E-05,1.037559337,4.830028247
-5.60E-05,1.033874297,4.830028247
-5.60E-05,1.026504216,4.811691519
-5.59E-05,1.026504216,4.800689483
-5.58E-05,1.019134136,4.7860201
-5.58E-05,1.019134136,4.789687446
-5.57E-05,1.026504216,4.778685409
-5.56E-05,1.022819176,4.775018064
-5.56E-05,1.019134136,4.764016027
-5.55E-05,1.022819176,4.745679299
-5.54E-05,1.026504216,4.745679299
-5.53E-05,1.030189256,4.731009917
-5.53E-05,1.022819176,4.734677262
-5.52E-05,1.026504216,4.716340534
-5.51E-05,1.022819176,4.72000788
-5.51E-05,1.026504216,4.701671152
-5.50E-05,1.022819176,4.694336461
-5.49E-05,1.030189256,4.694336461
-5.49E-05,1.030189256,4.690669115
-5.48E-05,1.033874297,4.675999733
-5.47E-05,1.033874297,4.672332387
-5.46E-05,1.033874297,4.675999733
-5.46E-05,1.030189256,4.664997696
-5.45E-05,1.037559337,4.661330351
-5.44E-05,1.030189256,4.650328314
-5.44E-05,1.030189256,4.650328314
-5.43E-05,1.033874297,4.646660968
-5.42E-05,1.037559337,4.62832424
-5.42E-05,1.044929418,4.613654858
-5.41E-05,1.033874297,4.609987513
-5.40E-05,1.030189256,4.598985476
-5.39E-05,1.026504216,4.587983439
-5.39E-05,1.022819176,4.587983439
-5.38E-05,1.030189256,4.576981402
-5.37E-05,1.022819176,4.569646711
-5.37E-05,1.022819176,4.558644674
-5.36E-05,1.026504216,4.56231202
-5.35E-05,1.026504216,4.554977329
-5.35E-05,1.022819176,4.547642638
-5.34E-05,1.015449095,4.540307946
-5.33E-05,1.030189256,4.543975292
-5.32E-05,1.030189256,4.52930591
-5.32E-05,1.037559337,4.521971219
-5.31E-05,1.033874297,4.507301836
-5.30E-05,1.033874297,4.503634491
-5.30E-05,1.033874297,4.488965108
-5.29E-05,1.030189256,4.463293689
-5.28E-05,1.026504216,4.466961035
-5.28E-05,1.030189256,4.459626344
-5.27E-05,1.030189256,4.455958998
-5.26E-05,1.030189256,4.43762227
-5.25E-05,1.030189256,4.433954925
-5.25E-05,1.019134136,4.43762227
-5.24E-05,1.022819176,4.422952888
-5.23E-05,1.019134136,4.422952888
-5.23E-05,1.022819176,4.419285542
-5.22E-05,1.026504216,4.415618197
-5.21E-05,1.030189256,4.393614123
-5.21E-05,1.026504216,4.386279432
-5.20E-05,1.022819176,4.367942704
-5.19E-05,1.019134136,4.364275359
-5.18E-05,1.019134136,4.349605976
-5.18E-05,1.019134136,4.356940667
-5.17E-05,1.022819176,4.345938631
-5.16E-05,1.026504216,4.349605976
-5.16E-05,1.026504216,4.33860394
-5.15E-05,1.033874297,4.327601903
-5.14E-05,1.026504216,4.316599866
-5.14E-05,1.037559337,4.316599866
-5.13E-05,1.037559337,4.316599866
-5.12E-05,1.030189256,4.316599866
-5.11E-05,1.033874297,4.31293252
-5.11E-05,1.037559337,4.301930484
-5.10E-05,1.037559337,4.301930484
-5.09E-05,1.033874297,4.283593756
-5.09E-05,1.026504216,4.276259065
-5.08E-05,1.026504216,4.257922337
-5.07E-05,1.030189256,4.261589682
-5.07E-05,1.030189256,4.250587646
-5.06E-05,1.026504216,4.243252954
-5.05E-05,1.030189256,4.232250918
-5.04E-05,1.022819176,4.235918263
-5.04E-05,1.026504216,4.221248881
-5.03E-05,1.030189256,4.210246844
-5.02E-05,1.033874297,4.191910116
-5.02E-05,1.033874297,4.188242771
-5.01E-05,1.037559337,4.169906043
-5.00E-05,0.661685228,4.147901969
-5.00E-05,-0.867606492,4.140567278
-4.99E-05,-0.981842741,4.173573388
-4.98E-05,-0.992897862,4.169906043
-4.97E-05,-0.992897862,4.18090808
-4.97E-05,-1.000267942,4.188242771
-4.96E-05,-0.996582902,4.202912153
-4.95E-05,-0.992897862,4.202912153
-4.95E-05,-0.992897862,4.221248881
-4.94E-05,-1.000267942,4.228583572
-4.93E-05,-1.003952983,4.250587646
-4.93E-05,-1.007638023,4.2469203
-4.92E-05,-1.011323063,4.254254991
-4.91E-05,-1.015008104,4.265257028
-4.90E-05,-1.018693144,4.265257028
-4.90E-05,-1.018693144,4.272591719
-4.89E-05,-1.007638023,4.27992641
-4.88E-05,-1.011323063,4.290928447
-4.88E-05,-1.007638023,4.301930484
-4.87E-05,-1.011323063,4.31293252
-4.86E-05,-1.018693144,4.334936594
-4.86E-05,-1.022378184,4.334936594
-4.85E-05,-1.011323063,4.345938631
-4.84E-05,-1.000267942,4.353273322
-4.83E-05,-0.996582902,4.360608013
-4.83E-05,-1.003952983,4.367942704
-4.82E-05,-1.003952983,4.378944741
-4.81E-05,-1.007638023,4.375277395
-4.81E-05,-1.011323063,4.397281469
-4.80E-05,-1.011323063,4.393614123
-4.79E-05,-1.011323063,4.408283506
-4.79E-05,-1.007638023,4.40461616
-4.78E-05,-1.000267942,4.430287579
-4.77E-05,-1.000267942,4.426620233
-4.76E-05,-1.003952983,4.43762227
-4.76E-05,-1.000267942,4.43762227
-4.75E-05,-0.996582902,4.452291653
-4.74E-05,-0.996582902,4.455958998
-4.74E-05,-1.000267942,4.474295726
-4.73E-05,-0.996582902,4.481630417
-4.72E-05,-0.996582902,4.492632454
-4.72E-05,-0.992897862,4.507301836
-4.71E-05,-0.989212822,4.514636527
-4.70E-05,-0.985527781,4.52930591
-4.69E-05,-0.989212822,4.536640601
-4.69E-05,-0.989212822,4.525638564
-4.68E-05,-0.996582902,4.540307946
-4.67E-05,-1.000267942,4.540307946
-4.67E-05,-0.996582902,4.551309983
-4.66E-05,-0.989212822,4.558644674
-4.65E-05,-0.996582902,4.565979366
-4.65E-05,-1.007638023,4.56231202
-4.64E-05,-1.007638023,4.576981402
-4.63E-05,-0.996582902,4.576981402
-4.62E-05,-0.992897862,4.591650785
-4.62E-05,-0.989212822,4.59531813
-4.61E-05,-0.996582902,4.613654858
-4.60E-05,-1.011323063,4.609987513
-4.60E-05,-1.000267942,4.62832424
-4.59E-05,-1.000267942,4.62832424
-4.58E-05,-0.992897862,4.646660968
-4.58E-05,-0.989212822,4.650328314
-4.57E-05,-0.985527781,4.661330351
-4.56E-05,-0.989212822,4.664997696
-4.55E-05,-0.992897862,4.672332387
-4.55E-05,-1.000267942,4.675999733
-4.54E-05,-1.007638023,4.679667079
-4.53E-05,-1.003952983,4.694336461
-4.53E-05,-1.007638023,4.705338498
-4.52E-05,-1.000267942,4.72000788
-4.51E-05,-1.000267942,4.727342571
-4.51E-05,-1.000267942,4.727342571
-4.50E-05,-0.996582902,4.738344608
-4.49E-05,-1.007638023,4.734677262
-4.48E-05,-0.996582902,4.749346645
-4.48E-05,-0.996582902,4.75301399
-4.47E-05,-1.000267942,4.760348681
-4.46E-05,-1.000267942,4.778685409
-4.46E-05,-1.003952983,4.782352755
-4.45E-05,-1.011323063,4.789687446
-4.44E-05,-1.011323063,4.804356828
-4.44E-05,-1.007638023,4.808024174
-4.43E-05,-1.003952983,4.822693556
-4.42E-05,-1.000267942,4.830028247
-4.41E-05,-1.003952983,4.841030284
-4.41E-05,-1.015008104,4.837362939
-4.40E-05,-1.011323063,4.852032321
-4.39E-05,-1.015008104,4.848364975
-4.39E-05,-1.015008104,4.863034358
-4.38E-05,-1.003952983,4.855699666
-4.37E-05,-1.011323063,4.866701703
-4.37E-05,-1.015008104,4.870369049
-4.36E-05,-1.011323063,4.885038431
-4.35E-05,-1.015008104,4.892373122
-4.34E-05,-1.011323063,4.903375159
-4.34E-05,-1.011323063,4.896040468
-4.33E-05,-1.003952983,4.903375159
-4.32E-05,-1.003952983,4.914377196
-4.32E-05,-1.000267942,4.929046578
-4.31E-05,-1.007638023,4.925379232
-4.30E-05,-1.011323063,4.940048615
-4.30E-05,-1.007638023,4.940048615
-4.29E-05,-1.018693144,4.962052688
-4.28E-05,-1.026063224,4.973054725
-4.27E-05,-1.026063224,4.980389416
-4.27E-05,-1.029748265,4.995058799
-4.26E-05,-1.029748265,5.00239349
-4.25E-05,-1.022378184,5.009728181
-4.25E-05,-1.011323063,5.020730218
-4.24E-05,-1.011323063,5.042734291
-4.23E-05,-1.015008104,5.039066945
-4.23E-05,-1.018693144,5.042734291
-4.22E-05,-1.003952983,5.042734291
-4.21E-05,-1.003952983,5.061071019
-4.20E-05,-0.996582902,5.061071019
-4.20E-05,-0.992897862,5.075740401
-4.19E-05,-0.996582902,5.079407747
-4.18E-05,-0.996582902,5.097744475
-4.18E-05,-1.000267942,5.105079166
-4.17E-05,-1.003952983,5.112413857
-4.16E-05,-1.003952983,5.119748548
-4.16E-05,-1.011323063,5.119748548
-4.15E-05,-1.011323063,5.138085276
-4.14E-05,-1.011323063,5.138085276
-4.13E-05,-1.007638023,5.145419967
-4.13E-05,-1.007638023,5.145419967
-4.12E-05,-1.007638023,5.163756695
-4.11E-05,-1.018693144,5.167424041
-4.11E-05,-1.018693144,5.178426078
-4.10E-05,-1.011323063,5.182093423
-4.09E-05,-1.011323063,5.189428114
-4.09E-05,-1.015008104,5.19309546
-4.08E-05,-1.018693144,5.196762805
-4.07E-05,-1.011323063,5.207764842
-4.06E-05,-1.015008104,5.204097497
-4.06E-05,-1.003952983,5.215099533
-4.05E-05,-1.003952983,5.211432188
-4.04E-05,-1.003952983,5.211432188
-4.04E-05,-1.000267942,5.222434225
-4.03E-05,-1.000267942,5.237103607
-4.02E-05,-1.000267942,5.248105644
-4.02E-05,-1.003952983,5.255440335
-4.01E-05,-1.003952983,5.266442371
-4.00E-05,-1.003952983,5.266442371
-3.99E-05,-1.007638023,5.281111754
-3.99E-05,-1.011323063,5.281111754
-3.98E-05,-1.003952983,5.299448482
-3.97E-05,-1.003952983,5.310450518
-3.97E-05,-1.022378184,5.321452555
-3.96E-05,-1.022378184,5.321452555
-3.95E-05,-1.029748265,5.321452555
-3.95E-05,-1.026063224,5.336121938
-3.94E-05,-1.015008104,5.35079132
-3.93E-05,-1.015008104,5.361793357
-3.92E-05,-1.018693144,5.361793357
-3.92E-05,-1.015008104,5.372795393
-3.91E-05,-1.022378184,5.38379743
-3.90E-05,-1.015008104,5.376462739
-3.90E-05,-1.018693144,5.387464776
-3.89E-05,-1.015008104,5.394799467
-3.88E-05,-1.015008104,5.402134158
-3.88E-05,-1.000267942,5.402134158
-3.87E-05,-1.007638023,5.41680354
-3.86E-05,-1.003952983,5.41680354
-3.85E-05,-1.011323063,5.41680354
-3.85E-05,-1.007638023,5.435140268
-3.84E-05,-1.003952983,5.446142305
-3.83E-05,-1.007638023,5.468146378
-3.83E-05,-1.000267942,5.479148415
-3.82E-05,-1.003952983,5.490150452
-3.81E-05,-1.000267942,5.497485143
-3.81E-05,-0.992897862,5.501152489
-3.80E-05,-1.000267942,5.501152489
-3.79E-05,-1.003952983,5.501152489
-3.78E-05,-1.000267942,5.519489217
-3.78E-05,-1.011323063,5.534158599
-3.77E-05,-1.011323063,5.545160636
-3.76E-05,-1.022378184,5.552495327
-3.76E-05,-1.018693144,5.567164709
-3.75E-05,-1.018693144,5.548827981
-3.74E-05,-1.007638023,5.589168783
-3.74E-05,-1.011323063,5.581834091
-3.73E-05,-1.007638023,5.607505511
-3.72E-05,-1.007638023,5.607505511
-3.71E-05,-1.015008104,5.618507547
-3.71E-05,-1.011323063,5.625842238
-3.70E-05,-1.018693144,5.625842238
-3.69E-05,-1.015008104,5.636844275
-3.69E-05,-1.015008104,5.629509584
-3.68E-05,-1.015008104,5.636844275
-3.67E-05,-1.011323063,5.63317693
-3.67E-05,-1.015008104,5.647846312
-3.66E-05,-1.018693144,5.644178966
-3.65E-05,-1.015008104,5.647846312
-3.64E-05,-1.015008104,5.66618304
-3.64E-05,-1.018693144,5.688187113
-3.63E-05,-1.018693144,5.69918915
-3.62E-05,-1.022378184,5.721193224
-3.62E-05,-1.022378184,5.717525878
-3.61E-05,-1.022378184,5.728527915
-3.60E-05,-1.022378184,5.724860569
-3.60E-05,-1.018693144,5.735862606
-3.59E-05,-1.022378184,5.735862606
-3.58E-05,-1.015008104,5.743197297
-3.57E-05,-1.015008104,5.750531988
-3.57E-05,-1.007638023,5.750531988
-3.56E-05,-1.022378184,5.761534025
-3.55E-05,-1.018693144,5.76520137
-3.55E-05,-1.007638023,5.768868716
-3.54E-05,-1.003952983,5.761534025
-3.53E-05,-1.003952983,5.779870753
-3.53E-05,-1.007638023,5.79087279
-3.52E-05,-1.007638023,5.801874826
-3.51E-05,-1.011323063,5.812876863
-3.50E-05,-1.011323063,5.827546245
-3.50E-05,-1.022378184,5.834880937
-3.49E-05,-1.018693144,5.838548282
-3.48E-05,-1.015008104,5.849550319
-3.48E-05,-1.022378184,5.864219701
-3.47E-05,-1.026063224,5.867887047
-3.46E-05,-1.022378184,5.871554392
-3.46E-05,-1.029748265,5.88989112
-3.45E-05,-1.029748265,5.882556429
-3.44E-05,-1.022378184,5.897225811
-3.43E-05,-1.022378184,5.919229885
-3.43E-05,-1.011323063,5.915562539
-3.42E-05,-1.015008104,5.944901304
-3.41E-05,-1.007638023,5.941233958
-3.41E-05,-1.015008104,5.952235995
-3.40E-05,-1.011323063,5.941233958
-3.39E-05,-1.007638023,5.955903341
-3.39E-05,-1.000267942,5.963238032
-3.38E-05,-1.000267942,5.98157476
-3.37E-05,-1.000267942,5.977907414
-3.36E-05,-1.000267942,5.985242105
-3.36E-05,-0.992897862,5.98157476
-3.35E-05,-0.996582902,5.992576796
-3.34E-05,-0.996582902,6.003578833
-3.34E-05,-0.996582902,6.01458087
-3.33E-05,-1.007638023,6.029250252
-3.32E-05,-1.000267942,6.036584943
-3.32E-05,-0.996582902,6.036584943
-3.31E-05,-1.003952983,6.040252289
-3.30E-05,-1.015008104,6.051254326
-3.29E-05,-1.011323063,6.054921671
-3.29E-05,-1.018693144,6.065923708
-3.28E-05,-1.011323063,6.08059309
-3.27E-05,-1.007638023,6.087927782
-3.27E-05,-1.011323063,6.084260436
-3.26E-05,-1.007638023,6.098929818
-3.25E-05,-1.007638023,6.098929818
-3.25E-05,-1.015008104,6.106264509
-3.24E-05,-1.022378184,6.117266546
-3.23E-05,-1.026063224,6.128268583
-3.22E-05,-1.033433305,6.135603274
-3.22E-05,-1.026063224,6.146605311
-3.21E-05,-1.022378184,6.161274693
-3.20E-05,-1.022378184,6.161274693
-3.20E-05,-1.018693144,6.161274693
-3.19E-05,-1.015008104,6.183278767
-3.18E-05,-1.011323063,6.183278767
-3.18E-05,-1.007638023,6.186946112
-3.17E-05,-1.003952983,6.190613458
-3.16E-05,-1.011323063,6.197948149
-3.15E-05,-1.003952983,6.197948149
-3.15E-05,-1.015008104,6.227286914
-3.14E-05,-1.022378184,6.223619568
-3.13E-05,-1.029748265,6.227286914
-3.13E-05,-1.029748265,6.23828895
-3.12E-05,-1.029748265,6.249290987
-3.11E-05,-1.033433305,6.263960369
-3.11E-05,-1.029748265,6.271295061
-3.10E-05,-1.026063224,6.271295061
-3.09E-05,-1.022378184,6.282297097
-3.08E-05,-1.022378184,6.278629752
-3.08E-05,-1.029748265,6.29696648
-3.07E-05,-1.022378184,6.293299134
-3.06E-05,-1.026063224,6.318970553
-3.06E-05,-1.026063224,6.318970553
-3.05E-05,-1.026063224,6.318970553
-3.04E-05,-1.022378184,6.322637899
-3.04E-05,-1.026063224,6.340974627
-3.03E-05,-1.033433305,6.351976663
-3.02E-05,-1.037118345,6.355644009
-3.01E-05,-1.026063224,6.370313391
-3.01E-05,-1.026063224,6.373980737
-3.00E-05,-1.015008104,6.384982774
-2.99E-05,-1.022378184,6.377648082
-2.99E-05,-1.018693144,6.399652156
-2.98E-05,-1.022378184,6.39598481
-2.97E-05,-1.015008104,6.410654193
-2.97E-05,-1.011323063,6.406986847
-2.96E-05,-1.015008104,6.428990921
-2.95E-05,-1.011323063,6.428990921
-2.94E-05,-1.007638023,6.439992957
-2.94E-05,-1.007638023,6.439992957
-2.93E-05,-1.011323063,6.45466234
-2.92E-05,-1.015008104,6.447327649
-2.92E-05,-1.011323063,6.465664376
-2.91E-05,-1.007638023,6.465664376
-2.90E-05,-1.007638023,6.48766845
-2.90E-05,-1.018693144,6.48766845
-2.89E-05,-1.018693144,6.506005178
-2.88E-05,-1.026063224,6.509672523
-2.87E-05,-1.026063224,6.517007215
-2.87E-05,-1.029748265,6.531676597
-2.86E-05,-1.029748265,6.539011288
-2.85E-05,-1.026063224,6.572017398
-2.85E-05,-1.018693144,6.480333759
-2.84E-05,-1.015008104,6.638029619
-2.83E-05,-1.015008104,6.476666413
-2.83E-05,-1.011323063,6.638029619
-2.82E-05,-1.007638023,6.509672523
-2.81E-05,-1.003952983,6.634362273
-2.80E-05,-0.996582902,6.550013325
-2.80E-05,-1.003952983,6.641696964
-2.79E-05,-1.000267942,6.575684744
-2.78E-05,-1.011323063,6.638029619
-2.78E-05,-1.022378184,6.627027582
-2.77E-05,-1.022378184,6.630694928
-2.76E-05,-1.022378184,6.652699001
-2.76E-05,-1.015008104,6.641696964
-2.75E-05,-1.022378184,6.674703075
-2.74E-05,-1.018693144,6.641696964
-2.73E-05,-1.018693144,6.700374494
-2.73E-05,-1.018693144,6.656366347
-2.72E-05,-1.018693144,6.707709185
-2.71E-05,-1.018693144,6.663701038
-2.71E-05,-1.007638023,6.71137653
-2.70E-05,-1.015008104,6.67837042
-2.69E-05,-1.003952983,6.733380604
-2.69E-05,-1.000267942,6.704041839
-2.68E-05,-0.989212822,6.740715295
-2.67E-05,-1.000267942,6.722378567
-2.66E-05,-1.003952983,6.751717332
-2.66E-05,-1.003952983,6.748049986
-2.65E-05,-1.011323063,6.766386714
-2.64E-05,-1.018693144,6.77005406
-2.64E-05,-1.022378184,6.773721405
-2.63E-05,-1.015008104,6.784723442
-2.62E-05,-1.026063224,6.795725479
-2.62E-05,-1.026063224,6.814062207
-2.61E-05,-1.018693144,6.810394861
-2.60E-05,-1.026063224,6.828731589
-2.59E-05,-1.022378184,6.825064243
-2.59E-05,-1.026063224,6.83606628
-2.58E-05,-1.022378184,6.839733626
-2.57E-05,-1.015008104,6.858070354
-2.57E-05,-1.015008104,6.854403008
-2.56E-05,-1.022378184,6.843400971
-2.55E-05,-1.011323063,6.942419302
-2.55E-05,-1.007638023,6.773721405
-2.54E-05,-1.018693144,6.986427449
-2.53E-05,-1.011323063,6.825064243
-2.52E-05,-1.011323063,6.975425412
-2.52E-05,-1.011323063,6.872739736
-2.51E-05,-1.011323063,6.957088684
-2.50E-05,-1.007638023,6.905745846
-2.50E-05,-1.007638023,6.949753993
-2.49E-05,-1.007638023,6.942419302
-2.48E-05,-1.003952983,6.942419302
-2.48E-05,-1.007638023,6.971758067
-2.47E-05,-1.003952983,6.942419302
-2.46E-05,-1.007638023,6.997429486
-2.45E-05,-1.007638023,6.953421339
-2.45E-05,-1.007638023,7.012098868
-2.44E-05,-1.011323063,6.971758067
-2.43E-05,-0.996582902,7.030435596
-2.43E-05,-1.007638023,6.99376214
-2.42E-05,-1.011323063,7.045104978
-2.41E-05,-1.003952983,7.015766214
-2.41E-05,-0.996582902,7.056107015
-2.40E-05,-0.996582902,7.034102941
-2.39E-05,-1.000267942,7.070776397
-2.38E-05,-1.007638023,7.041437633
-2.38E-05,-1.011323063,7.074443743
-2.37E-05,-1.011323063,7.070776397
-2.36E-05,-1.018693144,7.089113125
-2.36E-05,-1.015008104,7.078111088
-2.35E-05,-1.007638023,7.103782507
-2.34E-05,-1.007638023,7.100115162
-2.34E-05,-1.011323063,7.103782507
-2.33E-05,-1.007638023,7.11845189
-2.32E-05,-1.007638023,7.122119235
-2.31E-05,-1.000267942,7.129453927
-2.31E-05,-0.996582902,7.125786581
-2.30E-05,-1.000267942,7.140455963
-2.29E-05,-1.011323063,7.147790654
