Lab7/inlab/differential/triangle/differentialTriangle10k.csv

#Digilent WaveForms Oscilloscope Acquisition
#Device Name: Discovery2
#Serial Number: SN:210321B0E782
#Date Time: 2023-10-25 14:45:46.089
#Sample rate: 1.5873e+06Hz
#Samples: 8192
#Trigger: Source: Channel 1 Type: Edge Condition: Rising Level: -2.41 mV Hyst.: Auto HoldOff: 100 ns
#Channel 1: Range: 500 mV/div Offset: 1 V Attenuation: 1 X
#Channel 2: Range: 500 mV/div Offset: -200 mV Attenuation: 1 X
#Wavegen Channel 1: Running
#Mode: Simple
#Type: Triangle
#Frequency: 10 kHz
#Period: 100 us
#Amplitude: 1 V
#Offset: 0 V
#Symmetry: 50 %
#Phase: 0 °

Time (s),Channel 1 (V),Channel 2 (V)
-0.00257985,0.8018359690063073,-0.4478910941170381
-0.00257922,0.827934791746851,-0.4498752375038251
-0.00257859,0.8533728847977844,-0.4174675621862916
-0.00257796,0.876828788779815,-0.362572928485151
-0.00257733,0.9032579763651758,-0.3384325172792435
-0.0025767,0.9280353397264631,-0.3387632078437082
-0.00257607,0.9538037976221898,-0.3672025963876539
-0.00257544,0.9792418906731231,-0.4174675621862916
-0.00257481,0.9941083086898954,-0.4277189696846952
-0.00257418,0.9716434992423386,-0.1482854427122048
-0.00257355,0.9462054061914069,0.439020999777116
-0.00257292,0.9201065834508396,0.9443161822791327
-0.00257229,0.8949988552447468,1.060388570406167
-0.00257166,0.8685696676593739,0.7366425077952885
-0.00257103,0.8431315746084413,0.2105138197318753
-0.0025704,0.8186845760919825,-0.179039665207289
-0.00256977,0.7919250236617923,-0.1783782840783597
-0.00256914,0.7671476603005165,0.1807516689300719
-0.00256851,0.7413792024047667,0.6347898139401805
-0.00256788,0.7166018390434679,0.8973581221250648
-0.00256725,0.6911637459925581,0.8163389338312659
-0.00256662,0.6647345584071851,0.4734128184814381
-0.00256599,0.639626830201069,0.09940179007186069
-0.00256536,0.6138583723053421,-0.0632979676446663
-0.00256473,0.5897417386336894,0.05905754120724907
-0.0025641,0.5656251049620477,0.3738749585774396
-0.00256347,0.5395262822214808,0.6678588703866442
-0.00256284,0.5127667297912802,0.7743412321441888
-0.00256221,0.4896411906540894,0.6245384064417768
-0.00256158,0.4628816382238994,0.3427900455179068
-0.00256095,0.438104274862601,0.1066769824901358
-0.00256032,0.4133269115013249,0.06071099402957222
-0.00255969,0.3892102778296722,0.2128286536833049
-0.00255906,0.3631114550891282,0.4625000298539915
-0.00255843,0.3373429971933779,0.6546312478080587
-0.0025578,0.3125656338320908,0.658930225146099
-0.00255717,0.2861364462467177,0.4906087278335992
-0.00255654,0.2593768938165277,0.2769826231894443
-0.00255591,0.2362513546793148,0.1513202086928925
-0.00255528,0.2108132616284049,0.1731457859475485
-0.00255465,0.1833929795085805,0.3318772568905739
-0.00255402,0.1592763458369387,0.5269846899246204
-0.00255339,0.1368115363893607,0.605358353702828
-0.00255276,0.1103823488039877,0.537236097423113
-0.00255213,0.08329243152898047,0.3904094868008144
-0.0025515,0.05884543301251055,0.2551570459347783
-0.00255087,0.03505916418566337,0.2164662498924413
-0.00255024,0.009951435979570489,0.2723529552869394
-0.00254961,-0.01482592738171662,0.3970232980901072
-0.00254898,-0.0409247501222605,0.5124343050882126
-0.00254835,-0.06570211348355948,0.5388895502454361
-0.00254772,-0.09114020653448096,0.4671296977566101
-0.00254709,-0.1165782995853909,0.3533721435808269
-0.00254646,-0.140364568412238,0.2710301930290808
-0.00254583,-0.166133026307989,0.2640856911753612
-0.0025452,-0.1932229435829839,0.3470890228559471
-0.00254457,-0.2170092124098195,0.4449734299374795
-0.00254394,-0.2431080351503635,0.4972225391228682
-0.00254331,-0.2682157633564797,0.4886245844468113
-0.00254268,-0.293323491562584,0.4181874942158439
-0.00254205,-0.3177704900790428,0.3312158757616841
-0.00254142,-0.3435389479747926,0.2918636985903529
-0.00254079,-0.3686466761809082,0.304429940040037
-0.00254016,-0.393754404387001,0.3659383850304314
-0.00253953,-0.4185317677482883,0.4396823809060453
-0.0025389,-0.44264840141993,0.4773811052549966
-0.00253827,-0.4687472241604969,0.4545634563069538
-0.00253764,-0.4938549523666012,0.3996688226058243
-0.00253701,-0.5192930454175111,0.3404752115666813
-0.00253638,-0.5453918681580783,0.3143506569739482
-0.00253575,-0.5711603260538285,0.3398138304377513
-0.00253512,-0.5965984191047384,0.3973539886545718
-0.00253449,-0.6213757824660255,0.4522486223557014
-0.00253386,-0.6461531458273237,0.4585317430805091
-0.00253323,-0.6706001443437826,0.4138885168778036
-0.0025326,-0.6957078725498869,0.3553562869675631
-0.00253197,-0.7204852359111629,0.3216258493921855
-0.00253134,-0.7465840586517298,0.3355148530996849
-0.00253071,-0.7726828813922966,0.3887560339785101
-0.00253008,-0.7967995150639384,0.4300923545365708
-0.00252945,-0.8235590674941285,0.4466268827598026
-0.00252882,-0.8493275253898787,0.4360447846969195
-0.00252819,-0.8747656184407886,0.4036371093793999
-0.00252756,-0.9008644411813443,0.3745363397065119
-0.00252693,-0.9236596154737182,0.3457662605981017
-0.0025263,-0.9481066139901985,0.3411365926955837
-0.00252567,-0.9732143421963028,0.3718908151907948
-0.00252504,-0.9986524352472242,0.4085974678463694
-0.00252441,-0.9874200305234407,0.2978161287507163
-0.00252378,-0.9623123023173246,-0.1929286689150604
-0.00252315,-0.9362134795767807,-0.7574174624559376
-0.00252252,-0.9097842919914078,-1.05073999313607
-0.00252189,-0.8840158340956809,-0.8996144051757998
-0.00252126,-0.8562651871310275,-0.4366476149252405
-0.00252063,-0.832809283149009,0.02003605460042199
-0.00252,-0.8077015549429047,0.2052227707006182
-0.00251937,-0.7809420025127146,0.0101153376664829
-0.00251874,-0.7548431797721478,-0.4300338036361191
-0.00251811,-0.7303961812556889,-0.8066903565611683
-0.00251748,-0.7049580882047675,-0.8837412580814286
-0.00251685,-0.6798503599986746,-0.6502737195695015
-0.00251622,-0.6540819021029245,-0.2656805930970236
-0.00251559,-0.6293045387416374,0.01209948105327072
-0.00251496,-0.6048575402251786,0.02598848476077913
-0.00251433,-0.5790890823294288,-0.2210373668942977
-0.0025137,-0.5533206244336792,-0.5517279313590232
-0.00251307,-0.5292039907620374,-0.7481581266509277
-0.00251244,-0.5021140734870302,-0.6988852325456969
-0.00251181,-0.4760152507464862,-0.4634335506469831
-0.00251118,-0.4499164280059186,-0.1972276462528439
-0.00251055,-0.4254694294894487,-0.06693556385377733
-0.00250992,-0.4016831606626238,-0.1453092276318604
-0.00250929,-0.3769057973013259,-0.3665412152587376
-0.00250866,-0.3508069745607589,-0.5824821538541837
-0.00250803,-0.3263599760443001,-0.6674696289215565
-0.0025074,-0.3005915181485614,-0.5712386746623473
-0.00250677,-0.2748230602528346,-0.3728243359836559
-0.00250614,-0.2480635078226328,-0.1909445255280159
-0.00250551,-0.2229557796165285,-0.1539071823079766
-0.00250488,-0.1985087811000696,-0.2580747101142897
-0.00250425,-0.1734010528939542,-0.4383010677475636
-0.00250362,-0.1486236895326562,-0.5732228180491349
-0.00250299,-0.1245070558610143,-0.5725614369202059
-0.00250236,-0.09807786827564136,-0.4640949317758053
-0.00250173,-0.07363086975915975,-0.3225593701848954
-0.0025011,-0.04819277670824995,-0.2223601291521563
-0.00250047,-0.02176358912287701,-0.2448470875357515
-0.00249984,0.002353044548764862,-0.3622422379206439
-0.00249921,0.02779113759969731,-0.4740156487097443
-0.00249858,0.05388996034026452,-0.5262647578951375
-0.00249795,0.07932805339117444,-0.4836056750792188
-0.00249732,0.1034446870628274,-0.3847291963042926
-0.00249669,0.1282220504241259,-0.2891596231740009
-0.00249606,0.1533297786302188,-0.2630350685813065
-0.00249543,0.1794286013707744,-0.3192524645402947
-0.0024948,0.2042059647320505,-0.4237506829110721
-0.00249417,0.2289833280933489,-0.4955105353999457
-0.00249354,0.2534303266098301,-0.4898887958040133
-0.00249291,0.2782076899711059,-0.416144799928433
-0.00249228,0.3039761478668446,-0.3453770191330009
-0.00249165,0.3300749706074109,-0.2961041250277736
-0.00249102,0.3535308745894188,-0.3037100080104568
-0.00249039,0.3799600621747916,-0.3685253586455254
-0.00248976,0.4047374255360675,-0.4538435242773628
-0.00248913,0.4308362482766346,-0.485259127901542
-0.0024885,0.4562743413275561,-0.4627721695179468
-0.00248787,0.4823731640681119,-0.3953112943671609
-0.00248724,0.5081416219638504,-0.333472158812274
-0.00248661,0.5319278907906974,-0.3090010570419026
-0.00248598,0.5567052541519733,-0.3344642305056679
-0.00248535,0.5818129823580775,-0.3893588642067976
-0.00248472,0.6055992511849023,-0.4333407092805741
-0.00248409,0.6323588036151033,-0.4508673091972198
-0.00248346,0.6581272615108418,-0.4383010677475636
-0.00248283,0.6819135303376775,-0.3972954377539488
-0.0024822,0.7083427179230504,-0.3506680681644351
-0.00248157,0.7334504461291657,-0.3318187059899578
-0.00248094,0.7575670798008076,-0.3473611625197888
-0.00248031,0.7839962673861804,-0.3840678151753634
-0.00247968,0.8077825362130054,-0.4244120640400306
-0.00247905,0.8318991698846689,-0.4356555432318465
-0.00247842,0.8576676277804076,-0.4168061810573623
-0.00247779,0.8850879099002196,-0.3850598868687717
-0.00247716,0.9095349084167019,-0.3715015737257071
-0.00247653,0.9333211772435501,-0.3612501662273096
-0.0024759,0.9607414593633621,-0.3748084793703536
-0.00247527,0.9868402821039177,-0.4118458225903928
-0.00247464,0.9904742953969049,-0.3764619321926927
-0.00247401,0.9647058375011679,0.01309155274666463
-0.00247338,0.9389373796054294,0.5964297084622827
-0.00247275,0.9138296513993366,0.9998721971089555
-0.00247212,0.8870700989691349,0.9906128613041291
-0.00247149,0.8626231004526532,0.5974217801554437
-0.00247086,0.8368546425569263,0.08485140523549067
-0.00247023,0.8100950901267363,-0.2002038613330257
-0.0024696,0.7856480916102775,-0.09041459393081641
-0.00246897,0.7612010930937962,0.3060833928623322
-0.00246834,0.7360933648876919,0.7144862399761579
-0.00246771,0.7093338124575141,0.8917363825291222
-0.00246708,0.6855475436306664,0.737965270053147
-0.00246645,0.6597790857349158,0.3646156227724272
-0.00246582,0.6336802629943719,0.04417646580634044
-0.00246519,0.6092332644779019,-0.04610205829250524
-0.00246456,0.5828040768925168,0.131809465389624
-0.00246393,0.5557141596175217,0.4727514373525089
-0.0024633,0.5329189853251375,0.7296980059415311
-0.00246267,0.5081416219638617,0.7386266511820723
-0.00246204,0.4830338937577461,0.5253312371023861
-0.00246141,0.4559439764827276,0.246228400694159
-0.00246078,0.4311666131214518,0.08319795241316749
-0.00246015,0.4063892497601647,0.1222194390199946
-0.00245952,0.3806207918644143,0.3193110154410208
-0.00245889,0.3548523339686873,0.5461647426636581
-0.00245826,0.329744605762583,0.6592609157105637
-0.00245763,0.3039761478668563,0.5875010632217702
-0.002457,0.2782076899711059,0.3920629396231377
-0.00245637,0.2544214211442701,0.2111752008609817
-0.00245574,0.2299744226278002,0.149997446435024
-0.00245511,0.2032148701976102,0.2485432346454856
-0.00245448,0.181741155284482,0.4241399243762676
-0.00245385,0.153660143475036,0.5567468407265265
-0.00245322,0.1272309558896629,0.5832020858836974
-0.00245259,0.1031143222180212,0.4922621806559638
-0.00245196,0.07833695885672309,0.3358455436641495
-0.00245133,0.05256850096098442,0.2184503932792037
-0.0024507,0.02779113759969731,0.2194424649725976
-0.00245007,0.002022679703958641,0.3282396606814629
-0.00244944,-0.02308504850215617,0.4744048901748628
-0.00244881,-0.04621058763934693,0.5421964558900825
-0.00244818,-0.07230941037990268,0.4988759919452151
-0.00244755,-0.09741713858599556,0.3917322490587217
-0.00244692,-0.1225248667921113,0.2921943891548175
-0.00244629,-0.1476325949982156,0.2640856911753234
-0.00244566,-0.1734010528939425,0.3110437513292804
-0.00244503,-0.1988391459448756,0.4072747055885109
-0.0024444,-0.2242772389958088,0.4876325127534218
-0.00244377,-0.2500456968915358,0.4972225391228919
-0.00244314,-0.2744926954080057,0.4419972148572977
-0.00244251,-0.2979485993900135,0.3500652379361707
-0.00244188,-0.3253688815098487,0.2971547476217871
-0.00244125,-0.3501462448711358,0.3011230343953627
-0.00244062,-0.3752539730772286,0.3656076944659374
-0.00243999,-0.4013527958177958,0.4469575733242672
-0.00243936,-0.4257997943342774,0.4767197241260743
-0.00243873,-0.4515682522300044,0.4542327657424893
-0.0024381,-0.4763456155912915,0.3861105094627742
-0.00243747,-0.5017837086422015,0.3312158757616696
-0.00243684,-0.5252396126242315,0.3130278947160896
-0.00243621,-0.552659894744056,0.3401445210021898
-0.00243558,-0.5764461635708807,0.4052905622016935
-0.00243495,-0.6028753511562644,0.4522486223557014
-0.00243432,-0.6283134442071965,0.4651455543697993
-0.00243369,-0.6514389833443872,0.4148805885711975
-0.00243306,-0.6798503599986632,0.3656076944659667
-0.00243243,-0.7046277233599608,0.337829687050935
-0.0024318,-0.7277532624971517,0.3328693285839678
-0.00243117,-0.7551735446169761,0.3708987434974009
-0.00243054,-0.7799509079782518,0.415872660264571
-0.00242991,-0.804067541649916,0.4472882638887319
-0.00242928,-0.8285145401663983,0.4281082111497655
-0.00242865,-0.8556044574413932,0.3897481056718852
-0.00242802,-0.8790603614234117,0.351718690758452
-0.00242739,-0.9061502786984297,0.3464276417270289
-0.00242676,-0.9299365475252546,0.3708987434974009
-0.00242613,-0.955374640576176,0.3976846792190365
-0.0024255,-0.981143098471903,0.4257933771985177
-0.00242487,-1.000634624316127,0.413557826313339
-0.00242424,-0.980812733627086,0.1638864501422853
-0.00242361,-0.955374640576176,-0.3933271509803732
-0.00242298,-0.9292758178356203,-0.8992837146112664
-0.00242235,-0.9025162654054186,-1.049086540313617
-0.00242172,-0.8770781723545087,-0.7640312737452303
-0.00242109,-0.8499882550795015,-0.2686568081772054
-0.00242046,-0.8255412565630426,0.1218887484553524
-0.00241983,-0.7984513392880243,0.168185427480579
-0.0024192,-0.773673975926737,-0.1334043673111692
-0.00241857,-0.7498877070999015,-0.5586724332126912
-0.00241794,-0.7237888843593456,-0.8493494393771064
-0.00241731,-0.6986811561532289,-0.8281852432512348
-0.00241668,-0.6712608740334169,-0.5315558069265911
-0.00241605,-0.6474746052065813,-0.1661427331931682
-0.00241542,-0.6230276066901225,0.0369012733880261
-0.00241479,-0.5972591487943728,-0.02692200555355634
-0.00241416,-0.5728121502779028,-0.3136307249443958
-0.00241353,-0.5457222330028955,-0.6274560706213356
-0.0024129,-0.5209448696416084,-0.7749440623725632
-0.00241227,-0.4955067765906754,-0.6608558176321357
-0.00241164,-0.4703990483845826,-0.3794381472728584
-0.00241101,-0.4439698607992096,-0.1241450315061594
-0.00241038,-0.4182014029034828,-0.06362865820915849
-0.00240975,-0.3940847692318182,-0.2051642197999952
-0.00240912,-0.370959230094617,-0.4333407092805941
-0.00240849,-0.344199677664439,-0.6241491649766024
-0.00240786,-0.3167793955446024,-0.6601944365033345
-0.00240723,-0.2939842212522068,-0.5262647578950541
-0.0024066,-0.2688764930461139,-0.3000724118013458
-0.00240597,-0.2421169406159238,-0.149938895534401
-0.00240534,-0.217339577254648,-0.162174446419587
-0.00240471,-0.1919014842037152,-0.3169376305890422
-0.00240408,-0.1684455802216968,-0.503447108947097
-0.00240345,-0.1420163926363358,-0.5996780632062624
-0.00240282,-0.1155872050509509,-0.5599951954705498
-0.00240219,-0.09114020653446954,-0.4154834187994332
-0.00240156,-0.06603247832837666,-0.2603895440655895
-0.00240093,-0.03927292589818654,-0.2008652424619549
-0.0024003,-0.01614738676099578,-0.2623736874523492
-0.00239967,0.009951435979570489,-0.3943192226737671
-0.00239904,0.0347287993408576,-0.5219657805571166
-0.00239841,0.06016689239176751,-0.547428954020882
-0.00239778,0.08527462059788338,-0.4816215316924309
-0.00239715,0.1093912542695482,-0.3569511888892165
-0.00239652,0.135490077010092,-0.2544371139052259
-0.00239589,0.1605978052161963,-0.2445163969712869
-0.00239526,0.1853751685774949,-0.3252048947007136
-0.00239463,0.2108132616284049,-0.4472297129881089
-0.002394,0.2365817195241435,-0.524280614508369
-0.00239337,0.2603679883509682,-0.5060926334628224
-0.00239274,0.2874579056259865,-0.417136871621827
-0.00239211,0.3119049041424681,-0.3265276569584982
-0.00239148,0.3376733620381951,-0.286183408093831
-0.00239085,0.3634418199339335,-0.3162762494601129
-0.00239022,0.3862369942263295,-0.378446075579488
-0.00238959,0.4120054521220564,-0.4300338036359478
-0.00238896,0.4377739100177951,-0.4614494072600882
-0.00238833,0.4612298139998028,-0.4376396866186452
-0.0023877,0.4879893664300037,-0.3827450529175048
-0.00238707,0.5130970946361197,-0.3480225436487132
-0.00238644,0.5388655525318464,-0.3374404455858496
-0.00238581,0.5636429158931335,-0.3695174303389194
-0.00238518,0.5890810089440665,-0.4052320113011147
-0.00238455,0.6141887371501593,-0.4373089960541697
-0.00238392,0.6386357356666292,-0.4336713998450588
-0.00238329,0.6637434638727221,-0.404570630172184
-0.00238266,0.6895119217684722,-0.3622422379206973
-0.00238203,0.7146196499745765,-0.3390938984081728
-0.0023814,0.7393970133358636,-0.3509987587288997
-0.00238077,0.7648351063867851,-0.388036101948939
-0.00238014,0.7922553885066203,-0.4310258753293476
-0.00237951,0.8160416573334452,-0.4439228073434625
-0.00237888,0.8424708449188181,-0.4151527282350391
-0.00237825,0.865926748900826,-0.3777846944505522
-0.00237762,0.8926863013310267,-0.3536442832446168
-0.00237699,0.9164725701578624,-0.3556284266314046
-0.00237636,0.9409195686743212,-0.3711708831612354
-0.00237573,0.9660272968804366,-0.397956818882878
-0.0023751,0.9908046602417195,-0.4177982527507021
-0.00237447,0.9815544445868432,-0.2987496495434873
-0.00237384,0.9561163515359217,0.175460619898801
-0.00237321,0.9310086233298288,0.743917700213252
-0.00237258,0.9055705302788961,1.037570921458107
-0.00237195,0.8801324372279746,0.8957046693027785
-0.00237132,0.8556854387115158,0.4390209997773236
-0.00237069,0.8295866159709488,-0.02923683950480879
-0.00237006,0.8048092526096507,-0.1985504085106118
-0.00236943,0.7806926189380088,0.0008560018614731102
-0.0023688,0.7529419719733672,0.4231478526828134
-0.00236817,0.7281646086120914,0.8057568357682235
-0.00236754,0.7030568804059758,0.8801622127729406
-0.00236691,0.6772884225102374,0.6420650063584026
-0.00236628,0.6531717888385954,0.2607787855308505
-0.00236565,0.6264122364083944,-0.01369438297497089
-0.00236502,0.6019652378919135,-0.01567852636165133
-0.00236439,0.5778486042202715,0.2204345366659915
-0.00236376,0.5520801463245331,0.547156814357052
-0.00236313,0.5273027829632334,0.7495394398093856
-0.0023625,0.5002128656882385,0.6976210211884615
-0.00236187,0.4754355023269514,0.4628307204185698
-0.00236124,0.4486759498967736,0.2025772461850195
-0.00236061,0.4242289513802913,0.07790690338173331
-0.00235998,0.3997819528638095,0.1516508992574457
-0.00235935,0.3736831301232657,0.3682532189816838
-0.00235872,0.3472539425378927,0.5868396820928083
-0.00235809,0.3228069440214113,0.6599222968394455
-0.00235746,0.2976992158153184,0.5557547690331325
-0.00235683,0.2719307579195798,0.3563483586609569
-0.0023562,0.2464926648686699,0.1982782688469328
-0.00235557,0.2220456663521884,0.1757913104632656
-0.00235494,0.1972683029908897,0.2713608835936172
-0.00235431,0.1718302099399798,0.4291002828431769
-0.00235368,0.1480439411131442,0.5537706256463447
-0.00235305,0.1232665777518455,0.5574082218554098
-0.00235242,0.09782848470093564,0.4565475996937417
-0.00235179,0.07239039165001415,0.3103823702003725
-0.00235116,0.0466219337542872,0.2267176573908576
-0.00235053,0.02052311101371962,0.2640856911753234
-0.0023499,-0.003263157813115924,0.3725521963197241
-0.00234927,-0.02804052117440303,0.4714286750946504
-0.00234864,-0.05446970875977597,0.5137570673461237
-0.00234801,-0.07990780181070888,0.482672154286407
-0.00234738,-0.1050155300168018,0.3927243207520669
-0.00234675,-0.1311143527573575,0.3021151060887566
-0.00234612,-0.1545702567393653,0.2743370986737398
-0.00234549,-0.1796779849454803,0.3189803248764531
-0.00234486,-0.2054464428412189,0.4119043734910158
-0.00234423,-0.2312149007369575,0.4816800825930541
-0.0023436,-0.2579744531671476,0.4995373730741444
-0.00234297,-0.2817607219939944,0.4393516903415426
-0.00234234,-0.3062077205104532,0.3556869775320277
-0.00234171,-0.3316458135613747,0.290871626896959
-0.00234108,-0.3560928120778336,0.290871626896959
-0.00234045,-0.3812005402839489,0.348081094549341
-0.00233982,-0.4069689981796876,0.424470614940672
