Lab7/inlab/differential/triangle/differentialTriangle1k.csv

#Digilent WaveForms Oscilloscope Acquisition
#Device Name: Discovery2
#Serial Number: SN:210321B0E782
#Date Time: 2023-10-25 14:45:09.804
#Sample rate: 1.5873e+06Hz
#Samples: 8192
#Trigger: Source: Channel 1 Type: Edge Condition: Rising Level: -2.41 mV Hyst.: Auto HoldOff: 100 ns
#Channel 1: Range: 500 mV/div Offset: 1 V Attenuation: 1 X
#Channel 2: Range: 500 mV/div Offset: -200 mV Attenuation: 1 X
#Wavegen Channel 1: Running
#Mode: Simple
#Type: Triangle
#Frequency: 1 kHz
#Period: 1 ms
#Amplitude: 1 V
#Offset: 0 V
#Symmetry: 50 %
#Phase: 0 °

Time (s),Channel 1 (V),Channel 2 (V)
-0.00257985,0.3175211065043482,0.04186163185508798
-0.00257922,0.313887093211361,0.04020817903276555
-0.00257859,0.3119049041424564,0.04285370354848189
-0.00257796,0.31025307991837,0.0302874620988215
-0.00257733,0.3092619853839191,0.0210281262938159
-0.0025767,0.3062887017805647,0.02334296024506835
-0.00257607,0.3029850533323945,0.03590920169471881
-0.00257544,0.299020675194587,0.05508925443367343
-0.00257481,0.2963777564360497,0.07129309209244059
-0.00257418,0.2963777564360497,0.06500997136761535
-0.00257355,0.2927437431430611,0.03094884322775499
-0.00257292,0.2904311892293393,0.009123265973088388
-0.00257229,0.2867971759363521,0.007800503715230445
-0.00257166,0.2851453517122662,0.02532710363185617
-0.00257103,0.2825024329537274,0.04946751483778138
-0.0025704,0.2791987845055575,0.06434859023868322
-0.00256977,0.2775469602814715,0.05938823177171368
-0.00256914,0.2745736766781184,0.05079027709563708
-0.00256851,0.2719307579195798,0.03590920169472453
-0.00256788,0.2696182040058573,0.01937467347149587
-0.00256725,0.2643323664887851,0.02631917532525008
-0.00256662,0.2623501774198822,0.04979820540223925
-0.00256599,0.2603679883509783,0.05145165822455867
-0.00256536,0.2587161641268934,0.04318439411294653
-0.00256473,0.2560732453683561,0.03425574887240135
-0.0025641,0.2547517859890879,0.030618152663292
-0.00256347,0.25210886723055,0.02797262814757326
-0.00256284,0.2497963133168286,0.03127953379222503
-0.00256221,0.2468230297134755,0.04318439411294653
-0.00256158,0.2448408406445726,0.04781406201545144
-0.00256095,0.2431890164204864,0.04285370354847497
-0.00256032,0.2421979218860353,0.02764193758310862
-0.00255969,0.2379031789034121,0.02135881685828053
-0.00255906,0.2339388007656081,0.04153094129061417
-0.00255843,0.231295882007069,0.06732480531886495
-0.0025578,0.2293136929381658,0.06203375628743077
-0.00255717,0.2266707741796286,0.03458643943686598
-0.00255654,0.2250189499555428,0.01540638669791708
-0.00255591,0.2227063960418217,0.009453956537563852
-0.00255528,0.2203938421281026,0.03194091492114889
-0.00255465,0.2180812882143826,0.04649129975759289
-0.00255402,0.2134561803869442,0.06038030346510127
-0.00255339,0.211143626473222,0.06467928080314786
-0.00255276,0.2098221670939533,0.05178234878902707
-0.00255213,0.206848883490599,0.03061815266329035
-0.0025515,0.202884505352793,0.01705983952024026
-0.00255087,0.2028845053527913,0.02367365080953585
-0.00255024,0.1992504920598042,0.02995677153436108
-0.00254961,0.1959468436116325,0.04715268088652216
-0.00254898,0.1949557490771816,0.05839616007831468
-0.00254835,0.1916521006290095,0.05442787330474416
-0.00254772,0.188678817025655,0.04186163185508798
-0.00254709,0.186366263111936,0.02863400927650855
-0.00254646,0.184384074043032,0.01970536403595735
-0.00254583,0.1810804255948589,0.02797262814758048
-0.0025452,0.1777767771466887,0.0438457752418758
-0.00254457,0.1757945880777858,0.05872685064278443
-0.00254394,0.1754642232329688,0.05806546951385546
-0.00254331,0.172160574784797,0.03557851113025989
-0.00254268,0.1685265614918081,0.02069743572935126
-0.00254205,0.1672051021125402,0.01011533766648771
-0.00254142,0.1658836427332708,0.01705983952024026
-0.00254079,0.1622496294402813,0.04053886959724282
-0.00254016,0.1602674403713791,0.06997032983458204
-0.00253953,0.1569637919232074,0.07625345055941013
-0.0025389,0.1543208731646713,0.06699411475440452
-0.00253827,0.1526690489405844,0.03061815266329035
-0.00253764,0.1480439411131442,-0.0007974509608500713
-0.00253701,0.1457313871994252,-0.001458832089779043
-0.00253638,0.1434188332857038,0.02367365080953299
-0.00253575,0.1404455496823483,0.05707339782047283
-0.00253512,0.1381329957686293,0.08253657128423822
-0.00253449,0.1351597121652748,0.07724552225280404
-0.00253386,0.1335078879411883,0.04450715637078959
-0.00253323,0.1318560637171031,0.01044602823094753
-0.0025326,0.1288827801137489,-0.004765737734425707
-0.00253197,0.1275613207344807,0.006477741457366787
-0.00253134,0.1249184019759428,0.03921610733937089
-0.00253071,0.1216147535277706,0.07129309209244299
-0.00253008,0.1202932941485026,0.07658414112387477
-0.00252945,0.1163289160106966,0.05277442048242098
-0.00252882,0.1143467269417921,0.02764193758310261
-0.00252819,0.1107127136488049,0.01441431500452317
-0.00252756,0.1077394300454504,0.0210281262938159
-0.00252693,0.1047661464420973,0.05045958653115514
-0.0025263,0.1041054167524615,0.05508925443367343
-0.00252567,0.1001410386146557,0.04715268088652216
-0.00252504,0.09848921439056979,0.03623989225918917
-0.00252441,0.09650702532166688,0.02532710363185617
-0.00252378,0.09386410656312855,0.02565779419632517
-0.00252315,0.09155155264940951,0.03524782056579526
-0.00252252,0.08890863389087222,0.05079027709563316
-0.00252189,0.08725680966678726,0.05475856386920699
-0.00252126,0.08494425575306619,0.03954679790383553
-0.00252063,0.08197097214971172,0.02731124701864399
-0.00252,0.07833695885672309,0.02764193758310862
-0.00251937,0.07470294556373425,0.04616060919312825
-0.00251874,0.07404221587409927,0.05839616007831002
-0.00251811,0.07272075649483134,0.03690127338811844
-0.00251748,0.07007783773629406,0.01573707726238172
-0.00251685,0.06578309475367279,0.01672914895577517
-0.00251622,0.06413127052958512,0.03690127338811844
-0.00251559,0.06049725723659627,0.05575063556260271
-0.00251496,0.05752397363324315,0.07526137886600735
-0.00251433,0.05719360878842461,0.06699411475440031
-0.0025137,0.05256850096098337,0.04020817903275533
-0.00251307,0.05025594704726433,0.01937467347149271
-0.00251244,0.04893448766799557,0.002178764119331655
-0.00251181,0.04629156890945949,0.01309155274665966
-0.00251118,0.04331828530610382,0.04351508467741116
-0.00251055,0.0416664610820181,0.05938823177171368
-0.00250992,0.03770208294421387,0.06170306572296508
-0.00250929,0.0347287993408576,0.0547585638692088
-0.00250866,0.03307697511677127,0.04252301298400748
-0.00250803,0.03175551573750313,0.0210281262938159
-0.0025074,0.0304340563582346,0.01176879048880608
-0.00250677,0.02514821884116243,0.02698055645417243
-0.00250614,0.02481785399634284,0.04285370354848189
-0.00250551,0.02085347585853681,0.06203375628743077
-0.00250488,0.01788019225518369,0.06963963927011395
-0.00250425,0.01391581411737652,0.05244372991795634
-0.00250362,0.01259435473810732,0.03194091492114107
-0.00250299,0.01160326020365643,0.01474500556898781
-0.00250236,0.01061216566920486,0.005154979199513354
-0.00250173,0.00929070628993273,0.006808432021848416
-0.0025011,0.001361950014324265,0.0329329866145428
-0.00250047,0.0003708554798729224,0.07393861660815768
-0.00249984,-0.002602428123480196,0.08782762031566609
-0.00249921,-0.002272063278664471,0.06236444685189541
-0.00249858,-0.005245346882020144,0.02135881685826865
-0.00249795,-0.007888265640556225,-0.004765737734425707
-0.00249732,-0.01218300862317934,0.005816360328442627
-0.00249669,-0.01350446800244918,0.03260229605009261
-0.00249606,-0.01614738676098526,0.06434859023868322
-0.00249543,-0.01879030551952254,0.08551278636441995
-0.0024948,-0.02110285943324159,0.07030102039905359
-0.00249417,-0.02275468365732847,0.03590920169472453
-0.00249354,-0.02638869695031811,-0.002450903783171147
-0.00249291,-0.02837088601922022,0.002178764119331655
-0.00249228,-0.03200489931220896,0.02268157911613908
-0.00249165,-0.03497818291556463,0.06071099402958621
-0.00249102,-0.03762110167410071,0.0914652165247834
-0.00249039,-0.03960329074300373,0.08187519015530895
-0.00248976,-0.03927292589818669,0.03326367717902955
-0.00248913,-0.0425765743463582,-0.01600921692622334
-0.0024885,-0.04753204701861558,-0.0146864546683648
-0.00248787,-0.0491838712427014,0.02301226968060371
-0.00248724,-0.0538089790701417,0.06864756757672349
-0.00248661,-0.05380897907014245,0.08716623918673531
-0.00248598,-0.05546080329422742,0.06997032983458204
-0.00248535,-0.05777335720794763,0.03623989225918917
-0.00248472,-0.06338955956983683,0.01573707726239104
-0.00248409,-0.06405028925947365,-0.001128141525314708
-0.00248346,-0.06702357286282812,0.01606776782684635
-0.00248283,-0.06867539708691395,0.04582991862866362
-0.0024822,-0.07131831584545123,0.06038030346510759
-0.00248157,-0.07462196429362349,0.0696396392701123
-0.00248094,-0.07594342367289153,0.0583961600783198
-0.00248031,-0.07924707212106308,0.0329329866145428
-0.00247968,-0.08122926118996519,0.01970536403596337
-0.00247905,-0.08486327448295483,0.01309155274666463
-0.00247842,-0.08651509870704066,0.02301226968060371
-0.00247779,-0.08981874715521082,0.04186163185507941
-0.00247716,-0.09279203075856679,0.06732480531886495
-0.00247653,-0.09477421982747075,0.07327723547921818
-0.0024759,-0.0970867737411899,0.05079027709563316
-0.00247527,-0.1007207870341786,0.02863400927650253
-0.00247464,-0.1020422464134467,0.01970536403596141
-0.00247401,-0.1030333409478987,0.01143809992434144
-0.00247338,-0.1060066245512532,0.01441431500452317
-0.00247275,-0.1093102729994234,0.0395467979038241
-0.00247212,-0.1112924620683278,0.06666342418993568
-0.00247149,-0.114265745671684,0.06434859023867992
-0.00247086,-0.1182301238094882,0.05707339782046125
-0.00247023,-0.1182301238094882,0.03094884322775499
-0.0024696,-0.1208730425680242,0.003832216941667139
-0.00246897,-0.1254981503954657,0.005485669763977991
-0.00246834,-0.1261588800851001,0.03458643943686598
-0.00246771,-0.1284714339988192,0.05971892233616689
-0.00246708,-0.1324358121366261,0.07989104676852113
-0.00246645,-0.1344180012055299,0.06897825814117144
-0.00246582,-0.136069825429615,0.03227160548561353
-0.00246519,-0.1387127441881523,0.01243017161773535
-0.00246456,-0.1423467574811424,0.01342224331113889
-0.00246393,-0.1453200410844955,0.03458643943686598
-0.0024633,-0.1476325949982156,0.05211303935349171
-0.00246267,-0.1492844192223007,0.05905754120724591
-0.00246204,-0.1525880676704731,0.0474833714509868
-0.00246141,-0.1552309864290123,0.0375626545170441
-0.00246078,-0.1595257294116335,0.02962608096989644
-0.00246015,-0.1608471887909021,0.03888541677490626
-0.00245952,-0.161838283325355,0.03921610733937134
-0.00245889,-0.1651419317735252,0.0402081790327648
-0.00245826,-0.1658026614631595,0.02202019798720981
-0.00245763,-0.1694366747561467,0.01937467347149392
-0.002457,-0.171088498980234,0.03756265451704771
-0.00245637,-0.1753832419628572,0.05806546951385516
-0.00245574,-0.1780261607213944,0.06434859023868322
-0.00245511,-0.1806690794799318,0.05442787330474416
-0.00245448,-0.1813298091695676,0.03359436774346155
-0.00245385,-0.1846334576177378,0.01044602823094753
-0.00245322,-0.1876067412210922,0.01606776782684635
-0.00245259,-0.1895889302899942,0.03227160548560616
-0.00245196,-0.1925622138933496,0.05211303935349171
-0.00245133,-0.1955354974967041,0.0696396392701174
-0.0024507,-0.1971873217207899,0.06203375628743077
-0.00245007,-0.2011516998585958,0.04814475257991607
-0.00244944,-0.2028035240826827,0.02532710363184835
-0.00244881,-0.2051160779964017,0.008131194279695081
-0.00244818,-0.2070982670653048,0.01672914895577562
-0.00244755,-0.2090804561342068,0.03194091492114198
-0.00244692,-0.2120537397375621,0.04946751483777462
-0.00244629,-0.2150270233409166,0.05806546951385516
-0.00244566,-0.2186610366339037,0.05674270725599722
-0.00244503,-0.2213039553924426,0.05376649217581489
-0.0024444,-0.2236165093061634,0.04880613370883617
-0.00244377,-0.2249379686854315,0.02863400927650253
-0.00244314,-0.2255986983750657,0.01276086218219999
-0.00244251,-0.230554171047321,0.007139122586303728
-0.00244188,-0.2312149007369575,0.0210281262938159
-0.00244125,-0.2322059952714089,0.03557851113025989
-0.00244062,-0.2378221976332981,0.06269513741634772
-0.00243999,-0.2401347515470209,0.08253657128423822
-0.00243936,-0.2424473054607414,0.06831687701224352
-0.00243873,-0.2434383999951925,0.03458643943686598
-0.0024381,-0.2467420484433641,0.007800503715230445
-0.00243747,-0.2503760617363512,0.0008560018614762683
-0.00243684,-0.2536797101845245,0.02135881685828053
-0.00243621,-0.2563226289430618,0.04979820540223925
-0.00243558,-0.2586351828567809,0.0762534505593981
-0.00243495,-0.2599566422360506,0.06699411475440031
-0.00243432,-0.2625995609945891,0.04351508467740364
-0.00243369,-0.2652424797531252,0.02698055645417935
-0.00243306,-0.2675550336668453,0.01044602823094753
-0.00243243,-0.2711890469598348,0.01838260177811039
-0.0024318,-0.2728408711839199,0.0438457752418758
-0.00243117,-0.2764748844769087,0.06699411475440031
-0.00243054,-0.2787874383906278,0.06930894870565171
-0.00242991,-0.2781267087009945,0.03623989225918917
-0.00242928,-0.2834125462180706,0.009784647102018562
-0.00242865,-0.2867161946662407,0.01044602823094753
-0.00242802,-0.2863858298214236,0.02168950742274517
-0.00242739,-0.288368018890328,0.03524782056580292
-0.00242676,-0.2916716673384981,0.05211303935349171
-0.00242613,-0.2939842212522182,0.06104168459403686
-0.0024255,-0.2989396939244734,0.06732480531886209
-0.00242487,-0.3005915181485614,0.05773477894939053
-0.00242424,-0.302243342372648,0.03789334508150408
-0.00242361,-0.3038951665967331,0.01970536403595735
-0.00242298,-0.3081899095793562,0.0008560018614731102
-0.00242235,-0.3098417338034442,0.01309155274667861
-0.00242172,-0.3144668416308822,0.0438457752418758
-0.00242109,-0.3164490306997852,0.06831687701225886
-0.00242046,-0.3184312197686874,0.07625345055940652
-0.00241983,-0.3210741385272255,0.06302582798082468
-0.0024192,-0.3227259627513113,0.03028746209882571
-0.00241857,-0.3233866924409456,-0.0007974509608500713
-0.00241794,-0.3276814354235688,-0.003773666041031798
-0.00241731,-0.330654719026925,0.02168950742276487
-0.00241668,-0.3346190971647292,0.0650099713676125
-0.00241605,-0.3379227456129008,0.1003938617653286
-0.00241542,-0.3395745698369858,0.08782762031567812
-0.00241479,-0.3422174885955238,0.04616060919312825
-0.00241416,-0.3418871237507067,-0.005427118863354979
-0.00241353,-0.3451907721988783,-0.03452788853624297
-0.0024129,-0.3484944206470499,-0.01270231128157698
-0.00241227,-0.3517980690952227,0.04682199032208204
-0.00241164,-0.3541106230089417,0.1007245523297932
-0.00241101,-0.3537802581641245,0.1010552428942579
-0.00241038,-0.3570839066122947,0.05938823177173263
-0.00240975,-0.3597268253708334,0.01606776782684635
-0.00240912,-0.3640215683534566,-0.01633990749068798
-0.00240849,-0.3660037574223586,-0.005096428298895455
-0.00240786,-0.3676555816464453,0.03392505830793671
-0.00240723,-0.3719503246290686,0.07393861660816474
-0.0024066,-0.3722806894738856,0.08948107313799558
-0.00240597,-0.3759147027668743,0.07162378265690522
-0.00240534,-0.3769057973013255,0.02863400927652208
-0.00240471,-0.3812005402839489,0.003170835812725536
-0.00240408,-0.3838434590424863,-0.000466760396385435
-0.00240345,-0.3861560129562053,0.02268157911612855
-0.00240282,-0.3887989317147437,0.0511209676600978
-0.00240219,-0.3924329450077327,0.0805524278974504
-0.00240156,-0.3930936746973668,0.0805524278974504
-0.00240093,-0.3973884176799899,0.04979820540223925
-0.0024003,-0.3997009715937089,0.01540638669793272
-0.00239967,-0.4020135255074302,-0.0001360698319207987
-0.00239904,-0.4026742551970645,0.0005253112970084739
-0.00239841,-0.4056475388004176,0.02334296024505797
-0.00239778,-0.407960092714139,0.05938823177171368
-0.00239715,-0.4109333763174948,0.080552427897448
-0.00239652,-0.413906659920848,0.07526137886601622
-0.00239589,-0.4165495786793852,0.0511209676600978
-0.00239526,-0.4165495786793872,0.01143809992433212
-0.00239463,-0.4208443216620084,-0.009064715072465979
-0.002394,-0.4234872404205456,0.00912326597308899
-0.00239337,-0.4267908888687158,0.0488061337088273
-0.00239274,-0.4271212537135344,0.07096240152797595
-0.00239211,-0.4304249021617077,0.07493068830154467
-0.00239148,-0.4340589154546949,0.05971892233617832
-0.00239085,-0.4373625639028664,0.0329329866145428
-0.00239022,-0.4386840232821363,0.009453956537553175
-0.00238959,-0.4413269420406724,0.008461884844159717
-0.00238896,-0.4429787662647582,0.0292953904054318
-0.00238833,-0.4466127795577453,0.05310511104687479
-0.0023877,-0.45090752254037,0.07459999773708695
-0.00238707,-0.4515682522300053,0.06633273362545916
-0.00238644,-0.4535504412989074,0.0402081790327648
-0.00238581,-0.4565237249022618,0.01474500556898781
-0.00238518,-0.4578451842815325,0.002509454683805314
-0.00238455,-0.4624702921089707,0.02235088855167444
-0.00238392,-0.465113210867508,0.0583961600783198
-0.00238329,-0.4670953999364101,0.07889897507511789
-0.00238266,-0.4677561296260453,0.06038030346510759
-0.00238203,-0.4707294132293998,0.02664986588971471
-0.0023814,-0.473372331987937,0.007800503715230445
-0.00238077,-0.4770063452809259,0.0101153376664829
-0.00238014,-0.4789885343498305,0.03094884322776747
-0.00237951,-0.4826225476428176,0.0583961600783198
-0.00237888,-0.4842743718669034,0.07030102039904668
-0.00237825,-0.4865869257806225,0.05608132612707381
-0.00237762,-0.4898905742287951,0.04153094129062335
-0.00237699,-0.4915423984528809,0.02830331871203789
-0.00237636,-0.4935245875217831,0.009784647102026683
-0.00237573,-0.4971586008147727,0.01838260177809881
-0.0023751,-0.5004622492629445,0.03987748846830738
-0.00237447,-0.5007926141077614,0.05575063556260271
-0.00237384,-0.5034355328662987,0.0583961600783198
-0.00237321,-0.5060784516248349,0.05277442048242353
-0.00237258,-0.5093821000730077,0.03491713000133062
-0.00237195,-0.5107035594522764,0.02268157911613908
-0.00237132,-0.5126857485211784,0.01243017161774001
-0.00237069,-0.5176412211934367,0.02532710363185617
-0.00237006,-0.5199537751071577,0.05773477894939534
-0.00236943,-0.5216055993312427,0.06831687701225886
-0.0023688,-0.5252396126242315,0.06567135249654177
-0.00236817,-0.5285432610724015,0.05178234878903339
-0.00236754,-0.5278825313827687,0.02499641306739153
-0.00236691,-0.5311861798309403,-0.000466760396385435
-0.00236628,-0.5344898282791104,0.00416290750611734
-0.00236565,-0.5371327470376492,0.02532710363185617
-0.00236502,-0.5404363954858225,0.0554199449981513
-0.00236439,-0.5437400439339926,0.08452071467102604
-0.00236376,-0.5457222330028955,0.0841900241065614
-0.00236313,-0.546713327537348,0.04781406201543204
-0.0023625,-0.5490258814510671,0.005154979199513354
-0.00236187,-0.552990259588873,-0.005757809427819616
-0.00236124,-0.5543117189681411,0.01639845839130091
-0.00236061,-0.5572850025714962,0.04285370354848189
-0.00235998,-0.5605886510196683,0.07096240152797655
-0.00235935,-0.5615797455541193,0.07228516378583449
-0.00235872,-0.5622404752437535,0.04483784693526971
-0.00235809,-0.5662048533815609,0.01540638669791512
-0.00235746,-0.569178136984914,0.01110740935987681
-0.00235683,-0.5731425151227199,0.03524782056579526
-0.0023562,-0.575124704191622,0.05905754120723825
-0.00235557,-0.5784283526397945,0.06699411475440031
-0.00235494,-0.5814016362431499,0.06567135249653455
-0.00235431,-0.5837141901568691,0.04979820540223925
-0.00235368,-0.5860267440705893,0.01507569613345244
-0.00235305,-0.5886696628291269,0.009784647102021119
-0.00235242,-0.5893303925187608,0.01606776782684635
-0.00235179,-0.5913125815876639,0.02731124701864399
-0.00235116,-0.5946162300358339,0.03822403564597202
-0.00235053,-0.5972591487943728,0.05145165822456244
-0.0023499,-0.6008931620873614,0.06864756757672349
-0.00234927,-0.6038664456907159,0.07129309209244059
-0.00234864,-0.6055182699148018,0.05376649217581489
-0.00234801,-0.6078308238285228,0.0206974357293454
-0.00234738,-0.6098130128974248,0.007800503715230445
-0.00234675,-0.6127862965007793,0.009784647102018262
-0.00234612,-0.6154292152593154,0.03161022435667434
-0.00234549,-0.6177417691730367,0.0547585638692088
-0.00234486,-0.6193935933971226,0.06434859023868322
-0.00234423,-0.6226972418452942,0.05773477894939053
