Lab7/inlab/differential/triangle/differentialTriangle500.csv

#Digilent WaveForms Oscilloscope Acquisition
#Device Name: Discovery2
#Serial Number: SN:210321B0E782
#Date Time: 2023-10-25 14:44:42.692
#Sample rate: 1.5873e+06Hz
#Samples: 8192
#Trigger: Source: Channel 1 Type: Edge Condition: Rising Level: -2.41 mV Hyst.: Auto HoldOff: 100 ns
#Channel 1: Range: 500 mV/div Offset: 1 V Attenuation: 1 X
#Channel 2: Range: 500 mV/div Offset: -200 mV Attenuation: 1 X
#Wavegen Channel 1: Running
#Mode: Simple
#Type: Triangle
#Frequency: 500 Hz
#Period: 2 ms
#Amplitude: 1 V
#Offset: 0 V
#Symmetry: 50 %
#Phase: 0 °

Time (s),Channel 1 (V),Channel 2 (V)
-0.00257985,-0.8400773097349866,0.02830331871203789
-0.00257922,-0.8407380394246206,0.01540638669792294
-0.00257859,-0.8427202284935239,0.005816360328442627
-0.00257796,-0.8440416878727935,0.006808432021839544
-0.00257733,-0.8463542417865126,0.01342224331112926
-0.0025767,-0.847014971476147,0.03723196395258307
-0.00257607,-0.8466846066313299,0.04086956016169242
-0.00257544,-0.8489971605450499,0.02202019798720981
-0.00257481,-0.8496578902346843,0.006808432021836536
-0.00257418,-0.8499882550795014,0.001848073554869275
-0.00257355,-0.8523008089932216,-0.0001360698319207987
-0.00257292,-0.854282998062125,0.02433503193846993
-0.00257229,-0.8552740925965761,0.04120025072615871
-0.00257166,-0.8559348222862104,0.04516853749973435
-0.00257103,-0.8585777410447483,0.03326367717899977
-0.0025704,-0.8598992004240162,0.01639845839131099
-0.00256977,-0.861220659803285,0.003170835812725536
-0.00256914,-0.862211754337736,-0.001789522654241724
-0.00256851,-0.8635332137170051,0.002178764119331655
-0.00256788,-0.8622117543377372,0.01441431500452813
-0.00256725,-0.8638635785618223,0.02532710363185617
-0.00256662,-0.865515402785908,0.03094884322775499
-0.00256599,-0.8671672270099947,0.02664986588971471
-0.00256536,-0.8688190512340797,0.02664986588971471
-0.00256473,-0.8714619699926169,0.0292953904054318
-0.0025641,-0.871792334837434,0.02367365080953554
-0.00256347,-0.8741048887511542,0.01243017161773535
-0.00256284,-0.8757567129752397,0.0173905300847067
-0.00256221,-0.8750959832856058,0.02135881685828053
-0.00256158,-0.8774085371993259,0.0173905300847049
-0.00256095,-0.8800514559578637,0.02168950742274547
-0.00256032,-0.8813729153371318,0.02235088855167444
-0.00255969,-0.879721091113046,0.01805191121363417
-0.00255906,-0.88038182080268,0.002509454683803359
-0.00255843,-0.8843461989404863,0.004824288635048718
-0.0025578,-0.8846765637853035,0.02135881685828053
-0.00255717,-0.8856676583197549,0.03392505830793671
-0.00255654,-0.8850069286301206,0.02995677153436108
-0.00255591,-0.8863283880093905,0.0183826017780955
-0.00255528,-0.8889713067679266,0.01110740935987681
-0.00255465,-0.889962401302378,0.007469813150765808
-0.00255402,-0.890953495836829,0.02036674516488076
-0.00255339,-0.8926053200609153,0.0256577941963208
-0.00255276,-0.895908968509087,0.03491713000133062
-0.00255213,-0.8978911575779899,0.0438457752418758
-0.0025515,-0.896239333353904,0.03127953379221962
-0.00255087,-0.8985518872676247,0.005816360328437364
-0.00255024,-0.8995429818020757,-0.005757809427819616
-0.00254961,-0.9028466302502474,0.0008560018614731102
-0.00254898,-0.9035073599398813,0.02334296024505813
-0.00254835,-0.9035073599398816,0.02995677153436108
-0.00254772,-0.904168089629516,0.03161022435668426
-0.00254709,-0.905159184163967,0.02664986588971697
-0.00254646,-0.9078021029225047,0.0101153376664829
-0.00254583,-0.909123562301773,0.001186692425938799
-0.0025452,-0.9084628326121391,0.003501526377190173
-0.00254457,-0.9111057513706764,0.0210281262938159
-0.00254394,-0.9120968459051274,0.04120025072614954
-0.00254331,-0.9144093998188481,0.03987748846830017
-0.00254268,-0.9144093998188481,0.02962608096989644
-0.00254205,-0.916061224042933,0.016398458391317
-0.00254142,-0.9173826834222024,0.005816360328442627
-0.00254079,-0.9173826834222044,0.0005253112970125341
-0.00254016,-0.9216774264048255,0.009453956537553626
-0.00253953,-0.9213470615600083,0.03392505830793671
-0.0025389,-0.9229988857840934,0.03789334508151054
-0.00253827,-0.92465071000818,0.03954679790383553
-0.00253764,-0.9256418045426315,0.0365705828236538
-0.00253701,-0.9276239936115336,0.01573707726239119
-0.00253638,-0.9289454529908031,-0.005096428298890343
-0.00253575,-0.9282847233011692,-0.01071816789478645
-0.00253512,-0.9289454529908031,-0.004765737734425707
-0.00253449,-0.9299365475252546,0.01209948105327072
-0.00253386,-0.9315883717493405,0.04252301298402011
-0.00253323,-0.9319187365941576,0.04880613370884535
-0.0025326,-0.9345616553526949,0.04153094129062335
-0.00253197,-0.9372045741112309,0.02962608096990185
-0.00253134,-0.9375349389560493,0.01540638669791708
-0.00253071,-0.9388563983353192,-0.01005678676585733
-0.00253008,-0.9414993170938553,-0.004435047169961071
-0.00252945,-0.9411689522490381,0.01805191121363417
-0.00252882,-0.9434815061627583,0.041530941290625
-0.00252819,-0.9434815061627583,0.04516853749973435
-0.00252756,-0.9441422358523925,0.02830331871203789
-0.00252693,-0.9461244249212947,0.005816360328452851
-0.0025263,-0.9474458843005642,-0.0110488584592538
-0.00252567,-0.9477762491453814,0.005154979199513354
-0.00252504,-0.9484369788350157,0.01243017161773535
-0.00252441,-0.9507495327487357,0.02764193758310862
-0.00252378,-0.9527317218176398,0.03524782056579631
-0.00252315,-0.9550442757313589,0.03756265451704771
-0.00252252,-0.9566960999554447,0.03954679790383553
-0.00252189,-0.9570264648002618,0.02301226968061123
-0.00252126,-0.9586782890243477,0.006147050892907263
-0.00252063,-0.959339018713982,0.001517382990402383
-0.00252,-0.9606604780932506,0.001848073554867019
-0.00251937,-0.9609908429380678,0.01309155274666463
-0.00251874,-0.9629730320069708,0.02863400927650614
-0.00251811,-0.9629730320069708,0.0365705828236538
-0.00251748,-0.9639641265414223,0.02400434137399762
-0.00251685,-0.9659463156103243,0.01375293387559856
-0.00251622,-0.9669374101447767,0.01772122064916953
-0.00251559,-0.9679285046792282,0.02301226968060371
-0.00251496,-0.9689195992136792,0.01110740935988222
-0.00251433,-0.9712321531273999,0.005816360328442627
-0.0025137,-0.9725536125066691,0.01705983952024628
-0.00251307,-0.9738750718859371,0.03028746209882571
-0.00251244,-0.97585726095484,0.04649129975759289
-0.00251181,-0.9765179906444741,0.03888541677490971
-0.00251118,-0.9775090851789259,0.01639845839131099
-0.00251055,-0.9804823687822803,-0.007411262250142797
-0.00250992,-0.9811430984719144,-0.007080571685678311
-0.00250929,-0.9814734633167318,0.005485669763977991
-0.00250866,-0.9834556523856356,0.02764193758311614
-0.00250803,-0.9851074766097206,0.04417646580634044
-0.0025074,-0.9864289359889893,0.04979820540223925
-0.00250677,-0.9887414899027084,0.0464912997575944
-0.00250614,-0.9867593008338065,0.01904398290702808
-0.00250551,-0.9887414899027094,-0.01369438297497089
-0.00250488,-0.9900629492819775,-0.01898543200640266
-0.00250425,-0.9907236789716124,-0.005757809427819616
-0.00250362,-0.9913844086612474,0.01838260177810933
-0.00250299,-0.9930362328853325,0.04153094129062335
-0.00250236,-0.9966702461783212,0.05508925443367343
-0.00250173,-0.9960095164886875,0.051451658224548
-0.0025011,-0.9973309758679556,0.01970536403595735
-0.00250047,-0.9993131649368585,-0.004104356605496434
-0.00249984,-0.9996435297816756,-0.009726096201392694
-0.00249921,-1.001295354005762,-0.004435047169961071
-0.00249858,-1.00030425947131,-0.001458832089780848
-0.00249795,-0.9996435297816757,-0.004765737734425707
-0.00249732,-0.9970006110231384,-0.02328440934444534
-0.00249669,-0.9970006110231375,-0.03585065079409806
-0.00249606,-0.9950184219542355,-0.02824476781141488
-0.00249543,-0.9943576922646011,-0.0193161225708697
-0.0024948,-0.992375503195699,-0.0100567867658641
-0.00249417,-0.9907236789716124,-0.01402507353943552
-0.00249354,-0.9907236789716114,-0.01633990749068587
-0.00249291,-0.9884111250578922,-0.01171023958818307
-0.00249228,-0.9867593008338065,-0.01270231128157698
-0.00249165,-0.9877503953682572,-0.008072643379073274
-0.00249102,-0.9860985711441721,-0.01071816789478916
-0.00249039,-0.9827949226960004,-0.02989822063373807
-0.00248976,-0.9827949226960004,-0.04378722434124648
-0.00248913,-0.9811430984719147,-0.03452788853624297
-0.0024885,-0.9794912742478289,-0.02163095652212216
-0.00248787,-0.9785001797133773,-0.00178952265424398
-0.00248724,-0.9765179906444744,-0.001458832089779344
-0.00248661,-0.9751965312652053,-0.0117102395881936
-0.00248598,-0.9742054367307542,-0.03485857910070761
-0.00248535,-0.9725536125066685,-0.0375041036164247
-0.00248472,-0.9718928828170345,-0.03221305458499293
-0.00248409,-0.9715625179722169,-0.01501714523282943
-0.00248346,-0.9699106937481312,-0.001128141525314708
-0.00248283,-0.9689195992136796,-0.001458832089779344
-0.0024822,-0.9659463156103252,-0.0156785263617587
-0.00248157,-0.9642944913862395,-0.03585065079410407
-0.00248094,-0.9642944913862395,-0.04147239039000034
-0.00248031,-0.9636337616966051,-0.02130026595765752
-0.00247968,-0.9636337616966051,-0.004765737734433225
-0.00247905,-0.9596693835587992,-0.001128141525314708
-0.00247842,-0.9596693835587992,-0.007080571685678161
-0.00247779,-0.9580175593347141,-0.01171023958818096
-0.00247716,-0.9573568296450791,-0.02196164708658679
-0.00247653,-0.9550442757313592,-0.03684272248749693
-0.0024759,-0.9557050054209932,-0.04014962813214179
-0.00247527,-0.953062086662456,-0.0265913149890917
-0.00247464,-0.9524013569728219,-0.01468645466837021
-0.00247401,-0.9494280733694671,-0.0110488584592538
-0.00247338,-0.9481066139901985,-0.01799336031301116
-0.00247275,-0.9474458843005645,-0.02526855273122985
-0.00247212,-0.9467851546109298,-0.01633990749068798
-0.00247149,-0.9457940600764775,-0.01104885845925515
-0.00247086,-0.9438118710075754,-0.01402507353943552
-0.00247023,-0.9438118710075754,-0.01832405087747579
-0.0024696,-0.9428207764731243,-0.02460717160230103
-0.00246897,-0.9414993170938553,-0.02526855273123316
-0.00246834,-0.9381956686456836,-0.02791407724695025
-0.00246771,-0.9375349389560497,-0.02725269611802128
-0.00246708,-0.9362134795767807,-0.02262302821551607
-0.00246645,-0.9348920201975115,-0.01766266974854066
-0.00246582,-0.9335705608182434,-0.004765737734425707
-0.00246519,-0.9335705608182434,-0.005757809427819616
-0.00246456,-0.932909831128608,-0.007080571685685529
-0.00246393,-0.9305972772148889,-0.02328440934444534
-0.0024633,-0.9319187365941576,-0.02791407724695025
-0.00246267,-0.9292758178356215,-0.02493786216676987
-0.00246204,-0.9263025342322658,-0.0265913149890917
-0.00246141,-0.9249810748529966,-0.02692200555355273
-0.00246078,-0.9236596154737285,-0.01898543200640507
-0.00246015,-0.9216774264048255,-0.01303300184604161
-0.00245952,-0.9206863318703737,-0.01667059805515412
-0.00245889,-0.9200256021807397,-0.01997750369979898
-0.00245826,-0.9180434131118368,-0.03055960176266734
-0.00245763,-0.9173826834222027,-0.03188236402052528
-0.002457,-0.9147397646636651,-0.02163095652212216
-0.00245637,-0.916391588887751,-0.005757809427819616
-0.00245574,-0.9154004943532995,0.006477741457371899
-0.00245511,-0.9147397646636651,0.006808432021836536
-0.00245448,-0.9111057513706761,-0.01468645466838044
-0.00245385,-0.910445021681042,-0.04907827337268697
-0.00245322,-0.9087931974569563,-0.0603217525644846
-0.00245259,-0.9081324677673223,-0.04676343942144068
-0.00245196,-0.9061502786984189,-0.02163095652212216
-0.00245133,-0.9054895490087846,0.01209948105327072
-0.0024507,-0.9018555357157958,0.01243017161773535
-0.00245007,-0.902185900560613,-0.004104356605496434
-0.00244944,-0.8998733466468926,-0.03055960176267501
-0.00244881,-0.8992126169572585,-0.04742482055036379
-0.00244818,-0.8988822521124414,-0.04081100926107106
-0.00244755,-0.8988822521124414,-0.01303300184605425
-0.00244692,-0.8972304278883556,0.00912326597308899
-0.00244629,-0.8942571442850011,0.006477741457371899
-0.00244566,-0.8916142255264651,-0.01997750369978694
-0.00244503,-0.8926053200609153,-0.04676343942143452
-0.0024444,-0.8909534958368283,-0.04577136772803685
-0.00244377,-0.8883105770782922,-0.0375041036164247
-0.00244314,-0.8869891176990236,-0.02196164708658679
-0.00244251,-0.8859980231645725,0.00713912258628794
-0.00244188,-0.8863283880093893,0.006477741457371899
-0.00244125,-0.8853372934749377,0.001848073554867019
-0.00244062,-0.8836854692508528,-0.01667059805514419
-0.00243999,-0.8826943747164004,-0.02923683950480879
-0.00243936,-0.8823640098715824,-0.03849617530981425
-0.00243873,-0.8803818208026803,-0.02890614894034416
-0.0024381,-0.8787299965785945,-0.02262302821551607
-0.00243747,-0.8770781723545095,-0.01633990749069084
-0.00243684,-0.8770781723545087,-0.01733197918408189
-0.00243621,-0.875426348130423,-0.01402507353943552
-0.00243558,-0.8734441590615208,-0.0193161225708673
-0.00243495,-0.8724530645270685,-0.0265913149890917
-0.00243432,-0.8717923348374328,-0.01964681313533509
-0.00243369,-0.8688190512340797,-0.02130026595765752
-0.00243306,-0.8671672270099939,-0.02229233765105143
-0.00243243,-0.8661761324755428,-0.02229233765104827
-0.0024318,-0.8671672270099939,-0.01534783579729407
-0.00243117,-0.8615510246481022,-0.01600921692622334
-0.00243054,-0.8628724840273702,-0.03320512627837661
-0.00242991,-0.8618813894929193,-0.02328440934444534
-0.00242928,-0.8608902949584674,-0.01534783579728865
-0.00242865,-0.8598992004240162,-0.003442975476567162
-0.00242802,-0.8589081058895648,-0.006088499992284252
-0.00242739,-0.857917011355112,-0.0176626697485551
-0.00242676,-0.8549437277517589,-0.03651203192303079
-0.00242613,-0.8539526332173074,-0.04808620167929306
-0.0024255,-0.8529615386828564,-0.03948824700321643
-0.00242487,-0.8523008089932216,-0.01336369241050625
-0.00242424,-0.8516400793035868,0.01474500556899427
-0.00242361,-0.8506489847691358,0.02896469984096717
-0.00242298,-0.8489971605450499,0.005485669763977991
-0.00242235,-0.8489971605450489,-0.02692200555357047
-0.00242172,-0.8466846066313298,-0.05800691861323212
-0.00242109,-0.8433809581831582,-0.06230589595127242
-0.00242046,-0.8420594988038902,-0.0510624167594799
-0.00241983,-0.8413987691142553,-0.01700128861961725
-0.0024192,-0.8394165800453522,0.00912326597308899
-0.00241857,-0.8397469448901694,0.01044602823094753
-0.00241794,-0.8364432964419979,-0.01171023958818307
-0.00241731,-0.8354522019075462,-0.03816548474535322
-0.00241668,-0.8351218370627291,-0.03651203192303079
-0.00241605,-0.8331396479938262,-0.02460717160230388
-0.00241542,-0.8331396479938262,-0.01137954902372445
-0.00241479,-0.8321485534593747,-0.00807264337907207
-0.00241416,-0.8304967292352889,-0.0110488584592538
-0.00241353,-0.8271930807871173,-0.02493786216676852
-0.0024129,-0.8285145401663859,-0.03485857910070761
-0.00241227,-0.8265323510974828,-0.02824476781140827
-0.00241164,-0.8262019862526658,-0.01369438297497089
-0.00241101,-0.8235590674941285,-0.008403333943536706
-0.00241038,-0.8222376081148605,-0.01733197918407783
-0.00240975,-0.8225679729596771,-0.02063888482872825
-0.00240912,-0.8195946893563226,-0.02526855273123316
-0.00240849,-0.8186035948218715,-0.03320512627838082
-0.00240786,-0.8179428651322368,-0.02626062442462707
-0.00240723,-0.8166214057529676,-0.01270231128157412
-0.0024066,-0.8152999463736995,-0.006419190556748888
-0.00240597,-0.8136481221496137,-0.004765737734425707
-0.00240534,-0.8116659330807116,-0.01766266974854066
-0.00240471,-0.8116659330807107,-0.0338665074073137
-0.00240408,-0.8100141088566248,-0.03419719797177834
-0.00240345,-0.8083622846325399,-0.02130026595766338
-0.00240282,-0.8077015549429047,-0.01667059805515261
-0.00240219,-0.8063800955636365,-0.0130330018460368
-0.00240156,-0.8073711900980876,-0.002450903783173253
-0.00240093,-0.8037371768050988,-0.002450903783173253
-0.0024003,-0.8004335283569287,-0.03089029232711904
-0.00239967,-0.8004335283569272,-0.04808620167929306
-0.00239904,-0.7987817041328413,-0.04577136772804061
-0.00239841,-0.7977906095983903,-0.02626062442463594
-0.00239778,-0.7971298799087556,-0.0007974509608500713
-0.00239715,-0.7954780556846694,0.007469813150759643
-0.00239652,-0.7948173259950354,-0.006088499992284252
-0.00239589,-0.7944869611502183,-0.02725269611802097
-0.00239526,-0.7915136775468637,-0.03948824700321282
-0.00239463,-0.7911833127020467,-0.04014962813214179
-0.002394,-0.7892011236331438,-0.02725269611802097
-0.00239337,-0.7888707587883267,-0.01600921692622845
-0.00239274,-0.7882100290986922,-0.0001360698319207987
-0.00239211,-0.7858974751849722,0.01011533766647944
-0.00239148,-0.7862278400297893,0.002509454683796292
-0.00239085,-0.7845760158057035,-0.01898543200640507
-0.00239022,-0.7829241915816161,-0.04081100926107904
-0.00238959,-0.779620543133446,-0.05833760917769679
-0.00238896,-0.7792901782886288,-0.04213377151892961
-0.00238833,-0.7773079892197268,-0.02427648103784737
-0.0023877,-0.7773079892197259,0.003832216941654809
-0.00238707,-0.7756561649956391,0.01474500556897969
-0.00238644,-0.77334361108192,-0.003112284912102525
-0.00238581,-0.7726828813922856,-0.02857545837587952
-0.00238518,-0.7713614220130173,-0.04742482055036228
-0.00238455,-0.7720221517026513,-0.04411791490571743
-0.00238392,-0.7697095977889312,-0.02130026595765752
-0.00238329,-0.7677274087200291,0.002509454683785464
-0.00238266,-0.7667363141855768,0.006477741457371899
-0.00238203,-0.7657452196511252,-0.004435047169961071
-0.0023814,-0.7650844899614909,-0.02262302821551607
-0.00238077,-0.7627719360477707,-0.04808620167929306
-0.00238014,-0.7607897469788678,-0.05866829974215267
-0.00237951,-0.7607897469788678,-0.03948824700321252
-0.00237888,-0.7594682875995992,-0.006749881121213525
-0.00237825,-0.7588075579099651,0.01805191121362289
-0.00237762,-0.7578164633755133,0.01838260177809881
-0.00237699,-0.7574860985306962,-0.002450903783173253
-0.00237636,-0.7551735446169771,-0.03485857910069287
-0.00237573,-0.7545128149273417,-0.05503070353305042
-0.0023751,-0.7522002610136213,-0.0464327488569598
-0.00237447,-0.7515395313239872,-0.02427648103783925
-0.00237384,-0.7488966125654499,-0.005757809427819616
-0.00237321,-0.749226977410267,0.00846188484415325
-0.00237258,-0.7472447883413642,-0.006419190556748888
-0.00237195,-0.7452625992724612,-0.01667059805515261
-0.00237132,-0.7452625992724612,-0.03485857910069934
-0.00237069,-0.7422893156691067,-0.04246446208339424
-0.00237006,-0.7429500453587401,-0.03155167345605388
-0.00236943,-0.7409678562898381,-0.01534783579729407
-0.0023688,-0.7396463969105694,0.0001946207325438376
-0.00236817,-0.7383249375313014,-0.005096428298887937
-0.00236754,-0.7379945726864836,-0.01733197918408189
-0.00236691,-0.7356820187727635,-0.02460717160230388
-0.00236628,-0.7340301945486785,-0.03287443571391603
-0.00236565,-0.7323783703245919,-0.02989822063373807
-0.00236502,-0.7320480054797741,-0.03122098289158578
-0.00236439,-0.7307265461005061,-0.007411262250142797
-0.00236376,-0.7300658164108718,0.0005253112970084739
-0.00236313,-0.7290747218764199,-0.001128141525325685
-0.0023625,-0.7284139921867859,-0.02526855273123316
-0.00236187,-0.7264318031178829,-0.03981893756767715
-0.00236124,-0.7254407085834319,-0.03915755643874818
-0.00236061,-0.7224674249800771,-0.02130026595765752
-0.00235998,-0.7208156007559913,-0.0183240508774767
-0.00235935,-0.7211459656008083,-0.02030819426426361
-0.00235872,-0.7201548710663569,-0.00807264337907207
-0.00235809,-0.716851222618185,-0.01766266974855119
-0.00235746,-0.716190492928551,-0.02791407724695025
-0.00235683,-0.7145386687044651,-0.03485857910070761
-0.0023562,-0.7132172093251971,-0.04048031869660387
-0.00235557,-0.7132172093251965,-0.01832405087747579
-0.00235494,-0.711235020256293,0.006808432021840295
-0.00235431,-0.7099135608770248,0.01507569613345244
-0.00235368,-0.7072706421184876,-0.002120213218708616
-0.00235305,-0.7092528311873896,-0.029236839504813
-0.00235242,-0.7069402772736704,-0.03849617530981861
-0.00235179,-0.7049580882047675,-0.04180308095446497
-0.00235116,-0.7042973585151334,-0.03221305458499488
-0.00235053,-0.7049580882047675,-0.01237162071711234
-0.0023499,-0.7029758991358646,0.007800503715230445
-0.00234927,-0.6996722506876929,0.0001946207325438376
-0.00234864,-0.7000026155325101,-0.01700128861961725
-0.00234801,-0.6980204264636065,-0.03915755643875405
