Lab6/curveTrace.csv

#Digilent WaveForms Oscilloscope Acquisition
#Device Name: Discovery2
#Serial Number: SN:210321B0E76B
#Date Time: 2023-10-18 13:53:18.063
#Sample rate: 40000Hz
#Samples: 8192
#Trigger: Source: Channel 2 Type: Edge Condition: Rising Level: 1.5809 V Hyst.: Auto HoldOff: 100 ns
#Channel 1: Range: 2 V/div Offset: -7.4 V Attenuation: 1 X
#Channel 2: Range: 2 V/div Offset: -4 V Attenuation: 1 X
#Math 1: Function: C2 / 100

#Wavegen Channel 1: Enabled
#Mode: Simple
#Type: CurveTraceTriangle_1600pts_200619.csv
#Frequency: 20 Hz
#Period: 50 ms
#Amplitude: 2.5 V
#Offset: 2.5 V
#Phase: 0 �
#Wavegen Channel 2: Enabled
#Mode: Simple
#Type: CurveTraceStairStep_1600pts_200619.csv
#Frequency: 20 Hz
#Period: 50 ms
#Amplitude: -1.5 V
#Offset: -1.5 V
#Phase: 0 �

Time (s),Channel 1 (V),Channel 2 (V),Math 1 (A)
-0.1023790697674419,9.34121657628795,0.2123137142118408,0.002123137142118408
-0.1023540697674419,9.18426589950117,0.2086833800969257,0.002086833800969257
-0.1023290697674419,8.939714844973217,0.2086833800969257,0.002086833800969257
-0.1023040697674419,8.859414498710271,0.2123137142118408,0.002123137142118408
-0.1022790697674419,8.644063570096005,0.2086833800969257,0.002086833800969257
-0.1022540697674419,8.428712641481741,0.2086833800969257,0.002086833800969257
-0.1022290697674419,8.352062310957905,0.2050530459820106,0.002050530459820106
-0.1022040697674419,8.10386124069073,0.2050530459820106,0.002050530459820106
-0.1021790697674419,7.954210595382512,0.2050530459820106,0.002050530459820106
-0.1021540697674419,7.786309871378169,0.2050530459820106,0.002050530459820106
-0.1021290697674419,7.676809399201424,0.2014227118670955,0.002014227118670955
-0.1021040697674419,7.424958313194841,0.1977923777521804,0.001977923777521804
-0.1020790697674419,7.271657652147467,0.1977923777521804,0.001977923777521804
-0.1020540697674419,7.118356991100024,0.1977923777521804,0.001977923777521804
-0.1020290697674419,6.924906156921107,0.1977923777521804,0.001977923777521804
-0.1020040697674419,6.749705401438315,0.1941620436372653,0.001941620436372653
-0.1019790697674419,6.501504331171,0.1941620436372653,0.001941620436372653
-0.1019540697674419,6.44310407934343,0.1941620436372653,0.001941620436372653
-0.1019290697674419,6.19490300907614,0.1941620436372653,0.001941620436372653
-0.1019040697674419,6.041602348028697,0.1905317095223502,0.001905317095223502
-0.1018790697674419,5.851801529589006,0.1905317095223502,0.001905317095223502
-0.1018540697674419,5.767851167586722,0.1905317095223486,0.001905317095223486
-0.1018290697674419,5.519650097319545,0.1869013754074351,0.001869013754074351
-0.1018040697674419,5.417449656621249,0.1869013754074351,0.001869013754074351
-0.1017790697674419,5.245898916877683,0.1869013754074351,0.001869013754074351
-0.1017540697674419,4.997697846610393,0.18327104129252,0.0018327104129252
-0.1017290697674419,4.840747169823656,0.1832710412925184,0.001832710412925184
-0.1017040697674419,4.687446508776283,0.1796407071776049,0.001796407071776049
-0.1016790697674419,4.537795863468064,0.1796407071776049,0.001796407071776049
-0.1016540697674419,4.344345029289148,0.1796407071776049,0.001796407071776049
-0.1016290697674419,4.169144273806356,0.1760103730626899,0.001760103730626898
-0.1016040697674419,4.012193597019619,0.1723800389477748,0.001723800389477748
-0.1015790697674419,3.858892935972245,0.1723800389477748,0.001723800389477748
-0.1015540697674419,3.617991897183405,0.1687497048328597,0.001687497048328597
-0.1015290697674419,3.490241346310536,0.1687497048328597,0.001687497048328597
-0.1015040697674419,3.340590701002317,0.1687497048328597,0.001687497048328597
-0.1014790697674419,3.096039646474365,0.1651193707179462,0.001651193707179462
-0.1014540697674419,3.037639394646656,0.1651193707179446,0.001651193707179446
-0.1014290697674419,2.793088340118592,0.1614890366030295,0.001614890366030295
-0.1014040697674419,2.632487647592699,0.1578587024881144,0.001578587024881144
-0.1013790697674419,2.424436750456883,0.1542283683731993,0.001542283683731993
-0.1013540697674419,2.36238648289009,0.1542283683731993,0.001542283683731993
-0.1013290697674419,2.121485444101222,0.1469677001433691,0.001469677001433691
-0.1013040697674419,1.964534767314554,0.1469677001433691,0.001469677001433691
-0.1012790697674419,1.782033980353313,0.143337366028454,0.00143337366028454
-0.1012540697674419,1.60683322487052,0.1397070319135389,0.001397070319135389
-0.1012290697674419,1.453532563823147,0.1324463636837121,0.001324463636837121
-0.1012040697674419,1.212631525034237,0.1288160295687937,0.001288160295687937
-0.1011790697674419,1.15423127320664,0.1251856954538786,0.001251856954538786
-0.1011540697674419,0.9206302658962509,0.1179250272240484,0.001179250272240484
-0.1011290697674419,0.7417794946742333,0.1070340248793031,0.001070340248793031
-0.1011040697674419,0.5629287234522979,0.09977335664947626,0.0009977335664947626
-0.1010790697674419,0.5081784873638444,0.09614302253455786,0.0009614302253455787
-0.1010540697674419,0.2855275272711291,0.07073068373015268,0.0007073068373015267
-0.1010290697674419,0.1504769449198102,0.05257901315557723,0.0005257901315557723
-0.1010040697674419,0.05557653569996379,0.01990600612134141,0.0001990600612134141
-0.1009790697674419,-0.01012374760605304,0.001754335546774659,1.754335546774659e-05
-0.1009540697674419,-0.01012374760608292,0.001754335546766406,1.754335546766406e-05
-0.1009290697674419,-0.006473731866858401,0.001754335546766406,1.754335546766406e-05
-0.1009040697674419,-0.006473731866858401,0.001754335546766406,1.754335546766406e-05
-0.1008790697674419,-0.002823716127632991,-0.001875998568149129,-1.875998568149129e-05
-0.1008540697674419,-0.006473731866856741,-0.001875998568149129,-1.875998568149129e-05
-0.1008290697674419,-0.002823716127632991,-0.001875998568149129,-1.875998568149129e-05
-0.1008040697674419,-0.002823716127632991,-0.001875998568149129,-1.875998568149129e-05
-0.1007790697674419,-0.006473731866858401,-0.001875998568149129,-1.875998568149129e-05
-0.1007540697674419,-0.006473731866858401,-0.001875998568149129,-1.875998568149129e-05
-0.1007290697674419,-0.006473731866858401,-0.001875998568149129,-1.875998568149129e-05
-0.1007040697674419,-0.006473731866858401,-0.001875998568149129,-1.875998568149129e-05
-0.1006790697674419,-0.002823716127632991,-0.001875998568149129,-1.875998568149129e-05
-0.1006540697674419,-0.002823716127632991,-0.001875998568149129,-1.875998568149129e-05
-0.1006290697674419,-0.002823716127632991,-0.001875998568149129,-1.875998568149129e-05
-0.1006040697674419,-0.002823716127632991,-0.001875998568149129,-1.875998568149129e-05
-0.1005790697674419,-0.002823716127632991,-0.001875998568149129,-1.875998568149129e-05
-0.1005540697674419,-0.002823716127632991,-0.001875998568149129,-1.875998568149129e-05
-0.1005290697674419,-0.002823716127632991,-0.001875998568149129,-1.875998568149129e-05
-0.1005040697674419,-0.002823716127632991,-0.005506332683063775,-5.506332683063775e-05
-0.1004790697674419,-0.002823716127632991,-0.005506332683063775,-5.506332683063775e-05
-0.1004540697674419,-0.002823716127632991,-0.005506332683063775,-5.506332683063775e-05
-0.1004290697674419,-0.002823716127632991,-0.005506332683063775,-5.506332683063775e-05
-0.1004040697674419,-0.002823716127632991,-0.005506332683063775,-5.506332683063775e-05
-0.1003790697674419,-0.002823716127632991,-0.005506332683063775,-5.506332683063775e-05
-0.1003540697674419,-0.002823716127632991,-0.005506332683063775,-5.506332683063775e-05
-0.1003290697674419,0.008126331090041461,0.0235363402362565,0.000235363402362565
-0.1003040697674419,0.05557653569996379,0.1505980342582842,0.001505980342582842
-0.1002790697674419,0.1066767560491115,0.2921810647399723,0.002921810647399723
-0.1002540697674419,0.1723770393551591,0.4519157657962358,0.004519157657962358
-0.1002290697674419,0.1906271180512752,0.4954797751751966,0.004954797751751967
-0.1002040697674419,0.2636274328357802,0.6697358126911404,0.006697358126911404
-0.1001790697674419,0.3110776374457025,0.7750155020236775,0.007750155020236776
-0.1001540697674419,0.3548778263164012,0.89118619370096,0.0089118619370096
-0.1001290697674419,0.413278078143998,1.021878221837903,0.01021878221837903
-0.1001040697674419,0.4643782984931457,1.123527577055525,0.01123527577055525
-0.1000790697674419,0.5118285031030689,1.228807266388062,0.01228807266388062
-0.1000540697674419,0.5556286919737667,1.326826287490769,0.01326826287490769
-0.1000290697674419,0.6213289752798143,1.461148649742627,0.01461148649742627
-0.1000040697674419,0.6724291956289621,1.566428339075165,0.01566428339075164
-0.09997906976744186,0.7563795576311332,1.726163040131428,0.01726163040131428
-0.09995406976744185,0.7782796520664821,1.762466381280579,0.01762466381280579
-0.09992906976744186,0.8622300140686532,1.918570748221927,0.01918570748221927
-0.09990406976744186,0.9133302344178009,2.005698766979889,0.02005698766979889
-0.09987906976744186,0.9644304547669487,2.089196451622936,0.02089196451622936
-0.09985406976744186,1.052030832508344,2.238040150334454,0.02238040150334454
-0.09982906976744185,1.110431084335942,2.328798503207331,0.02328798503207331
-0.09980406976744186,1.15423127320664,2.394144517275802,0.02394144517275803
-0.09977906976744186,1.219931556512687,2.488533204263594,0.02488533204263594
-0.09975406976744186,1.318481981471757,2.630116234745282,0.02630116234745282
-0.09972906976744186,1.384182264777805,2.713613919388329,0.02713613919388329
-0.09970406976744185,1.449882548083882,2.800741938146327,0.02800741938146327
-0.09967906976744186,1.515582831389899,2.880609288674423,0.02880609288674423
-0.09965406976744186,1.632383335045094,3.007670982696451,0.0300767098269645
-0.09962906976744186,1.716333697047265,3.094799001454412,0.03094799001454412
-0.09960406976744186,1.767433917396413,3.145623679063223,0.03145623679063223
-0.09957906976744185,1.891534452530075,3.261794370740521,0.03261794370740521
-0.09955406976744186,1.93168462566153,3.294467377774741,0.03294467377774742
-0.09952906976744186,2.03753508209905,3.385225730647619,0.03385225730647619
-0.09950406976744186,2.128785475579671,3.45057174471609,0.0345057174471609
-0.09947906976744186,2.274786105148666,3.548590765818797,0.03548590765818797
-0.09945406976744185,2.311286262540983,3.570372770508327,0.03570372770508327
-0.09942906976744185,2.464586923588357,3.657500789266249,0.03657500789266249
-0.09940406976744186,2.574087395765102,3.711955800989975,0.03711955800989975
-0.09937906976744186,2.712787993855645,3.773671480943532,0.03773671480943532
-0.09935406976744186,2.822288466032391,3.817235490322513,0.03817235490322513
-0.09932906976744185,2.935438953948414,3.857169165586597,0.03857169165586596
-0.09930406976744185,3.052239457603555,3.897102840850645,0.03897102840850644
-0.09927906976744186,3.198240087172548,3.940666850229625,0.03940666850229625
-0.09925406976744186,3.336940685263093,3.973339857263861,0.03973339857263861
-0.09922906976744186,3.464691236135962,4.002382530183182,0.04002382530183182
-0.09920406976744185,3.66909211753258,4.042316205447253,0.04042316205447252
-0.09917906976744185,3.72749236936015,4.053207207791993,0.04053207207791993
-0.09915406976744186,3.924593219278291,4.085880214826228,0.04085880214826228
-0.09912906976744186,4.103443990500308,4.107662219515719,0.04107662219515719
-0.09910406976744186,4.176444305284805,4.118553221860465,0.04118553221860465
-0.09907906976744185,4.399095265377583,4.143965560664876,0.04143965560664876
-0.09905406976744185,4.537795863468064,4.15848689712453,0.0415848689712453
-0.09902906976744186,4.687446508776283,4.17300823358419,0.0417300823358419
-0.09900406976744186,4.793296965213803,4.180268901814021,0.04180268901814021
-0.09897906976744186,5.019597941045743,4.198420572388596,0.04198420572388595
-0.09895406976744185,5.165598570614801,4.209311574733347,0.04209311574733346
-0.09892906976744185,5.307949184444505,4.220202577078086,0.04220202577078086
-0.09890406976744186,5.490449971405747,4.231093579422832,0.04231093579422832
-0.09887906976744186,5.658350695410089,4.241984581767577,0.04241984581767577
-0.09885406976744186,5.895601718459703,4.252875584112322,0.04252875584112323
-0.09882906976744185,5.954001970287409,4.256505918227242,0.04256505918227242
-0.09880406976744185,6.191252993336915,4.267396920571982,0.04267396920571982
-0.09877906976744186,6.31535352847056,4.271027254686897,0.04271027254686897
-0.09875406976744186,6.457704142300329,4.278287922916728,0.04278287922916728
-0.09872906976744186,6.607354787608546,4.281918257031642,0.04281918257031642
-0.09870406976744185,6.844605810658205,4.289178925261474,0.04289178925261474
-0.09867906976744185,6.939506219878007,4.292809259376388,0.04292809259376388
-0.09865406976744186,7.114706975360799,4.300069927606218,0.04300069927606218
-0.09862906976744186,7.355608014149638,4.303700261721133,0.04303700261721133
-0.09860406976744186,7.505258659457857,4.307330595836048,0.04307330595836048
-0.09857906976744185,7.658559320505368,4.31459126406588,0.0431459126406588
-0.09855406976744185,7.808209965813518,4.318221598180793,0.04318221598180793
-0.09852906976744186,7.99071075277476,4.321851932295709,0.04321851932295709
-0.09850406976744186,8.173211539736002,4.325482266410623,0.04325482266410623
-0.09847906976744186,8.326512200783444,4.329112600525539,0.04329112600525539
-0.09845406976744185,8.476162846091773,4.332742934640455,0.04332742934640455
-0.09842906976744185,8.717063884880503,4.336373268755369,0.04336373268755369
-0.09840406976744186,8.837514404274922,4.340003602870284,0.04340003602870283
-0.09837906976744186,8.990815065322366,4.340003602870284,0.04340003602870283
-0.09835406976744186,9.235366119850429,4.347264271100114,0.04347264271100114
-0.09832906976744187,9.297416387417224,4.343633936985201,0.04343633936985201
-0.09830406976744185,9.541967441945316,4.350894605215029,0.0435089460521503
-0.09827906976744186,9.69526810299276,4.350894605215029,0.0435089460521503
-0.09825406976744186,9.903319000128574,4.35815527344486,0.04358155273444859
-0.09822906976744186,9.969019283434623,4.354524939329944,0.04354524939329944
-0.09820406976744187,10.21357033796257,4.361785607559771,0.04361785607559771
-0.09817906976744185,10.33402085735711,4.35815527344486,0.04358155273444859
-0.09815406976744186,10.33037084161788,4.35815527344486,0.04358155273444859
-0.09812906976744186,10.14787005465664,4.350894605215029,0.0435089460521503
-0.09810406976744186,9.990919377869972,4.350894605215029,0.0435089460521503
-0.09807906976744186,9.746368323342018,4.343633936985203,0.04343633936985203
-0.09805406976744185,9.684318055775083,4.343633936985199,0.04343633936985199
-0.09802906976744186,9.443417016986245,4.336373268755369,0.04336373268755369
-0.09800406976744186,9.264566245764229,4.332742934640454,0.04332742934640454
-0.09797906976744186,9.173315852283608,4.332742934640454,0.04332742934640454
-0.09795406976744186,9.020015191236233,4.329112600525541,0.04329112600525541
-0.09792906976744185,8.779114152447324,4.321851932295709,0.04321851932295709
-0.09790406976744186,8.629463507139107,4.318221598180793,0.04318221598180793
-0.09787906976744186,8.505362972005463,4.314591264065879,0.04314591264065878
-0.09785406976744186,8.264461933216623,4.307330595836048,0.04307330595836048
-0.09782906976744186,8.11116127216925,4.303700261721135,0.04303700261721134
-0.09780406976744185,7.961510626860961,4.303700261721133,0.04303700261721133
-0.09777906976744186,7.789959887117394,4.296439593491303,0.04296439593491302
-0.09775406976744186,7.600159068677702,4.292809259376388,0.04292809259376388
-0.09772906976744186,7.53810880111088,4.292809259376388,0.04292809259376388
-0.09770406976744186,7.297207762322151,4.281918257031648,0.04281918257031647
-0.09767906976744185,7.147557117013823,4.281918257031642,0.04281918257031642
-0.09765406976744186,6.910306093964208,4.271027254686897,0.04271027254686897
-0.09762906976744186,6.738755354220641,4.263766586457067,0.04263766586457067
-0.09760406976744186,6.640204929261571,4.260136252342152,0.04260136252342152
-0.09757906976744186,6.406603921951287,4.252875584112326,0.04252875584112326
-0.09755406976744185,6.326303575688234,4.249245249997407,0.04249245249997407
-0.09752906976744186,6.132852741509318,4.241984581767577,0.04241984581767577
-0.09750406976744186,5.910201781416603,4.231093579422832,0.04231093579422832
-0.09747906976744186,5.753251104629935,4.223832911193002,0.04223832911193002
-0.09745406976744186,5.694850852802364,4.220202577078088,0.04220202577078087
-0.09742906976744185,5.461249845491948,4.205681240618426,0.04205681240618426
-0.09740406976744186,5.29699913722683,4.194790238273681,0.04194790238273681
-0.09737906976744186,5.114498350265588,4.180268901814021,0.04180268901814021
-0.09735406976744186,4.97214773643582,4.17300823358419,0.0417300823358419
-0.09732906976744186,4.826147106866893,4.16211723123945,0.0416211723123945
-0.09730406976744185,4.599846131034886,4.140335226549954,0.04140335226549954
-0.09727906976744186,4.501295706075815,4.129444224205209,0.04129444224205209
-0.09725406976744186,4.347995045028373,4.114922887745549,0.04114922887745549
-0.09722906976744186,4.128994100674882,4.089510548941144,0.04089510548941144
-0.09720406976744186,4.074243864586535,4.082249880711317,0.04082249880711317
-0.09717906976744185,3.924593219278291,4.060467876021823,0.04060467876021823
-0.09715406976744186,3.738442416577825,4.031425203102502,0.04031425203102502
-0.09712906976744186,3.559591645355808,3.998752196068267,0.03998752196068266
-0.09710406976744186,3.493891362049761,3.984230859608606,0.03984230859608606
-0.09707906976744186,3.293140496392486,3.937036516114731,0.03937036516114732
-0.09705406976744185,3.172689976997975,3.90799384319539,0.0390799384319539
-0.09702906976744186,3.044939426125106,3.871690502046239,0.03871690502046239
-0.09700406976744186,2.891638765077663,3.820865824437428,0.03820865824437428
-0.09697906976744186,2.778488277161693,3.777301815058447,0.03777301815058447
-0.09695406976744186,2.72373804107332,3.759150144483872,0.03759150144483871
-0.09692906976744185,2.577737411504327,3.6938041304154,0.036938041304154
-0.09690406976744186,2.439036813413783,3.624827782232014,0.03624827782232014
-0.09687906976744186,2.329536341237038,3.563112102278457,0.03563112102278457
-0.09685406976744186,2.238285947756417,3.505026756439816,0.03505026756439816
-0.09682906976744186,2.147035554275796,3.44331107648626,0.03443311076486259
-0.09680406976744185,2.004684940446027,3.338031387153722,0.03338031387153723
-0.09677906976744186,1.935334641400756,3.279946041315081,0.03279946041315081
-0.09675406976744186,1.862334326616258,3.218230361361525,0.03218230361361525
-0.09672906976744186,1.738233791482614,3.098429335569327,0.03098429335569327
-0.09670406976744186,1.661583460958893,3.022192319156111,0.03022192319156111
-0.09667906976744185,1.614133256348933,2.971367641547258,0.02971367641547258
-0.09665406976744186,1.533832910086023,2.880609288674423,0.02880609288674423
-0.09662906976744186,1.420682422170053,2.74991726053748,0.0274991726053748
-0.09660406976744186,1.354982138864006,2.666419575894433,0.02666419575894433
-0.09657906976744186,1.292931871297184,2.579291557136471,0.02579291557136471
-0.09655406976744185,1.230881603730317,2.495793872493358,0.02495793872493359
-0.09652906976744186,1.132331178771291,2.350580507896821,0.02350580507896822
-0.09650406976744186,1.066630895465244,2.256191820909029,0.02256191820909029
-0.09647906976744186,1.026480722333771,2.187215472725643,0.02187215472725643
-0.09645406976744186,0.9388803445923743,2.038371774014125,0.02038371774014125
-0.09642906976744185,0.9096802186785432,1.994807764635086,0.01994807764635086
-0.09640406976744186,0.8366799038940798,1.867746070613116,0.01867746070613116
-0.09637906976744186,0.785579683544932,1.769727049510409,0.01769727049510409
-0.09635406976744186,0.70162932154276,1.613622682569061,0.01613622682569061
-0.09632906976744186,0.6797292271074111,1.573689007304995,0.01573689007304995
-0.09630406976744185,0.5994288808444413,1.413954306248685,0.01413954306248685
-0.09627906976744185,0.5483286604953168,1.312304951031109,0.01312304951031109
