Lab7/inlab/intergrator/sine/IntegralSine500.csv

#Digilent WaveForms Oscilloscope Acquisition,,
#Device Name: Discovery2,,
#Serial Number: SN:210321B0E736,,
#Date Time: 2023-10-25 13:54:12.915,,
#Sample rate: 400000Hz,,
#Samples: 8192,,
#Trigger: Source: Channel 1 Type: Edge Condition: Rising Level: 0 V Hyst.: Auto HoldOff: 0 s,,
#Channel 1: Range: 5 V/div Offset: 0 V Attenuation: 1 X Sample Mode: Average,,
#Channel 2: Range: 5 V/div Offset: 0 V Attenuation: 1 X Sample Mode: Average,,
#Wavegen Channel 1: Running,,
#Mode: Simple,,
#Type: Sine,,
#Frequency: 500 Hz,,
#Period: 2 ms,,
#Amplitude: 1 V,,
#Offset: 0 V,,
#Symmetry: 50 %,,
#Phase: 0 ¡,,
#Power Supplies: ON,,
#Positive Supply: ON,,
#Voltage: 3.3 V,,
#Negative Supply: ON,,
#Voltage: -3.3 V,,
,,
Time (s),Channel 1 (V),Channel 2 (V)
-0.010014167,-0.045842508,9.227175599
-0.010011667,-0.042157467,9.223508253
-0.010009167,-0.027417306,9.227175599
-0.010006667,-0.020047226,9.227175599
-0.010004167,-0.016362185,9.230842944
-0.010001667,-0.005307065,9.227175599
-0.009999167,0.005748056,9.223508253
-0.009996667,0.016803177,9.223508253
-0.009994167,0.013118137,9.23451029
-0.009991667,0.031543338,9.23451029
-0.009989167,0.035228379,9.227175599
-0.009986667,0.0462835,9.223508253
-0.009984167,0.042598459,9.223508253
-0.009981667,0.04996854,9.23451029
-0.009979167,0.068393741,9.227175599
-0.009976667,0.068393741,9.212506216
-0.009974167,0.079448862,9.186834797
-0.009971667,0.086818943,9.172165415
-0.009969167,0.097874064,9.153828687
-0.009966667,0.101559104,9.124489922
-0.009964167,0.112614225,9.106153195
-0.009961667,0.119984305,9.084149121
-0.009959167,0.123669346,9.047475665
-0.009956667,0.142094547,9.014469555
-0.009954167,0.149464628,8.992465482
-0.009951667,0.149464628,8.955792026
-0.009949167,0.160519748,8.91911857
-0.009946667,0.160519748,8.878777769
-0.009944167,0.17525991,8.838436967
-0.009941667,0.18631503,8.798096166
-0.009939167,0.17894495,8.757755364
-0.009936667,0.197370151,8.702745181
-0.009934167,0.212110312,8.655069688
-0.009931667,0.215795353,8.611061541
-0.009929167,0.219480393,8.559718703
-0.009926667,0.230535514,8.493706483
-0.009924167,0.237905594,8.44603099
-0.009921667,0.241590635,8.387353461
-0.009919167,0.252645756,8.32134124
-0.009916667,0.256330796,8.266331057
-0.009914167,0.263700877,8.200318836
-0.009911667,0.271070957,8.137973961
-0.009909167,0.278441038,8.06462705
-0.009906667,0.285811118,7.998614829
-0.009904167,0.293181199,7.925267918
-0.009901667,0.30792136,7.851921006
-0.009899167,0.30792136,7.778574094
-0.009896667,0.315291441,7.697892492
-0.009894167,0.330031602,7.617210889
-0.009891667,0.330031602,7.543863977
-0.009889167,0.337401682,7.455847683
-0.009886667,0.341086723,7.367831389
-0.009884167,0.352141843,7.283482441
-0.009881667,0.355826884,7.188131456
-0.009879167,0.363196964,7.107449853
-0.009876667,0.385307206,7.012098868
-0.009874167,0.385307206,6.909413192
-0.009871667,0.392677287,6.817729552
-0.009869167,0.400047367,6.718711221
-0.009866667,0.414787528,6.616025545
-0.009864167,0.407417448,6.517007215
-0.009861667,0.418472569,6.417988884
-0.009859167,0.429527689,6.304301171
-0.009856667,0.44058281,6.197948149
-0.009854167,0.44058281,6.091595127
-0.009851667,0.447952891,5.98157476
-0.009849167,0.455322972,5.867887047
-0.009846667,0.470063133,5.750531988
-0.009844167,0.473748173,5.640511621
-0.009841667,0.473748173,5.523156562
-0.009839167,0.488488334,5.398466812
-0.009836667,0.495858415,5.277444408
-0.009834167,0.495858415,5.152754658
-0.009831667,0.506913536,5.031732254
-0.009829167,0.514283616,4.907042505
-0.009826667,0.525338737,4.775018064
-0.009824167,0.529023777,4.65399566
-0.009821667,0.536393858,4.521971219
-0.009819167,0.536393858,4.378944741
-0.009816667,0.543763938,4.2469203
-0.009814167,0.554819059,4.118563205
-0.009811667,0.56587418,3.968202036
-0.009809167,0.56587418,3.836177595
-0.009806667,0.573244261,3.696818463
-0.009804167,0.584299382,3.55012464
-0.009801667,0.587984422,3.403430816
-0.009799167,0.587984422,3.260404339
-0.009796667,0.602724583,3.113710516
-0.009794167,0.602724583,2.967016692
-0.009791667,0.606409623,2.812988178
-0.009789167,0.617464744,2.655292318
-0.009786667,0.624834825,2.508598495
-0.009784167,0.632204905,2.350902635
-0.009781667,0.635889946,2.193206775
-0.009779167,0.635889946,2.035510915
-0.009776667,0.650630107,1.877815055
-0.009774167,0.658000187,1.716451849
-0.009771667,0.661685228,1.551421298
-0.009769167,0.669055308,1.390058093
-0.009766667,0.672740349,1.221360196
-0.009764167,0.680110429,1.05999699
-0.009761667,0.68748051,0.898633785
-0.009759167,0.69116555,0.722601197
-0.009756667,0.68748051,0.550235955
-0.009754167,0.698535631,0.381538058
-0.009751667,0.705905711,0.20550547
-0.009749167,0.705905711,0.036807573
-0.009746667,0.720645872,-0.150227051
-0.009744167,0.720645872,-0.329926985
-0.009741667,0.735386033,-0.498624882
-0.009739167,0.728015953,-0.678324815
-0.009736667,0.731700993,-0.86535944
-0.009734167,0.739071074,-1.045059373
-0.009731667,0.753811235,-1.228426652
-0.009729167,0.753811235,-1.415461277
-0.009726667,0.761181315,-1.598828556
-0.009724167,0.768551396,-1.78586318
-0.009721667,0.775921477,-1.969230459
-0.009719167,0.779606517,-2.167267121
-0.009716667,0.783291557,-2.357969091
-0.009714167,0.786976597,-2.545003716
-0.009711667,0.790661638,-2.739373031
-0.009709167,0.805401799,-2.926407656
-0.009706667,0.798031718,-3.124444317
-0.009704167,0.809086839,-3.322480979
-0.009701667,0.809086839,-3.516850295
-0.009699167,0.81645692,-3.714886956
-0.009696667,0.81645692,-3.920258308
-0.009694167,0.823827,-4.114627624
-0.009691667,0.823827,-4.312664286
-0.009689167,0.834882121,-4.518035638
-0.009686667,0.834882121,-4.723406991
-0.009684167,0.838567161,-4.928778343
-0.009681667,0.838567161,-5.126815004
-0.009679167,0.853307323,-5.332186357
-0.009676667,0.856992363,-5.544892401
-0.009674167,0.860677403,-5.742929062
-0.009671667,0.860677403,-5.955635106
-0.009669167,0.868047484,-6.168341149
-0.009666667,0.879102605,-6.370045156
-0.009664167,0.868047484,-6.590085891
-0.009661667,0.879102605,-6.795457244
-0.009659167,0.886472685,-7.011830633
-0.009656667,0.886472685,-7.21353464
-0.009654167,0.893842766,-7.429908029
-0.009651667,0.897527806,-7.646281418
-0.009649167,0.904897887,-7.858987462
-0.009646667,0.901212846,-8.071693506
-0.009644167,0.904897887,-8.291734241
-0.009641667,0.912267967,-8.489770902
-0.009639167,0.904897887,-8.596123924
-0.009636667,0.915953008,-8.629130034
-0.009634167,0.919638048,-8.647466762
-0.009631667,0.923323088,-8.658468799
-0.009629167,0.927008128,-8.673138181
-0.009626667,0.930693169,-8.669470836
-0.009624167,0.930693169,-8.669470836
-0.009621667,0.934378209,-8.669470836
-0.009619167,0.94174829,-8.66580349
-0.009616667,0.94174829,-8.673138181
-0.009614167,0.94543333,-8.66580349
-0.009611667,0.94543333,-8.66580349
-0.009609167,0.94911837,-8.662136144
-0.009606667,0.956488451,-8.658468799
-0.009604167,0.956488451,-8.658468799
-0.009601667,0.956488451,-8.662136144
-0.009599167,0.967543572,-8.658468799
-0.009596667,0.956488451,-8.654801453
-0.009594167,0.967543572,-8.654801453
-0.009591667,0.963858531,-8.651134108
-0.009589167,0.971228612,-8.654801453
-0.009586667,0.974913652,-8.654801453
-0.009584167,0.974913652,-8.647466762
-0.009581667,0.978598692,-8.647466762
-0.009579167,0.978598692,-8.647466762
-0.009576667,0.985968773,-8.651134108
-0.009574167,0.985968773,-8.643799416
-0.009571667,0.985968773,-8.643799416
-0.009569167,0.982283733,-8.636464725
-0.009566667,0.985968773,-8.640132071
-0.009564167,0.985968773,-8.636464725
-0.009561667,0.989653813,-8.640132071
-0.009559167,0.993338854,-8.640132071
-0.009556667,0.993338854,-8.640132071
-0.009554167,0.993338854,-8.636464725
-0.009551667,1.004393974,-8.63279738
-0.009549167,0.993338854,-8.636464725
-0.009546667,1.000708934,-8.636464725
-0.009544167,1.000708934,-8.63279738
-0.009541667,1.004393974,-8.63279738
-0.009539167,1.004393974,-8.629130034
-0.009536667,1.011764055,-8.636464725
-0.009534167,1.008079015,-8.63279738
-0.009531667,0.997023894,-8.63279738
-0.009529167,1.008079015,-8.629130034
-0.009526667,1.011764055,-8.63279738
-0.009524167,1.011764055,-8.640132071
-0.009521667,1.008079015,-8.63279738
-0.009519167,1.015449095,-8.63279738
-0.009516667,1.004393974,-8.63279738
-0.009514167,1.011764055,-8.636464725
-0.009511667,1.011764055,-8.621795343
-0.009509167,1.011764055,-8.636464725
-0.009506667,1.019134136,-8.636464725
-0.009504167,1.011764055,-8.625462689
-0.009501667,1.008079015,-8.629130034
-0.009499167,1.015449095,-8.63279738
-0.009496667,1.011764055,-8.636464725
-0.009494167,1.015449095,-8.629130034
-0.009491667,1.011764055,-8.629130034
-0.009489167,1.019134136,-8.629130034
-0.009486667,1.004393974,-8.63279738
-0.009484167,1.019134136,-8.63279738
-0.009481667,1.004393974,-8.621795343
-0.009479167,1.011764055,-8.629130034
-0.009476667,1.019134136,-8.629130034
-0.009474167,0.997023894,-8.63279738
-0.009471667,1.004393974,-8.629130034
-0.009469167,1.011764055,-8.625462689
-0.009466667,1.011764055,-8.63279738
-0.009464167,1.004393974,-8.636464725
-0.009461667,1.008079015,-8.629130034
-0.009459167,1.004393974,-8.629130034
-0.009456667,1.011764055,-8.63279738
-0.009454167,1.000708934,-8.63279738
-0.009451667,0.997023894,-8.63279738
-0.009449167,1.000708934,-8.629130034
-0.009446667,0.997023894,-8.63279738
-0.009444167,1.004393974,-8.629130034
-0.009441667,0.993338854,-8.629130034
-0.009439167,0.993338854,-8.629130034
-0.009436667,1.000708934,-8.63279738
-0.009434167,0.997023894,-8.636464725
-0.009431667,0.989653813,-8.629130034
-0.009429167,0.989653813,-8.629130034
-0.009426667,0.985968773,-8.636464725
-0.009424167,0.989653813,-8.629130034
-0.009421667,0.985968773,-8.629130034
-0.009419167,0.985968773,-8.63279738
-0.009416667,0.985968773,-8.63279738
-0.009414167,0.974913652,-8.636464725
-0.009411667,0.982283733,-8.629130034
-0.009409167,0.971228612,-8.629130034
-0.009406667,0.974913652,-8.629130034
-0.009404167,0.960173491,-8.629130034
-0.009401667,0.967543572,-8.63279738
-0.009399167,0.967543572,-8.629130034
-0.009396667,0.967543572,-8.63279738
-0.009394167,0.963858531,-8.63279738
-0.009391667,0.960173491,-8.621795343
-0.009389167,0.956488451,-8.63279738
-0.009386667,0.95280341,-8.629130034
-0.009384167,0.95280341,-8.629130034
-0.009381667,0.94543333,-8.63279738
-0.009379167,0.94174829,-8.629130034
-0.009376667,0.94911837,-8.63279738
-0.009374167,0.938063249,-8.629130034
-0.009371667,0.938063249,-8.63279738
-0.009369167,0.934378209,-8.636464725
-0.009366667,0.934378209,-8.629130034
-0.009364167,0.927008128,-8.629130034
-0.009361667,0.927008128,-8.629130034
-0.009359167,0.919638048,-8.629130034
-0.009356667,0.919638048,-8.629130034
-0.009354167,0.912267967,-8.63279738
-0.009351667,0.912267967,-8.625462689
-0.009349167,0.904897887,-8.625462689
-0.009346667,0.908582927,-8.63279738
-0.009344167,0.897527806,-8.625462689
-0.009341667,0.890157726,-8.63279738
-0.009339167,0.886472685,-8.63279738
-0.009336667,0.882787645,-8.625462689
-0.009334167,0.882787645,-8.629130034
-0.009331667,0.882787645,-8.621795343
-0.009329167,0.875417564,-8.625462689
-0.009326667,0.875417564,-8.636464725
-0.009324167,0.871732524,-8.629130034
-0.009321667,0.864362444,-8.625462689
-0.009319167,0.856992363,-8.625462689
-0.009316667,0.856992363,-8.621795343
-0.009314167,0.853307323,-8.63279738
-0.009311667,0.845937242,-8.625462689
-0.009309167,0.849622282,-8.625462689
-0.009306667,0.842252202,-8.625462689
-0.009304167,0.827512041,-8.621795343
-0.009301667,0.827512041,-8.63279738
-0.009299167,0.823827,-8.63279738
-0.009296667,0.823827,-8.629130034
-0.009294167,0.81645692,-8.625462689
-0.009291667,0.809086839,-8.629130034
-0.009289167,0.805401799,-8.625462689
-0.009286667,0.798031718,-8.621795343
-0.009284167,0.798031718,-8.629130034
-0.009281667,0.794346678,-8.621795343
-0.009279167,0.790661638,-8.625462689
-0.009276667,0.783291557,-8.625462689
-0.009274167,0.779606517,-8.621795343
-0.009271667,0.775921477,-8.621795343
-0.009269167,0.761181315,-8.621795343
-0.009266667,0.757496275,-8.621795343
-0.009264167,0.753811235,-8.63279738
-0.009261667,0.757496275,-8.625462689
-0.009259167,0.746441154,-8.621795343
-0.009256667,0.735386033,-8.618127997
-0.009254167,0.731700993,-8.621795343
-0.009251667,0.731700993,-8.621795343
-0.009249167,0.716960832,-8.618127997
-0.009246667,0.720645872,-8.625462689
-0.009244167,0.716960832,-8.625462689
-0.009241667,0.705905711,-8.621795343
-0.009239167,0.698535631,-8.610793306
-0.009236667,0.702220671,-8.621795343
-0.009234167,0.69116555,-8.618127997
-0.009231667,0.68748051,-8.618127997
-0.009229167,0.669055308,-8.618127997
-0.009226667,0.676425389,-8.621795343
-0.009224167,0.669055308,-8.618127997
-0.009221667,0.665370268,-8.614460652
-0.009219167,0.658000187,-8.610793306
-0.009216667,0.650630107,-8.621795343
-0.009214167,0.646945067,-8.618127997
-0.009211667,0.632204905,-8.618127997
-0.009209167,0.628519865,-8.614460652
-0.009206667,0.628519865,-8.614460652
-0.009204167,0.621149784,-8.614460652
-0.009201667,0.610094664,-8.618127997
-0.009199167,0.606409623,-8.618127997
-0.009196667,0.602724583,-8.610793306
-0.009194167,0.591669462,-8.618127997
-0.009191667,0.591669462,-8.607125961
-0.009189167,0.580614341,-8.614460652
-0.009186667,0.576929301,-8.614460652
-0.009184167,0.56955922,-8.610793306
-0.009181667,0.5585041,-8.610793306
-0.009179167,0.5585041,-8.610793306
-0.009176667,0.547448979,-8.614460652
-0.009174167,0.547448979,-8.607125961
-0.009171667,0.529023777,-8.607125961
-0.009169167,0.532708818,-8.610793306
-0.009166667,0.529023777,-8.610793306
-0.009164167,0.510598576,-8.610793306
-0.009161667,0.503228495,-8.603458615
-0.009159167,0.506913536,-8.607125961
-0.009156667,0.484803294,-8.610793306
-0.009154167,0.488488334,-8.607125961
-0.009151667,0.484803294,-8.603458615
-0.009149167,0.470063133,-8.59979127
-0.009146667,0.470063133,-8.603458615
-0.009144167,0.444267851,-8.603458615
-0.009141667,0.459008012,-8.607125961
-0.009139167,0.447952891,-8.603458615
-0.009136667,0.429527689,-8.59979127
-0.009134167,0.429527689,-8.603458615
-0.009131667,0.418472569,-8.59979127
-0.009129167,0.418472569,-8.59979127
-0.009126667,0.403732407,-8.596123924
-0.009124167,0.392677287,-8.59979127
-0.009121667,0.388992246,-8.59979127
-0.009119167,0.388992246,-8.603458615
-0.009116667,0.377937125,-8.596123924
-0.009114167,0.366882005,-8.59979127
-0.009111667,0.363196964,-8.585121887
-0.009109167,0.352141843,-8.592456578
-0.009106667,0.344771763,-8.59979127
-0.009104167,0.341086723,-8.592456578
-0.009101667,0.333716642,-8.588789233
-0.009099167,0.330031602,-8.588789233
-0.009096667,0.315291441,-8.588789233
-0.009094167,0.315291441,-8.585121887
-0.009091667,0.30423632,-8.588789233
-0.009089167,0.293181199,-8.588789233
-0.009086667,0.289496159,-8.588789233
-0.009084167,0.274755997,-8.585121887
-0.009081667,0.274755997,-8.585121887
-0.009079167,0.267385917,-8.581454542
-0.009076667,0.263700877,-8.577787196
-0.009074167,0.245275675,-8.581454542
-0.009071667,0.248960715,-8.585121887
-0.009069167,0.241590635,-8.577787196
-0.009066667,0.226850474,-8.581454542
-0.009064167,0.223165433,-8.57411985
-0.009061667,0.219480393,-8.581454542
-0.009059167,0.204740232,-8.566785159
-0.009056667,0.201055192,-8.570452505
-0.009054167,0.193685111,-8.570452505
-0.009051667,0.190000071,-8.570452505
-0.009049167,0.17894495,-8.563117814
-0.009046667,0.164204789,-8.566785159
-0.009044167,0.160519748,-8.563117814
-0.009041667,0.156834708,-8.559450468
-0.009039167,0.153149668,-8.559450468
-0.009036667,0.134724466,-8.563117814
-0.009034167,0.131039426,-8.552115777
-0.009031667,0.123669346,-8.552115777
-0.009029167,0.112614225,-8.552115777
-0.009026667,0.108929184,-8.555783123
-0.009024167,0.097874064,-8.548448431
-0.009021667,0.090503983,-8.544781086
-0.009019167,0.086818943,-8.544781086
-0.009016667,0.075763822,-8.544781086
-0.009014167,0.061023661,-8.530111703
-0.009011667,0.068393741,-8.530111703
-0.009009167,0.04996854,-8.526444358
-0.009006667,0.038913419,-8.526444358
-0.009004167,0.035228379,-8.519109667
-0.009001667,0.035228379,-8.515442321
-0.008999167,0.020488217,-8.511774976
-0.008996667,0.016803177,-8.504440284
-0.008994167,-0.001622024,-8.500772939
-0.008991667,-0.008992105,-8.493438248
-0.008989167,-0.012677145,-8.486103556
-0.008986667,-0.020047226,-8.478768865
-0.008984167,-0.023732266,-8.467766829
-0.008981667,-0.034787387,-8.456764792
-0.008979167,-0.045842508,-8.44209541
-0.008976667,-0.056897629,-8.427426027
-0.008974167,-0.064267709,-8.412756645
-0.008971667,-0.067952749,-8.387085226
-0.008969167,-0.07900787,-8.372415843
-0.008966667,-0.07900787,-8.346744424
-0.008964167,-0.090062991,-8.328407697
-0.008961667,-0.101118112,-8.291734241
-0.008959167,-0.108488193,-8.262395476
-0.008956667,-0.112173233,-8.236724057
-0.008954167,-0.126913394,-8.19271591
-0.008951667,-0.126913394,-8.152375109
-0.008949167,-0.141653555,-8.119368998
-0.008946667,-0.149023636,-8.079028197
-0.008944167,-0.145338595,-8.038687396
-0.008941667,-0.163763797,-7.991011903
-0.008939167,-0.160078757,-7.950671102
-0.008936667,-0.167448837,-7.895660918
-0.008934167,-0.189559079,-7.851652771
-0.008931667,-0.189559079,-7.789307896
-0.008929167,-0.193244119,-7.737965058
-0.008926667,-0.20798428,-7.682954874
-0.008924167,-0.215354361,-7.624277345
-0.008921667,-0.219039401,-7.565599816
-0.008919167,-0.222724442,-7.503254941
-0.008916667,-0.233779562,-7.433575375
-0.008914167,-0.248519724,-7.374897846
-0.008911667,-0.241149643,-7.297883588
-0.008909167,-0.255889804,-7.231871368
-0.008906667,-0.263259885,-7.158524456
-0.008904167,-0.278000046,-7.085177545
-0.008901667,-0.278000046,-7.004495942
-0.008899167,-0.292740207,-6.927481685
-0.008896667,-0.296425247,-6.854134773
-0.008894167,-0.300110288,-6.766118479
-0.008891667,-0.307480368,-6.685436876
-0.008889167,-0.318535489,-6.597420582
-0.008886667,-0.32959061,-6.505736943
-0.008884167,-0.33696069,-6.421387995
-0.008881667,-0.340645731,-6.333371701
-0.008879167,-0.351700852,-6.238020715
-0.008876667,-0.359070932,-6.146337076
-0.008874167,-0.366441013,-6.036316709
-0.008871667,-0.370126053,-5.948300415
-0.008869167,-0.377496134,-5.838280047
-0.008866667,-0.384866214,-5.746596408
-0.008864167,-0.395921335,-5.63657604
-0.008861667,-0.392236295,-5.530223018
-0.008859167,-0.406976456,-5.427537342
-0.008856667,-0.406976456,-5.317516975
-0.008854167,-0.425401657,-5.207496607
-0.008851667,-0.429086698,-5.090141549
-0.008849167,-0.432771738,-4.980121181
-0.008846667,-0.443826859,-4.855431432
-0.008844167,-0.451196939,-4.734409027
-0.008841667,-0.45488198,-4.62438866
-0.008839167,-0.465937101,-4.496031565
-0.008836667,-0.476992221,-4.37500916
-0.008834167,-0.480677262,-4.246652065
-0.008831667,-0.480677262,-4.11829497
-0.008829167,-0.484362302,-3.99360522
-0.008826667,-0.502787503,-3.865248125
-0.008824167,-0.506472544,-3.729556338
-0.008821667,-0.513842624,-3.593864552
-0.008819167,-0.517527665,-3.45450542
-0.008816667,-0.528582785,-3.322480979
-0.008814167,-0.535952866,-3.183121847
-0.008811667,-0.539637906,-3.051097406
-0.008809167,-0.547007987,-2.904403583
-0.008806667,-0.558063108,-2.750375068
-0.008804167,-0.554378067,-2.611015936
-0.008801667,-0.565433188,-2.467989458
-0.008799167,-0.572803269,-2.31762829
-0.008796667,-0.58017335,-2.167267121
-0.008794167,-0.58385839,-2.016905952
-0.008791667,-0.59122847,-1.862877438
-0.008789167,-0.598598551,-1.712516269
-0.008786667,-0.605968632,-1.551153063
-0.008784167,-0.602283591,-1.393457203
-0.008781667,-0.620708793,-1.232093998
-0.008779167,-0.617023752,-1.078065483
-0.008776667,-0.624393833,-0.913034932
-0.008774167,-0.631763914,-0.748004381
-0.008771667,-0.631763914,-0.590308521
-0.008769167,-0.642819034,-0.414275933
-0.008766667,-0.650189115,-0.245578036
-0.008764167,-0.657559196,-0.07688014
-0.008761667,-0.653874155,0.088150411
-0.008759167,-0.664929276,0.253180963
-0.008756667,-0.672299357,0.42921355
-0.008754167,-0.675984397,0.612580829
-0.008751667,-0.683354478,0.781278726
-0.008749167,-0.690724558,0.964646005
-0.008746667,-0.694409598,1.137011248
-0.008744167,-0.705464719,1.316711181
-0.008741667,-0.701779679,1.503745806
