Lab7/inlab/intergrator/sine/IntegralSine1k.csv

#Digilent WaveForms Oscilloscope Acquisition,,
#Device Name: Discovery2,,
#Serial Number: SN:210321B0E736,,
#Date Time: 2023-10-25 13:54:57.966,,
#Sample rate: 1.5873e+06Hz,,
#Samples: 8192,,
#Trigger: Source: Channel 1 Type: Edge Condition: Rising Level: 0 V Hyst.: Auto HoldOff: 0 s,,
#Channel 1: Range: 5 V/div Offset: 0 V Attenuation: 1 X Sample Mode: Average,,
#Channel 2: Range: 5 V/div Offset: 0 V Attenuation: 1 X Sample Mode: Average,,
#Wavegen Channel 1: Running,,
#Mode: Simple,,
#Type: Sine,,
#Frequency: 1 kHz,,
#Period: 1 ms,,
#Amplitude: 1 V,,
#Offset: 0 V,,
#Symmetry: 50 %,,
#Phase: 0 ¡,,
#Power Supplies: ON,,
#Positive Supply: ON,,
#Voltage: 3.3 V,,
#Negative Supply: ON,,
#Voltage: -3.3 V,,
,,
Time (s),Channel 1 (V),Channel 2 (V)
-0.002356031,-0.760740324,-2.464322113
-0.002355401,-0.764425364,-2.409311929
-0.002354771,-0.771795445,-2.357969091
-0.002354141,-0.768110404,-2.302958907
-0.002353511,-0.782850565,-2.255283415
-0.002352881,-0.768110404,-2.211275268
-0.002352251,-0.775480485,-2.15993243
-0.002351621,-0.786535606,-2.112256937
-0.002350991,-0.786535606,-2.064581445
-0.002350361,-0.790220646,-2.00223657
-0.002349731,-0.768110404,-1.950893732
-0.002349101,-0.775480485,-1.895883548
-0.002348471,-0.793905686,-1.855542746
-0.002347841,-0.790220646,-1.793197872
-0.002347211,-0.793905686,-1.749189725
-0.002346581,-0.793905686,-1.694179541
-0.002345951,-0.808645847,-1.642836703
-0.002345321,-0.801275767,-1.587826519
-0.002344691,-0.812330888,-1.540151026
-0.002344061,-0.804960807,-1.481473497
-0.002343431,-0.804960807,-1.415461277
-0.002342801,-0.816015928,-1.367785784
-0.002342171,-0.819700968,-1.3127756
-0.002341541,-0.816015928,-1.265100108
-0.002340911,-0.827071049,-1.21375727
-0.002340281,-0.823386009,-1.151412395
-0.002339651,-0.827071049,-1.107404248
-0.002339021,-0.830756089,-1.059728755
-0.002338391,-0.827071049,-0.997383881
-0.002337761,-0.816015928,-0.942373697
-0.002337131,-0.812330888,-0.887363513
-0.002336501,-0.819700968,-0.839688021
-0.002335871,-0.83812617,-0.781010491
-0.002335241,-0.83812617,-0.729667653
-0.002334611,-0.84549625,-0.674657469
-0.002333981,-0.860236411,-0.61597994
-0.002333351,-0.849181291,-0.557302411
-0.002332721,-0.84181121,-0.49129019
-0.002332091,-0.856551371,-0.447282043
-0.002331461,-0.84549625,-0.395939205
-0.002330831,-0.849181291,-0.337261676
-0.002330201,-0.860236411,-0.285918838
-0.002329571,-0.84549625,-0.223573963
-0.002328941,-0.849181291,-0.157561743
-0.002328311,-0.849181291,-0.102551559
-0.002327681,-0.84181121,-0.051208721
-0.002327051,-0.860236411,-0.003533228
-0.002326421,-0.871291532,0.055144301
-0.002325791,-0.867606492,0.117489176
-0.002325161,-0.871291532,0.17249936
-0.002324531,-0.878661613,0.223842198
-0.002323901,-0.871291532,0.286187073
-0.002323271,-0.874976573,0.344864602
-0.002322641,-0.867606492,0.399874786
-0.002322011,-0.871291532,0.454884969
-0.002321381,-0.871291532,0.513562499
-0.002320751,-0.867606492,0.575907374
-0.002320121,-0.886031693,0.627250212
-0.002319491,-0.882346653,0.689595087
-0.002318861,-0.893401774,0.74460527
-0.002318231,-0.889716734,0.799615454
-0.002317601,-0.897086814,0.865627675
-0.002316971,-0.904456895,0.924305204
-0.002316341,-0.897086814,0.968313351
-0.002315711,-0.900771855,1.030658226
-0.002315081,-0.897086814,1.089335755
-0.002314451,-0.904456895,1.148013284
-0.002313821,-0.900771855,1.214025505
-0.002313191,-0.904456895,1.265368343
-0.002312561,-0.900771855,1.320378527
-0.002311931,-0.900771855,1.382723401
-0.002311301,-0.911826975,1.43406624
-0.002310671,-0.919197056,1.50007846
-0.002310041,-0.911826975,1.558755989
-0.002309411,-0.915512016,1.62476821
-0.002308781,-0.915512016,1.687113085
-0.002308151,-0.915512016,1.753125305
-0.002307521,-0.919197056,1.800800798
-0.002306891,-0.915512016,1.859478327
-0.002306261,-0.908141935,1.910821165
-0.002305631,-0.919197056,1.984168077
-0.002305001,-0.922882096,2.028176224
-0.002304371,-0.915512016,2.090521099
-0.002303741,-0.915512016,2.167535356
-0.002303111,-0.926567137,2.226212885
-0.002302481,-0.930252177,2.281223069
-0.002301851,-0.926567137,2.339900598
-0.002301221,-0.930252177,2.402245473
-0.002300591,-0.926567137,2.460923002
-0.002299961,-0.937622257,2.519600531
-0.002299331,-0.933937217,2.578278061
-0.002298701,-0.922882096,2.640622936
-0.002298071,-0.930252177,2.710302502
-0.002297441,-0.933937217,2.772647377
-0.002296811,-0.933937217,2.838659597
-0.002296181,-0.941307298,2.890002435
-0.002295551,-0.941307298,2.934010582
-0.002294921,-0.948677378,3.000022803
-0.002294291,-0.944992338,3.07703706
-0.002293661,-0.948677378,3.139381935
-0.002293031,-0.948677378,3.183390082
-0.002292401,-0.952362419,3.245734956
-0.002291771,-0.948677378,3.311747177
-0.002291141,-0.963417539,3.370424706
-0.002290511,-0.956047459,3.436436927
-0.002289881,-0.956047459,3.495114456
-0.002289251,-0.956047459,3.568461368
-0.002288621,-0.952362419,3.630806242
-0.002287991,-0.956047459,3.682149081
-0.002287361,-0.956047459,3.748161301
-0.002286731,-0.96710258,3.814173521
-0.002286101,-0.956047459,3.861849014
-0.002285471,-0.963417539,3.920526543
-0.002284841,-0.956047459,3.993873455
-0.002284211,-0.97078762,4.052550984
-0.002283581,-0.96710258,4.114895859
-0.002282951,-0.96710258,4.177240734
-0.002282321,-0.978157701,4.235918263
-0.002281691,-0.97078762,4.298263138
-0.002281061,-0.97078762,4.356940667
-0.002280431,-0.944992338,4.422952888
-0.002279801,-0.963417539,4.488965108
-0.002279171,-0.959732499,4.532973255
-0.002278541,-0.97078762,4.602652821
-0.002277911,-0.978157701,4.668665042
-0.002277281,-0.97447266,4.734677262
-0.002276651,-0.97447266,4.797022137
-0.002276021,-0.96710258,4.863034358
-0.002275391,-0.978157701,4.925379232
-0.002274761,-0.97447266,4.976722071
-0.002274131,-0.97078762,5.050068982
-0.002273501,-0.959732499,5.105079166
-0.002272871,-0.97447266,5.171091386
-0.002272241,-0.97078762,5.229768916
-0.002271611,-0.97447266,5.295781136
-0.002270981,-0.985527781,5.354458665
-0.002270351,-0.985527781,5.41680354
-0.002269721,-0.981842741,5.486483106
-0.002269091,-0.985527781,5.548827981
-0.002268461,-0.985527781,5.607505511
-0.002267831,-0.981842741,5.662515694
-0.002267201,-0.985527781,5.73219526
-0.002266571,-0.97447266,5.805542172
-0.002265941,-0.989212822,5.864219701
-0.002265311,-0.978157701,5.919229885
-0.002264681,-0.97447266,5.98157476
-0.002264051,-0.97447266,6.036584943
-0.002263421,-0.981842741,6.102597164
-0.002262791,-0.989212822,6.17227673
-0.002262161,-0.992897862,6.234621605
-0.002261531,-0.985527781,6.289631789
-0.002260901,-0.978157701,6.366646046
-0.002260271,-0.996582902,6.421656229
-0.002259641,-0.989212822,6.491335795
-0.002259011,-0.992897862,6.55368067
-0.002258381,-0.992897862,6.597688817
-0.002257751,-0.989212822,6.671035729
-0.002257121,-0.981842741,6.726045913
-0.002256491,-0.981842741,6.795725479
-0.002255861,-0.996582902,6.858070354
-0.002255231,-1.000267942,6.924082574
-0.002254601,-0.996582902,6.971758067
-0.002253971,-0.985527781,7.045104978
-0.002253341,-0.981842741,7.107449853
-0.002252711,-0.989212822,7.173462074
-0.002252081,-0.996582902,7.228472257
-0.002251451,-0.996582902,7.298151823
-0.002250821,-0.989212822,7.364164044
-0.002250191,-0.981842741,7.422841573
-0.002249561,-0.985527781,7.477851757
-0.002248931,-1.000267942,7.540196632
-0.002248301,-0.985527781,7.613543543
-0.002247671,-1.000267942,7.679555764
-0.002247041,-0.992897862,7.719896565
-0.002246411,-0.996582902,7.793243477
-0.002245781,-0.996582902,7.851921006
-0.002245151,-0.992897862,7.914265881
-0.002244521,-0.992897862,7.980278101
-0.002243891,-0.985527781,8.046290322
-0.002243261,-0.981842741,8.112302542
-0.002242631,-0.981842741,8.167312726
-0.002242001,-0.992897862,8.229657601
-0.002241371,-1.000267942,8.303004512
-0.002240741,-0.996582902,8.365349387
-0.002240111,-1.003952983,8.424026917
-0.002239481,-0.989212822,8.475369755
-0.002238851,-0.996582902,8.534047284
-0.002238221,-0.985527781,8.596392159
-0.002237591,-0.996582902,8.666071725
-0.002236961,-0.989212822,8.721081909
-0.002236331,-0.989212822,8.787094129
-0.002235701,-0.992897862,8.845771658
-0.002235071,-0.996582902,8.911783879
-0.002234441,-0.981842741,8.974128754
-0.002233811,-0.996582902,9.036473629
-0.002233181,-0.981842741,9.098818503
-0.002232551,-0.992897862,9.146493996
-0.002231921,-1.000267942,9.194169489
-0.002231291,-0.985527781,9.205171525
-0.002230661,-0.989212822,9.212506216
-0.002230031,-0.989212822,9.230842944
-0.002229401,-0.978157701,9.241844981
-0.002228771,-0.978157701,9.23451029
-0.002228141,-0.985527781,9.241844981
-0.002227511,-0.985527781,9.223508253
-0.002226881,-0.985527781,9.238177635
-0.002226251,-0.985527781,9.241844981
-0.002225621,-0.97447266,9.238177635
-0.002224991,-0.978157701,9.249179672
-0.002224361,-0.981842741,9.23451029
-0.002223731,-0.981842741,9.230842944
-0.002223101,-0.985527781,9.238177635
-0.002222471,-0.981842741,9.249179672
-0.002221841,-0.978157701,9.245512327
-0.002221211,-0.981842741,9.238177635
-0.002220581,-0.97447266,9.252847018
-0.002219951,-0.959732499,9.256514363
-0.002219321,-0.97078762,9.245512327
-0.002218691,-0.97078762,9.238177635
-0.002218061,-0.981842741,9.241844981
-0.002217431,-0.97447266,9.245512327
-0.002216801,-0.978157701,9.252847018
-0.002216171,-0.97447266,9.256514363
-0.002215541,-0.97447266,9.245512327
-0.002214911,-0.959732499,9.245512327
-0.002214281,-0.97447266,9.245512327
-0.002213651,-0.959732499,9.245512327
-0.002213021,-0.952362419,9.249179672
-0.002212391,-0.96710258,9.238177635
-0.002211761,-0.96710258,9.245512327
-0.002211131,-0.963417539,9.245512327
-0.002210501,-0.959732499,9.245512327
-0.002209871,-0.959732499,9.256514363
-0.002209241,-0.963417539,9.256514363
-0.002208611,-0.97078762,9.245512327
-0.002207981,-0.956047459,9.23451029
-0.002207351,-0.96710258,9.245512327
-0.002206721,-0.96710258,9.249179672
-0.002206091,-0.963417539,9.241844981
-0.002205461,-0.96710258,9.238177635
-0.002204831,-0.948677378,9.241844981
-0.002204201,-0.948677378,9.256514363
-0.002203571,-0.941307298,9.23451029
-0.002202941,-0.933937217,9.249179672
-0.002202311,-0.956047459,9.252847018
-0.002201681,-0.952362419,9.245512327
-0.002201051,-0.948677378,9.245512327
-0.002200421,-0.956047459,9.238177635
-0.002199791,-0.959732499,9.249179672
-0.002199161,-0.952362419,9.245512327
-0.002198531,-0.963417539,9.241844981
-0.002197901,-0.941307298,9.241844981
-0.002197271,-0.937622257,9.249179672
-0.002196641,-0.944992338,9.238177635
-0.002196011,-0.944992338,9.241844981
-0.002195381,-0.937622257,9.245512327
-0.002194751,-0.937622257,9.249179672
-0.002194121,-0.941307298,9.241844981
-0.002193491,-0.941307298,9.241844981
-0.002192861,-0.933937217,9.249179672
-0.002192231,-0.933937217,9.241844981
-0.002191601,-0.944992338,9.241844981
-0.002190971,-0.944992338,9.245512327
-0.002190341,-0.922882096,9.252847018
-0.002189711,-0.922882096,9.238177635
-0.002189081,-0.930252177,9.238177635
-0.002188451,-0.915512016,9.238177635
-0.002187821,-0.908141935,9.227175599
-0.002187191,-0.915512016,9.238177635
-0.002186561,-0.900771855,9.23451029
-0.002185931,-0.919197056,9.241844981
-0.002185301,-0.933937217,9.238177635
-0.002184671,-0.941307298,9.245512327
-0.002184041,-0.919197056,9.23451029
-0.002183411,-0.908141935,9.245512327
-0.002182781,-0.919197056,9.249179672
-0.002182151,-0.922882096,9.241844981
-0.002181521,-0.922882096,9.241844981
-0.002180891,-0.908141935,9.227175599
-0.002180261,-0.897086814,9.23451029
-0.002179631,-0.908141935,9.241844981
-0.002179001,-0.900771855,9.238177635
-0.002178371,-0.897086814,9.223508253
-0.002177741,-0.900771855,9.245512327
-0.002177111,-0.893401774,9.241844981
-0.002176481,-0.897086814,9.230842944
-0.002175851,-0.889716734,9.23451029
-0.002175221,-0.886031693,9.241844981
-0.002174591,-0.882346653,9.238177635
-0.002173961,-0.886031693,9.23451029
-0.002173331,-0.886031693,9.23451029
-0.002172701,-0.886031693,9.23451029
-0.002172071,-0.882346653,9.23451029
-0.002171441,-0.882346653,9.230842944
-0.002170811,-0.874976573,9.249179672
-0.002170181,-0.874976573,9.245512327
-0.002169551,-0.874976573,9.241844981
-0.002168921,-0.874976573,9.230842944
-0.002168291,-0.874976573,9.238177635
-0.002167661,-0.874976573,9.23451029
-0.002167031,-0.867606492,9.241844981
-0.002166401,-0.863921452,9.230842944
-0.002165771,-0.856551371,9.219840908
-0.002165141,-0.856551371,9.227175599
-0.002164511,-0.863921452,9.223508253
-0.002163881,-0.860236411,9.227175599
-0.002163251,-0.856551371,9.230842944
-0.002162621,-0.860236411,9.238177635
-0.002161991,-0.856551371,9.230842944
-0.002161361,-0.852866331,9.238177635
-0.002160731,-0.849181291,9.230842944
-0.002160101,-0.849181291,9.23451029
-0.002159471,-0.84181121,9.238177635
-0.002158841,-0.830756089,9.238177635
-0.002158211,-0.84181121,9.223508253
-0.002157581,-0.834441129,9.223508253
-0.002156951,-0.834441129,9.230842944
-0.002156321,-0.834441129,9.230842944
-0.002155691,-0.830756089,9.227175599
-0.002155061,-0.827071049,9.230842944
-0.002154431,-0.823386009,9.230842944
-0.002153801,-0.819700968,9.23451029
-0.002153171,-0.819700968,9.238177635
-0.002152541,-0.819700968,9.238177635
-0.002151911,-0.808645847,9.227175599
-0.002151281,-0.812330888,9.23451029
-0.002150651,-0.819700968,9.227175599
-0.002150021,-0.819700968,9.227175599
-0.002149391,-0.819700968,9.230842944
-0.002148761,-0.808645847,9.219840908
-0.002148131,-0.808645847,9.23451029
-0.002147501,-0.804960807,9.230842944
-0.002146871,-0.797590727,9.23451029
-0.002146241,-0.793905686,9.230842944
-0.002145611,-0.797590727,9.230842944
-0.002144981,-0.812330888,9.230842944
-0.002144351,-0.793905686,9.223508253
-0.002143721,-0.786535606,9.230842944
-0.002143091,-0.779165525,9.23451029
-0.002142461,-0.790220646,9.223508253
-0.002141831,-0.771795445,9.223508253
-0.002141201,-0.768110404,9.230842944
-0.002140571,-0.782850565,9.23451029
-0.002139941,-0.771795445,9.23451029
-0.002139311,-0.771795445,9.230842944
-0.002138681,-0.771795445,9.23451029
-0.002138051,-0.771795445,9.23451029
-0.002137421,-0.771795445,9.230842944
-0.002136791,-0.775480485,9.227175599
-0.002136161,-0.753370243,9.23451029
-0.002135531,-0.753370243,9.23451029
-0.002134901,-0.746000162,9.238177635
-0.002134271,-0.746000162,9.23451029
-0.002133641,-0.742315122,9.227175599
-0.002133011,-0.742315122,9.241844981
-0.002132381,-0.731260001,9.230842944
-0.002131751,-0.727574961,9.23451029
-0.002131121,-0.738630082,9.223508253
-0.002130491,-0.731260001,9.23451029
-0.002129861,-0.734945042,9.227175599
-0.002129231,-0.734945042,9.223508253
-0.002128601,-0.731260001,9.223508253
-0.002127971,-0.723889921,9.245512327
-0.002127341,-0.7128348,9.241844981
-0.002126711,-0.7128348,9.23451029
-0.002126081,-0.7128348,9.230842944
-0.002125451,-0.705464719,9.230842944
-0.002124821,-0.705464719,9.227175599
-0.002124191,-0.705464719,9.241844981
-0.002123561,-0.70914976,9.23451029
-0.002122931,-0.705464719,9.230842944
-0.002122301,-0.698094639,9.23451029
-0.002121671,-0.690724558,9.223508253
-0.002121041,-0.698094639,9.219840908
-0.002120411,-0.690724558,9.223508253
-0.002119781,-0.683354478,9.23451029
-0.002119151,-0.675984397,9.238177635
-0.002118521,-0.679669437,9.241844981
-0.002117891,-0.661244236,9.238177635
-0.002117261,-0.664929276,9.230842944
-0.002116631,-0.646504075,9.230842944
-0.002116001,-0.675984397,9.227175599
-0.002115371,-0.668614316,9.230842944
-0.002114741,-0.675984397,9.230842944
-0.002114111,-0.675984397,9.227175599
-0.002113481,-0.661244236,9.230842944
-0.002112851,-0.657559196,9.23451029
-0.002112221,-0.650189115,9.23451029
-0.002111591,-0.642819034,9.230842944
-0.002110961,-0.635448954,9.230842944
-0.002110331,-0.639133994,9.238177635
-0.002109701,-0.628078873,9.230842944
-0.002109071,-0.646504075,9.23451029
-0.002108441,-0.635448954,9.238177635
-0.002107811,-0.635448954,9.241844981
-0.002107181,-0.642819034,9.230842944
-0.002106551,-0.624393833,9.23451029
-0.002105921,-0.620708793,9.238177635
-0.002105291,-0.624393833,9.238177635
-0.002104661,-0.628078873,9.241844981
-0.002104031,-0.617023752,9.23451029
-0.002103401,-0.624393833,9.223508253
-0.002102771,-0.609653672,9.230842944
-0.002102141,-0.605968632,9.238177635
-0.002101511,-0.598598551,9.249179672
-0.002100881,-0.598598551,9.238177635
-0.002100251,-0.598598551,9.23451029
-0.002099621,-0.598598551,9.249179672
-0.002098991,-0.598598551,9.23451029
-0.002098361,-0.576488309,9.23451029
-0.002097731,-0.58017335,9.23451029
-0.002097101,-0.58017335,9.238177635
-0.002096471,-0.59122847,9.227175599
-0.002095841,-0.572803269,9.227175599
-0.002095211,-0.565433188,9.23451029
-0.002094581,-0.569118229,9.238177635
-0.002093951,-0.572803269,9.219840908
-0.002093321,-0.569118229,9.227175599
-0.002092691,-0.561748148,9.241844981
-0.002092061,-0.550693027,9.245512327
-0.002091431,-0.561748148,9.238177635
-0.002090801,-0.547007987,9.230842944
-0.002090171,-0.547007987,9.245512327
-0.002089541,-0.539637906,9.241844981
-0.002088911,-0.524897745,9.241844981
-0.002088281,-0.535952866,9.238177635
-0.002087651,-0.535952866,9.238177635
-0.002087021,-0.524897745,9.230842944
-0.002086391,-0.513842624,9.238177635
-0.002085761,-0.513842624,9.238177635
-0.002085131,-0.506472544,9.230842944
-0.002084501,-0.524897745,9.230842944
-0.002083871,-0.528582785,9.230842944
-0.002083241,-0.513842624,9.238177635
-0.002082611,-0.513842624,9.23451029
-0.002081981,-0.499102463,9.241844981
-0.002081351,-0.502787503,9.230842944
-0.002080721,-0.499102463,9.230842944
-0.002080091,-0.491732383,9.238177635
-0.002079461,-0.488047342,9.238177635
-0.002078831,-0.480677262,9.245512327
-0.002078201,-0.480677262,9.23451029
-0.002077571,-0.473307181,9.245512327
-0.002076941,-0.473307181,9.241844981
-0.002076311,-0.469622141,9.238177635
-0.002075681,-0.469622141,9.245512327
-0.002075051,-0.480677262,9.241844981
-0.002074421,-0.45856702,9.238177635
-0.002073791,-0.465937101,9.238177635
-0.002073161,-0.465937101,9.241844981
-0.002072531,-0.451196939,9.241844981
-0.002071901,-0.440141819,9.245512327
-0.002071271,-0.436456778,9.241844981
-0.002070641,-0.443826859,9.23451029
-0.002070011,-0.425401657,9.241844981
-0.002069381,-0.436456778,9.238177635
-0.002068751,-0.414346537,9.227175599
-0.002068121,-0.406976456,9.23451029
-0.002067491,-0.414346537,9.227175599
-0.002066861,-0.414346537,9.227175599
-0.002066231,-0.406976456,9.23451029
-0.002065601,-0.399606375,9.241844981
-0.002064971,-0.410661496,9.230842944
-0.002064341,-0.406976456,9.241844981
-0.002063711,-0.403291416,9.249179672
-0.002063081,-0.395921335,9.249179672
-0.002062451,-0.395921335,9.238177635
-0.002061821,-0.395921335,9.241844981
-0.002061191,-0.377496134,9.245512327
-0.002060561,-0.388551255,9.245512327
-0.002059931,-0.377496134,9.249179672
-0.002059301,-0.373811093,9.241844981
-0.002058671,-0.373811093,9.245512327
-0.002058041,-0.370126053,9.249179672
-0.002057411,-0.359070932,9.238177635
-0.002056781,-0.355385892,9.241844981
-0.002056151,-0.355385892,9.241844981
-0.002055521,-0.351700852,9.241844981
-0.002054891,-0.348015811,9.238177635
-0.002054261,-0.344330771,9.238177635
-0.002053631,-0.344330771,9.252847018
-0.002053001,-0.33696069,9.252847018
-0.002052371,-0.33327565,9.256514363
-0.002051741,-0.32959061,9.241844981
-0.002051111,-0.32959061,9.245512327
-0.002050481,-0.322220529,9.241844981
-0.002049851,-0.32590557,9.245512327
-0.002049221,-0.311165408,9.241844981
-0.002048591,-0.296425247,9.23451029
-0.002047961,-0.307480368,9.252847018
-0.002047331,-0.303795328,9.245512327
-0.002046701,-0.300110288,9.241844981
-0.002046071,-0.296425247,9.245512327
-0.002045441,-0.285370126,9.252847018
-0.002044811,-0.285370126,9.23451029
-0.002044181,-0.296425247,9.238177635
-0.002043551,-0.281685086,9.241844981
-0.002042921,-0.266944925,9.249179672
-0.002042291,-0.270629965,9.249179672
-0.002041661,-0.274315006,9.256514363
-0.002041031,-0.285370126,9.249179672
-0.002040401,-0.263259885,9.23451029
-0.002039771,-0.248519724,9.249179672
-0.002039141,-0.244834683,9.241844981
-0.002038511,-0.248519724,9.241844981
-0.002037881,-0.237464603,9.238177635
-0.002037251,-0.244834683,9.245512327
-0.002036621,-0.244834683,9.241844981
