Lab7/inlab/intergrator/sine/IntegralSine10k.csv

#Digilent WaveForms Oscilloscope Acquisition
#Device Name: Discovery2
#Serial Number: SN:210321B0E782
#Date Time: 2023-10-25 14:50:15.486
#Sample rate: 1.42857e+07Hz
#Samples: 8192
#Trigger: Source: Channel 1 Type: Edge Condition: Rising Level: -2.31 mV Hyst.: Auto HoldOff: 100 ns
#Channel 1: Range: 500 mV/div Offset: 1 V Attenuation: 1 X
#Channel 2: Range: 1 V/div Offset: -8.2 V Attenuation: 1 X
#Wavegen Channel 1: Running
#Mode: Simple
#Type: Sine
#Frequency: 10 kHz
#Period: 100 us
#Amplitude: 1 V
#Offset: 0 V
#Symmetry: 50 %
#Phase: 0 °

Time (s),Channel 1 (V),Channel 2 (V)
-0.0002866686666666667,0.7410488375599495,8.97630200183605
-0.0002865986666666667,0.7446828508529382,8.961782004629576
-0.0002865286666666667,0.7476561344562926,8.965412003931192
-0.0002864586666666667,0.7476561344562926,8.958152005327959
-0.0002863886666666667,0.7526116071285502,8.950892006724722
-0.0002863186666666667,0.7516205125941011,8.940002008819862
-0.0002862486666666667,0.7569063501111732,8.932742010216629
-0.0002861786666666667,0.7598796337145277,8.921852012311772
-0.0002861086666666667,0.7628529173178835,8.914592013708537
-0.0002860386666666667,0.7658262009212367,8.918222013010155
-0.0002859686666666667,0.7681387548349567,8.921852012311772
-0.0002858986666666667,0.7707816735934961,8.914592013708535
-0.0002858286666666667,0.7754067814209342,8.914592013708535
-0.0002857586666666667,0.7763978759553858,8.903702015803679
-0.0002856886666666667,0.7810229837828269,8.892812017898823
-0.0002856186666666667,0.7830051728517291,8.889182018597205
-0.0002855486666666667,0.7859784564550836,8.885552019295588
-0.0002854786666666667,0.7879606455239881,8.881922019993961
-0.0002854086666666667,0.7915946588169737,8.867402022787502
-0.0002853386666666667,0.7945679424203296,8.863772023485875
-0.0002852686666666667,0.7978715908685021,8.856512024882637
-0.0002851986666666667,0.7998537799374035,8.852882025581023
-0.0002851286666666667,0.803487793230393,8.852882025581021
-0.0002850586666666667,0.8044788877648453,8.852882025581016
-0.0002849886666666667,0.8061307119889295,8.84199202767617
-0.0002849186666666667,0.8091039955922847,8.834732029072928
-0.0002848486666666667,0.8117469143508234,8.823842031168065
-0.0002847786666666667,0.8147201979541752,8.809322033961605
-0.0002847086666666667,0.8173631167127138,8.816582032564835
-0.0002846386666666667,0.8200060354712523,8.812952033263214
-0.0002845686666666667,0.8226489542297871,8.805692034659984
-0.0002844986666666667,0.8243007784538743,8.783912038850268
-0.0002844286666666667,0.8282651565916811,8.78028203954865
-0.0002843586666666667,0.8305777105053994,8.78028203954865
-0.0002842886666666667,0.8332206292639377,8.769392041643794
-0.0002842186666666667,0.834872453488025,8.773022040945412
-0.0002841486666666667,0.8381761019361935,8.769392041643796
-0.0002840786666666667,0.8398279261602808,8.762132043040557
-0.0002840086666666667,0.8428012097636357,8.747612045834083
-0.0002839386666666667,0.8437923042980864,8.747612045834083
-0.0002838686666666667,0.8470959527462585,8.736722047929227
-0.0002837986666666667,0.8497388715047963,8.736722047929227
-0.0002837286666666667,0.8510603308840637,8.736722047929227
-0.0002836586666666667,0.8537032496426016,8.733092048627608
-0.0002835886666666667,0.8550247090218713,8.729462049325983
-0.0002835186666666667,0.8573372629355894,8.714942052119524
-0.0002834486666666667,0.8606409113837621,8.700422054913043
-0.0002833786666666667,0.8632838301423001,8.689532057008181
-0.0002833086666666667,0.8649356543663843,8.678642059103336
-0.0002832386666666667,0.8695607621938255,8.675012059801713
-0.0002831686666666667,0.868569667659376,8.660492062595237
-0.0002830986666666667,0.873194775486812,8.660492062595237
-0.0002830286666666667,0.8745162348660829,8.649602064690383
-0.0002829586666666667,0.8768287887798042,8.63871206678553
-0.0002828886666666667,0.879471707538339,8.64597206538876
-0.0002828186666666667,0.8804628020727918,8.642342066087146
-0.0002827486666666667,0.8827753559865131,8.627822068880667
-0.0002826786666666667,0.885418274745048,8.616932070975821
-0.0002826086666666667,0.8834360856761463,8.616932070975816
-0.0002825386666666667,0.8874004638139521,8.613302071674196
-0.0002824686666666667,0.8887219231932203,8.606042073070963
-0.0002823986666666667,0.893347031020661,8.602412073769342
-0.0002823286666666667,0.8953292200895639,8.595152075166105
-0.0002822586666666667,0.8953292200895639,8.591522075864487
-0.0002821886666666667,0.8979721388481012,8.587892076562866
-0.0002821186666666667,0.8996239630721872,8.569742080054775
-0.0002820486666666667,0.9009454224514551,8.562482081451542
-0.0002819786666666667,0.903588341209993,8.547962084245063
-0.0002819086666666667,0.9045794357444445,8.537072086340208
-0.0002818386666666667,0.9065616248133466,8.537072086340208
-0.0002817686666666667,0.9085438138822506,8.529812087736971
-0.0002816986666666667,0.9101956381063363,8.522552089133733
-0.0002816286666666667,0.9134992865545064,8.522552089133733
-0.0002815586666666667,0.9131689217096908,8.511662091228878
-0.0002814886666666667,0.9151511107785937,8.511662091228878
-0.0002814186666666667,0.9191154889163979,8.518922089832111
-0.0002813486666666667,0.9204369482956682,8.500772093324022
-0.0002812786666666667,0.9220887725197542,8.500772093324022
-0.0002812086666666667,0.9237405967438391,8.489882095419173
-0.0002811386666666667,0.9263835155023772,8.482622096815929
-0.0002810686666666667,0.9286960694160973,8.475362098212692
-0.0002809986666666667,0.9277049748816464,8.475362098212692
-0.0002809286666666667,0.9310086233298174,8.4572121017046
-0.0002808586666666667,0.9316693530194518,8.4572121017046
-0.0002807886666666667,0.9333211772435369,8.453582102402983
-0.0002807186666666667,0.9353033663124406,8.453582102402981
-0.0002806486666666667,0.934312271777989,8.446322103799744
-0.0002805786666666667,0.9382766499157933,8.435432105894893
-0.0002805086666666667,0.9399284741398808,8.420912108688414
-0.0002804386666666667,0.9392677444502466,8.417282109386797
-0.0002803686666666667,0.9425713928984165,8.417282109386797
-0.0002802986666666667,0.9432321225880524,8.402762112180321
-0.0002802286666666667,0.9435624874328696,8.402762112180321
-0.0002801586666666667,0.9465357710362228,8.399132112878705
-0.0002800886666666667,0.9488483249499442,8.38461211567223
-0.0002800186666666667,0.9508305140188471,8.38461211567223
-0.0002799486666666667,0.9524823382429323,8.370092118465761
-0.0002798786666666667,0.9518216085532987,8.3592021205609
-0.0002798086666666667,0.9531430679325674,8.348312122656043
-0.0002797386666666667,0.9538037976222012,8.348312122656043
-0.0002796686666666667,0.9557859866911047,8.35557212125928
-0.0002795986666666667,0.956777081225556,8.351942121957663
-0.0002795286666666667,0.9580985406048242,8.337422124751194
-0.0002794586666666667,0.958428905449642,8.322902127544713
-0.0002793886666666667,0.9600807296737277,8.319272128243096
-0.0002793186666666667,0.9600807296737277,8.312012129639863
-0.0002792486666666667,0.9637147429667166,8.301122131735003
-0.0002791786666666667,0.9643754726563507,8.290232133830147
-0.0002791086666666667,0.9656969320356189,8.27571213662368
-0.0002790386666666667,0.9686702156389739,8.261192139417199
-0.0002789686666666667,0.9690005804837911,8.261192139417199
-0.0002788986666666667,0.9703220398630591,8.261192139417199
-0.0002788286666666667,0.9699916750182425,8.243042142909106
-0.0002787586666666667,0.9703220398630596,8.239412143607488
-0.0002786886666666667,0.9742864180008639,8.232152145004253
-0.0002786186666666667,0.9729649586215969,8.228522145702632
-0.0002785486666666667,0.9739560531560485,8.217632147797776
-0.0002784786666666667,0.9752775125353167,8.210372149194543
-0.0002784086666666667,0.976929336759403,8.206742149892921
-0.0002783386666666667,0.9785811609834887,8.192222152686446
-0.0002782686666666667,0.9795722555179398,8.199482151289679
-0.0002781986666666667,0.9805633500523918,8.184962154083209
-0.0002781286666666667,0.981224079742026,8.184962154083209
-0.0002780586666666667,0.9808937148972091,8.177702155479976
-0.0002779886666666667,0.981224079742026,8.184962154083209
-0.0002779186666666667,0.9835366336557463,8.174072156178354
-0.0002778486666666667,0.9841973633453809,8.163182158273489
-0.0002777786666666667,0.985188457879832,8.145032161765405
-0.0002777086666666667,0.985188457879832,8.141402162463788
-0.0002776386666666667,0.984858093035016,8.148662161067019
-0.0002775686666666667,0.9875010117935521,8.137772163162168
-0.0002774986666666667,0.9868402821039177,8.134142163860551
-0.0002774286666666667,0.9884921063280047,8.130512164558919
-0.0002773586666666667,0.9908046602417238,8.105102169447601
-0.0002772886666666667,0.9898135657072722,8.101472170145984
-0.0002772186666666667,0.9904742953969058,8.101472170145977
-0.0002771486666666667,0.9888224711728208,8.086952172939508
-0.0002770786666666667,0.9888224711728208,8.086952172939508
-0.0002770086666666667,0.9894832008624544,8.09058217224112
-0.0002769386666666667,0.9881617414831865,8.076062175034654
-0.0002768686666666667,0.9901439305520894,8.068802176431417
-0.0002767986666666667,0.9898135657072723,8.06517217712979
-0.0002767286666666667,0.9901439305520894,8.050652179923324
-0.0002766586666666667,0.9911350250865409,8.032502183415231
-0.0002765886666666667,0.9937779438450782,8.032502183415229
-0.0002765186666666667,0.9937779438450782,8.028872184113613
-0.0002764486666666667,0.9941083086898954,8.017982186208757
-0.0002763786666666667,0.9964208626036154,8.017982186208753
-0.0002763086666666667,0.9960904977587983,8.01072218760552
-0.0002762386666666667,0.9980726868277012,8.007092188303901
-0.0002761686666666667,0.9974119571380676,7.999832189700657
-0.0002760986666666667,0.9987334165173356,7.98531219249419
-0.0002760286666666667,0.9984030516725184,7.98531219249419
-0.0002759586666666667,0.9980726868277018,7.967162195986093
-0.0002758886666666667,0.99939414620697,7.95990219738286
-0.0002758186666666667,0.9990637813621528,7.952642198779623
-0.0002757486666666667,0.9997245110517871,7.941752200874762
-0.0002756786666666667,0.99939414620697,7.930862202969911
-0.0002756086666666667,0.9974119571380671,7.927232203668293
-0.0002755386666666667,0.9990637813621532,7.927232203668285
-0.0002754686666666667,1.000054875896604,7.909082207160201
-0.0002753986666666667,0.9990637813621528,7.894562209953726
-0.0002753286666666667,0.9987334165173356,7.887302211350484
-0.0002752586666666667,0.9987334165173356,7.876412213445634
-0.0002751886666666667,1.000385240741421,7.869152214842397
-0.0002751186666666667,0.9984030516725189,7.869152214842392
-0.0002750486666666667,0.99939414620697,7.858262216937541
-0.0002749786666666667,1.000385240741421,7.840112220429448
-0.0002749086666666667,0.9997245110517875,7.83648222112783
-0.0002748386666666667,1.000385240741421,7.83648222112783
-0.0002747686666666667,0.9990637813621528,7.821962223921355
-0.0002746986666666667,0.9987334165173352,7.818332224619737
-0.0002746286666666667,0.9977423219828843,7.818332224619737
-0.0002745586666666667,0.9974119571380671,7.803812227413263
-0.0002744886666666667,0.9967512274484328,7.803812227413261
-0.0002744186666666667,0.9970815922932499,7.800182228111645
-0.0002743486666666667,0.9974119571380671,7.782032231603552
-0.0002742786666666667,0.99708159229325,7.782032231603548
-0.0002742086666666667,0.9974119571380671,7.774772233000315
-0.0002741386666666667,0.9984030516725184,7.778402232301933
-0.0002740686666666667,0.9957601329139824,7.77114223369869
-0.0002739986666666667,0.9984030516725184,7.756622236492221
-0.0002739286666666667,0.9960904977587983,7.749362237888985
-0.0002738586666666667,0.9964208626036152,7.742102239285744
-0.0002737886666666667,0.9957601329139811,7.734842240682511
-0.0002737186666666667,0.9954297680691639,7.731212241380892
-0.0002736486666666667,0.9964208626036151,7.720322243476033
-0.0002735786666666667,0.9954297680691644,7.713062244872803
-0.0002735086666666667,0.9967512274484327,7.709432245571181
-0.0002734386666666667,0.9960904977587984,7.691282249063082
-0.0002733686666666667,0.9964208626036154,7.680392251158238
-0.0002732986666666667,0.9947690383795298,7.680392251158232
-0.0002732286666666667,0.9941083086898957,7.669502253253377
-0.0002731586666666667,0.9947690383795295,7.669502253253377
-0.0002730886666666667,0.9931172141554439,7.673132252554995
-0.0002730186666666667,0.9944386735347116,7.665872253951757
-0.0002729486666666667,0.9921261196209935,7.662242254650142
-0.0002728786666666667,0.9917957547761753,7.654982256046903
-0.0002728086666666667,0.9911350250865414,7.644092258142043
-0.0002727386666666667,0.9921261196209921,7.636832259538814
-0.0002726686666666667,0.9901439305520894,7.629572260935573
-0.0002725986666666667,0.989152836017638,7.622312262332331
-0.0002725286666666667,0.989152836017638,7.611422264427485
-0.0002724586666666667,0.9868402821039177,7.615052263729098
-0.0002723886666666667,0.987831376638369,7.60416226582424
-0.0002723186666666667,0.9871706469487352,7.59690226722101
-0.0002722486666666667,0.985188457879832,7.582382270014532
-0.0002721786666666667,0.9868402821039159,7.582382270014526
-0.0002721086666666667,0.9828759039661137,7.567862272808064
-0.0002720386666666667,0.9822151742764775,7.571492272109676
-0.0002719686666666667,0.9792418906731229,7.571492272109671
-0.0002718986666666667,0.978911525828306,7.560602274204826
-0.0002718286666666667,0.9802329852075746,7.549712276299966
-0.0002717586666666667,0.9775900664490366,7.54245227769672
-0.0002716886666666667,0.9759382422249522,7.524302281188644
-0.0002716186666666667,0.9756078773801342,7.513412283283779
-0.0002715486666666667,0.9729649586215974,7.509782283982156
-0.0002714786666666667,0.9739560531560481,7.498892286077311
-0.0002714086666666667,0.9719738640871456,7.484372288870832
-0.0002713386666666667,0.9732953234664141,7.480742289569215
-0.0002712686666666667,0.9732953234664141,7.48437228887083
-0.0002711986666666667,0.9713131343975112,7.477112290267595
-0.0002711286666666667,0.9703220398630591,7.469852291664355
-0.0002710586666666667,0.9690005804837917,7.46622229236274
-0.0002709886666666667,0.9686702156389739,7.458962293759502
-0.0002709186666666667,0.9660272968804362,7.458962293759495
-0.0002708486666666667,0.9650362023459855,7.444442296553034
-0.0002707786666666667,0.9647058375011679,7.433552298648172
-0.0002707086666666667,0.962723648432265,7.429922299346553
-0.0002706386666666667,0.9604110945185459,7.429922299346553
-0.0002705686666666667,0.9604110945185449,7.411772302838461
-0.0002704986666666667,0.9607414593633621,7.397252305631986
-0.0002704286666666667,0.9587592702944601,7.39362230633037
-0.0002703586666666667,0.9577681757600076,7.382732308425513
-0.0002702886666666667,0.9554556218462875,7.368212311219038
-0.0002702186666666667,0.9590896351392745,7.360952312615805
-0.0002701486666666667,0.9561163515359217,7.371842310520657
-0.0002700786666666667,0.954464527311836,7.357322313314183
-0.0002700086666666667,0.954794892156653,7.353692314012566
-0.0002699386666666667,0.9514912437084815,7.350062314710946
-0.0002698686666666667,0.9505001491740299,7.33917231680609
-0.0002697986666666667,0.9491786897947619,7.324652319599622
-0.0002697286666666667,0.9475268655706757,7.342802316107709
-0.0002696586666666667,0.9458750413465897,7.328282318901234
-0.0002695886666666667,0.9442232171225048,7.321022320298001
-0.0002695186666666667,0.9432321225880524,7.317392320996379
-0.0002694486666666667,0.9412499335191495,7.302872323789905
-0.0002693786666666667,0.9386070147606135,7.291982325885054
-0.0002693086666666667,0.9389373796054294,7.295612325186667
-0.0002692386666666667,0.9349730014676234,7.291982325885049
-0.0002691686666666667,0.9339819069331723,7.281092327980199
-0.0002690986666666667,0.9329908123987205,7.270202330075338
-0.0002690286666666667,0.9319997178642689,7.255682332868863
-0.0002689586666666667,0.930347893640184,7.25931233217048
-0.0002688886666666667,0.9296871639505488,7.248422334265626
-0.0002688186666666667,0.9283657045712801,7.244792334964008
-0.0002687486666666667,0.926053150657561,7.241162335662391
-0.0002686786666666667,0.9250620561231087,7.233902337059153
-0.0002686086666666667,0.9234102318990227,7.223012339154296
-0.0002685386666666667,0.9214280428301207,7.215752340551063
-0.0002684686666666667,0.9184547592267653,7.212122341249441
-0.0002683986666666667,0.9164725701578624,7.201232343344586
-0.0002683286666666667,0.9141600162441433,7.201232343344586
-0.0002682586666666667,0.9131689217096908,7.197602344042966
-0.0002681886666666667,0.9108563677959707,7.197602344042966
-0.0002681186666666667,0.9085438138822516,7.201232343344584
-0.0002680486666666667,0.9065616248133475,7.183082346836493
-0.0002679786666666667,0.9052401654340789,7.175822348233256
-0.0002679086666666667,0.9019365169859088,7.168562349630022
-0.0002678386666666667,0.9012757872962729,7.150412353121926
-0.0002677686666666667,0.8989632333825528,7.13952235521707
-0.0002676986666666667,0.8963203146240167,7.125002358010602
-0.0002676286666666667,0.8943381255551126,7.103222362200885
-0.0002675586666666667,0.8923559364862095,7.099592362899267
-0.0002674886666666667,0.8903737474173075,7.099592362899267
-0.0002674186666666667,0.889052288038038,7.092332364296029
-0.0002673486666666667,0.8877308286587693,7.085072365692792
-0.0002672786666666667,0.8834360856761483,7.085072365692792
-0.0002672086666666667,0.8824449911416947,7.077812367089555
-0.0002671386666666667,0.8798020723831574,7.074182367787937
-0.0002670686666666667,0.8794717075383404,7.066922369184703
-0.0002669986666666667,0.876828788779803,7.059662370581463
-0.0002669286666666667,0.8745162348660829,7.063292369883081
-0.0002668586666666667,0.8728644106419977,7.063292369883081
-0.0002667886666666667,0.8685696676593739,7.045142373374988
-0.0002667186666666667,0.8675785731249224,7.056032371279844
-0.0002666486666666667,0.8652660192112033,7.056032371279844
-0.0002665786666666667,0.862623100452665,7.048772372676607
-0.0002665086666666667,0.8606409113837621,7.045142373374988
-0.0002664386666666667,0.8593194520044939,7.037882374771755
-0.0002663686666666667,0.8573372629355904,7.023362377565277
-0.0002662986666666667,0.8546943441770531,7.023362377565277
-0.0002662286666666667,0.8533728847977834,7.012472379660419
-0.0002661586666666667,0.8510603308840643,7.008842380358803
-0.0002660886666666667,0.8467655879014413,7.005212381057184
-0.0002660186666666667,0.8457744933669888,7.00158238175556
-0.0002659486666666667,0.8437923042980868,6.987062384549092
-0.0002658786666666667,0.8414797503843667,6.99069238385071
-0.0002658086666666667,0.8388368316258282,6.968912388040995
-0.0002657386666666667,0.8361939128672922,6.961652389437762
-0.0002656686666666667,0.8328902644191205,6.958022390136144
-0.0002655986666666667,0.8315688050398505,6.950762391532903
-0.0002655286666666667,0.8289258862813145,6.94350239292967
-0.0002654586666666667,0.8279347917468629,6.932612395024814
-0.0002653886666666667,0.8239704136090558,6.928982395723193
-0.0002653186666666667,0.8209971300057026,6.925352396421577
-0.0002652486666666667,0.8190149409367997,6.91809239781834
-0.0002651786666666667,0.8140594682645418,6.914462398516719
-0.0002651086666666667,0.813398738574908,6.910832399215103
-0.0002650386666666667,0.8100950901267363,6.903572400611865
-0.0002649686666666667,0.8071218065233803,6.903572400611865
-0.0002648986666666667,0.8038181580752102,6.903572400611865
-0.0002648286666666667,0.8001841447822213,6.889052403405391
-0.0002647586666666667,0.799193050247769,6.881792404802151
-0.0002646886666666667,0.7968804963340499,6.874532406198917
-0.0002646186666666667,0.7929161181962439,6.874532406198917
-0.0002645486666666667,0.7922553885066073,6.8709024068973
-0.0002644786666666667,0.7872999158343521,6.874532406198917
-0.0002644086666666667,0.7872999158343521,6.863642408294061
-0.0002643386666666667,0.7846569970758136,6.852752410389202
-0.0002642686666666667,0.7820140783172775,6.845492411785969
-0.0002641986666666667,0.7773889704898373,6.84186241248435
-0.0002641286666666667,0.7744156868864819,6.841862412484342
-0.0002640586666666667,0.7721031329727628,6.823712415976257
-0.0002639886666666667,0.7694602142142253,6.820082416674639
